Division,WeightClassKg,Place,Name,Team,BodyweightKg,Best3SquatKg,Best3BenchKg,Best3DeadliftKg,TotalKg,Equipment,Event,Sex
Boys,55.79,1,Tj Green,Saginaw,51.85,133.81,72.57,106.59,312.98,Single-ply,SBD,M
Boys,55.79,1,Michael Lira,Fort Worth Boswell,55.34,120.2,63.5,136.08,319.78,Single-ply,SBD,M
Boys,55.79,2,Ryan Kennedy #1,Saginaw,54.25,88.45,83.91,83.91,256.28,Single-ply,SBD,M
Boys,55.79,DQ,Bryson Turner,Saginaw,55.25,115.67,63.5,120.2,,Single-ply,SBD,M
Boys,59.87,1,Eugene Johnson,Fort Worth Boswell,59.87,102.06,86.18,129.27,317.51,Single-ply,SBD,M
Boys,59.87,2,Dallas Delmere,Fort Worth Boswell,58.97,120.2,65.77,124.74,310.71,Single-ply,SBD,M
Boys,59.87,3,Josh Harris,Saginaw,59.83,92.99,65.77,127.01,285.76,Single-ply,SBD,M
Boys,59.87,4,Sean Wolff,Saginaw,56.52,92.99,58.97,113.4,265.35,Single-ply,SBD,M
Boys,67.13,1,Kevin Barns,White Settlement Brewer,65.32,172.37,102.06,185.97,460.4,Single-ply,SBD,M
Boys,67.13,2,Wes Keathley,White Settlement Brewer,61.23,170.1,102.06,172.37,444.52,Single-ply,SBD,M
Boys,67.13,3,Rashard Wilson,Fort Worth Boswell,66.68,158.76,99.79,176.9,435.45,Single-ply,SBD,M
Boys,67.13,4,Chris Miller,Fort Worth Boswell,65.32,156.49,99.79,172.37,428.64,Single-ply,SBD,M
Boys,67.13,5,Eddie Quintana,Fort Worth Boswell,61.69,129.27,81.65,142.88,353.8,Single-ply,SBD,M
Boys,67.13,6,Matt Burkhead,Fort Worth Boswell,64.41,142.88,72.57,129.27,344.73,Single-ply,SBD,M
Boys,67.13,7,Baron Johnson,Fort Worth Boswell,66.22,108.86,92.99,129.27,331.12,Single-ply,SBD,M
Boys,74.84,8,Logan Little,Saginaw,67.27,129.27,83.91,117.93,331.12,Single-ply,SBD,M
Boys,67.13,9,Dalton Wachel,Saginaw,62.37,102.06,68.04,108.86,278.96,Single-ply,SBD,M
Boys,74.84,1,Jonathan Szabo,Saginaw,73.03,192.78,113.4,197.31,503.49,Single-ply,SBD,M
Boys,74.84,2,David Martinez,Fort Worth Boswell,74.39,185.97,136.08,181.44,503.49,Single-ply,SBD,M
Boys,74.84,3,Bryce Thomasson,Fort Worth Boswell,74.39,183.7,90.72,195.04,469.47,Single-ply,SBD,M
Boys,74.84,4,Ryan Wood,Fort Worth Boswell,70.31,163.29,108.86,154.22,426.38,Single-ply,SBD,M
Boys,74.84,5,Chris Black,Saginaw,71.58,172.37,108.86,140.61,421.84,Single-ply,SBD,M
Boys,74.84,6,Darrell Tubbs,White Settlement Brewer,73.94,158.76,95.25,138.35,392.36,Single-ply,SBD,M
Boys,74.84,7,Russell Abrams,Saginaw,70.94,136.08,92.99,124.74,353.8,Single-ply,SBD,M
Boys,74.84,8,Raymundo Reyna,Saginaw,71.67,136.08,77.11,133.81,347,Single-ply,SBD,M
Boys,74.84,9,Jonathan Colon,Fort Worth Boswell,71.21,138.35,61.23,142.88,342.46,Single-ply,SBD,M
Boys,82.1,1,Mathew Borgstedt,White Settlement Brewer,77.11,142.88,90.72,158.76,392.36,Single-ply,SBD,M
Boys,82.1,2,Hugo Gonzales,White Settlement Brewer,78.93,136.08,83.91,151.95,371.95,Single-ply,SBD,M
Boys,82.1,DQ,Carben Abila,White Settlement Brewer,80.74,136.08,,158.76,,Single-ply,SBD,M
Boys,82.1,DQ,Josh Goodwin,Saginaw,81.65,124.74,97.52,142.88,,Single-ply,SBD,M
Boys,89.81,1,Joe Vandegriff,Saginaw,88,204.12,142.88,183.7,530.7,Single-ply,SBD,M
Boys,89.81,2,Jeffrey Hutto,Fort Worth Boswell,85.28,183.7,113.4,181.44,478.54,Single-ply,SBD,M
Boys,89.81,3,Blake Morton,Saginaw,87,183.7,115.67,176.9,476.27,Single-ply,SBD,M
Boys,89.81,4,Manny Rodriguez,Saginaw,85.05,183.7,106.59,172.37,462.66,Single-ply,SBD,M
Boys,89.81,5,Russell Murphy,Saginaw,84.37,170.1,111.13,163.29,444.52,Single-ply,SBD,M
Boys,89.81,6,Ryan Perez,Fort Worth Boswell,84.37,163.29,104.33,174.63,442.25,Single-ply,SBD,M
Boys,89.81,7,Garrett Hamilton,Fort Worth Boswell,88.45,170.1,102.06,158.76,430.91,Single-ply,SBD,M
Boys,89.81,8,Trenton Ferris,Saginaw,83.7,163.29,102.06,163.29,428.64,Single-ply,SBD,M
Boys,89.81,9,John Humphreys,Fort Worth Boswell,87.54,151.95,113.4,154.22,419.57,Single-ply,SBD,M
Boys,99.79,1,Daniel Hoystradt,Saginaw,99.79,181.44,113.4,188.24,483.08,Single-ply,SBD,M
Boys,99.79,2,Corey Abbott,White Settlement Brewer,91.17,149.69,127.01,181.44,458.13,Single-ply,SBD,M
Boys,99.79,3,Brandon Troxell,Fort Worth Boswell,97.07,136.08,88.45,172.37,396.89,Single-ply,SBD,M
Boys,99.79,DQ,Anthony Washington,White Settlement Brewer,97.98,199.58,,213.19,,Single-ply,SBD,M
Boys,99.79,DQ,Gilbert Rodriguez,Fort Worth Boswell,90.72,111.13,65.77,102.06,,Single-ply,SBD,M
Boys,109.77,1,Pete Lopez,Saginaw,109.68,215.46,129.27,206.38,551.11,Single-ply,SBD,M
Boys,109.77,2,Garrison Trice,White Settlement Brewer,106.59,206.38,113.4,217.72,537.51,Single-ply,SBD,M
Boys,109.77,3,James Doughty,White Settlement Brewer,102.97,156.49,104.33,156.49,417.3,Single-ply,SBD,M
Boys,109.77,DQ,Tim Cappo,White Settlement Brewer,102.51,183.7,,165.56,,Single-ply,SBD,M
Boys,124.74,1,Aj Gutierrez,Saginaw,122.92,226.8,142.88,199.58,569.26,Single-ply,SBD,M
Boys,124.74,2,James De La Rosa,White Settlement Brewer,122.47,210.92,129.27,222.26,562.45,Single-ply,SBD,M
Boys,124.74,3,Hank Allen,White Settlement Brewer,110.22,206.38,136.08,190.51,532.97,Single-ply,SBD,M
Boys,124.74,4,Zac Cook,White Settlement Brewer,120.66,208.65,108.86,192.78,510.29,Single-ply,SBD,M
Boys,124.74,5,Keldon Williams,Fort Worth Boswell,117.93,176.9,122.47,190.51,489.88,Single-ply,SBD,M
Boys,124.74,6,Jasser Saleh,White Settlement Brewer,117.48,167.83,113.4,161.03,442.25,Single-ply,SBD,M
Boys,124.74+,1,Joseph Fuqua,Fort Worth Boswell,151.95,190.51,113.4,185.97,489.88,Single-ply,SBD,M
