Place,Name,State,WeightClassKg,BodyweightKg,Age,Best3BenchKg,Best3DeadliftKg,TotalKg,Sex,Division,Equipment,Deadlift4Kg,Event
1,Kim Held,PA,60,58.90,29,42.50,,42.50,F,Open,Raw,,B
1,Tarnissha Sass,PA,67.5,65.70,40,62.50,,62.50,F,Open,Raw,,B
2,Jessica Banotai,PA,67.5,67.20,26,62.50,,62.50,F,Open,Raw,,B
1,Casey Hannigan,PA,75,73.70,24,42.50,,42.50,F,Open,Raw,,B
1,Angie Alpha,PA,90+,100.70,39,97.50,,97.50,F,Open,Raw,,B
1,Nick Palopoli,PA,67.5,66.10,17,120.00,,120.00,M,Juniors 16-17,Raw,,B
2,Collin Watson,PA,67.5,66.10,16,85.00,,85.00,M,Juniors 16-17,Raw,,B
1,Jake Lombardino,PA,100,97.30,17,85.00,,85.00,M,Juniors 16-17,Raw,,B
1,Rodman Holmes,PA,125,116.90,21,132.50,,132.50,M,Juniors 20-23,Raw,,B
1,Ben Goldman,PA,82.5,81.70,34,85.00,,85.00,M,Open,Raw,,B
1,Maliek Derstine,PA,90,88.50,27,237.50,,237.50,M,Open,Raw,,B
2,Daniel Held,PA,90,87.80,38,107.50,,107.50,M,Open,Raw,,B
1,Kevin Lobb,PA,100,97.70,26,190.00,,190.00,M,Open,Raw,,B
2,Ryan DeFalco,PA,100,97.80,40,175.00,,175.00,M,Open,Raw,,B
1,Lowel Clemonts,PA,125,122.50,25,197.50,,197.50,M,Open,Raw,,B
2,Jeff Crosby,PA,125,124.50,28,162.50,,162.50,M,Open,Raw,,B
3,Jason Janis,PA,125,116.40,35,135.00,,135.00,M,Open,Raw,,B
1,Dave Siegfried,PA,90,90.00,51,145.00,,145.00,M,Masters 50-54,Raw,,B
1,James Alpha,PA,125,122.50,47,202.50,,202.50,M,Masters 40-44,Raw,,B
1,Kim Held,PA,60,58.90,29,,115.00,115.00,F,Open,Raw,,D
1,Jessica Kratz,PA,67.5,62.90,42,,167.50,167.50,F,Open,Raw,,D
2,Tarnissha Sass,PA,67.5,65.70,40,,140.00,140.00,F,Open,Raw,,D
3,Jessica Banotai,PA,67.5,67.20,26,,137.50,137.50,F,Open,Raw,,D
1,Casey Hannigan,PA,75,73.70,24,,117.50,117.50,F,Open,Raw,,D
1,Angie Alpha,PA,90+,100.70,39,,87.50,87.50,F,Open,Raw,,D
1,James Yarnell,NJ,67.5,66.00,15,,175.00,175.00,M,Juniors 15-16,Raw,182.5,D
1,Nick Palopoli,PA,67.5,66.10,17,,180.00,180.00,M,Juniors 16-17,Raw,,D
2,Collin Watson,PA,67.5,66.10,16,,165.00,165.00,M,Juniors 16-17,Raw,,D
1,Jake Lombardino,PA,100,97.30,17,,207.50,207.50,M,Juniors 16-17,Raw,,D
1,Eric Opitz,PA,125,118.90,21,,250.00,250.00,M,Juniors 20-23,Raw,,D
2,Rodman Holmes,PA,125,116.90,21,,195.00,195.00,M,Juniors 20-23,Raw,,D
1,Ben Goldman,PA,82.5,81.70,34,,177.50,177.50,M,Open,Raw,,D
1,Daniel Held,PA,90,87.80,38,,177.50,177.50,M,Open,Raw,,D
DQ,Maliek Derstine,PA,90,88.50,27,,-280.00,,M,Open,Raw,,D
1,Kevin Lobb,PA,100,97.70,26,,265.00,265.00,M,Open,Raw,,D
2,Ryan DeFalco,PA,100,97.80,40,,237.50,237.50,M,Open,Raw,,D
1,Lowel Clemonts,PA,125,122.50,25,,295.00,295.00,M,Open,Raw,,D
2,Jeff Crosby,PA,125,124.50,28,,257.50,257.50,M,Open,Raw,,D
3,Jason Janis,PA,125,116.40,35,,232.50,232.50,M,Open,Raw,,D
1,Markus Riggleman,PA,75,70.30,46,,212.50,212.50,M,Masters 45-49,Raw,,D
1,Dave Siegfried,PA,90,90.00,51,,220.00,220.00,M,Masters 50-54,Raw,,D
1,James Alpha,PA,125,122.50,47,,265.00,265.00,M,Masters 40-44,Raw,,D
