Place,Sex,Name,CyrillicName,BodyweightKg,Squat1Kg,Squat2Kg,Squat3Kg,Best3SquatKg,Squat4Kg,Bench1Kg,Bench2Kg,Bench3Kg,Best3BenchKg,Bench4Kg,Deadlift1Kg,Deadlift2Kg,Deadlift3Kg,Best3DeadliftKg,Deadlift4Kg,TotalKg,WeightClassKg,Event,Equipment,Tested,Division,Age,BirthDate
1,F,Tatyana Pozdnyakova,Татьяна Позднякова,48,65,-75,-80,65,,37.5,42.5,-47.5,42.5,,65,75,-82.5,75,,182.5,48,SBD,Wraps,Yes,Amateur Open,24,1994-04-15
1,F,Marina Gromova,Марина Громова,55.8,92.5,-97.5,97.5,97.5,,62.5,67.5,-70,67.5,,95,102.5,107.5,107.5,,272.5,56,SBD,Wraps,Yes,Amateur Juniors,23,1994-11-17
1,F,Alena Vlasova,Алена Власова,54.6,110,120,-127.5,120,,-65,-70,70,70,,122.5,130,,130,,320,56,SBD,Wraps,Yes,Amateur Open,33,1984-09-19
1,F,Yana Kulikova,Яна Куликова,60,92.5,100,107.5,107.5,,67.5,-72.5,-72.5,67.5,,95,102.5,-107.5,102.5,,277.5,60,SBD,Wraps,Yes,Amateur Juniors,21,1996-10-04
2,F,Anastasiya Enuchenkova,Анастасия Енученкова,59.2,90,-100,100,100,,50,-60,-60,50,,-90,90,95,95,,245,60,SBD,Wraps,Yes,Amateur Juniors,20,1997-10-10
1,F,Ekaterina Parashchevina,Екатерина Паращевина,60,85,95,100,100,,55,62.5,65,65,,115,125,130,130,,295,60,SBD,Wraps,Yes,Amateur Open,30,1987-09-27
1,F,Oksana Shalashnaya,Оксана Шалашная,60,85,-100,-100,85,,45,-47.5,-47.5,45,,75,82.5,90,90,,220,60,SBD,Wraps,Yes,Amateur Masters 40-49,42,1976-02-20
1,F,Viktoriya Kutyrlo,Виктория Кутырло,66.5,-110,117.5,-122.5,117.5,,55,-60,-60,55,,115,125,130,130,,302.5,67.5,SBD,Wraps,Yes,Amateur Open,25,1993-06-20
1,M,Shamil Mursaliev,Шамил Мурсалиев,73.2,160,-170,-170,160,,-90,100,110,110,,160,180,-200,180,,450,75,SBD,Wraps,Yes,Amateur Teen 17-19,19,1998-12-12
1,M,Dmitriy Krupin,Дмитрий Крупин,78.6,120,130,-140,130,,90,95,100,100,,120,-140,140,140,,370,82.5,SBD,Wraps,Yes,Amateur Teen 17-19,17,2000-08-22
1,M,Ivan Nokhov,Иван Нохов,81.9,-220,230,240,240,,130,135,140,140,,215,225,235,235,,615,82.5,SBD,Wraps,Yes,Amateur Juniors,20,1998-06-03
1,M,Igor Kolobov,Игорь Колобов,89.9,190,-200,-200,190,,130,-135,,130,,-200,-200,200,200,,520,90,SBD,Wraps,Yes,Amateur Open,25,1992-08-18
1,M,Roman Kazak,Роман Казак,100.8,-210,220,-235,220,,130,140,145,145,,180,200,210,210,,575,110,SBD,Wraps,Yes,Amateur Open,34,1984-04-09
1,F,Anna Baklanova,Анна Бакланова,55.8,130,142.5,-150,142.5,,60,67.5,-72.5,67.5,,130,142.5,-150,142.5,,352.5,56,SBD,Wraps,No,Pro Open,34,1984-07-23
DQ,M,Vladimir Kharkov,Владимир Харьков,81.2,210,220,-230,220,,145,152.5,157.5,157.5,,-260,-260,-260,,,,82.5,SBD,Wraps,No,Pro Juniors,22,1995-09-04
1,M,Aleksandr Korchagin,Александр Корчагин,98.8,220,-235,-240,220,,180,-192.5,-192.5,180,,-230,230,245,245,,645,100,SBD,Wraps,No,Pro Open,28,1989-11-15
1,M,Aleksandr Bersenev,Александр Берсенев,98.3,170,185,-200,185,,150,160,175,175,,200,220,240,240,,600,100,SBD,Wraps,No,Pro Masters 40-49,40,1978-03-08
1,F,Mariya Zhgunova,Мария Жгунова,59.3,,,,,,60,-65,-65,60,,130,140,150,150,,210,60,BD,Raw,Yes,Amateur Open,33,1984-11-16
1,M,Vitaliy Yakobchuk,Виталий Якобчук,98.3,,,,,,130,140,150,150,,190,210,-230,210,,360,100,BD,Raw,No,Pro Open,27,1990-10-07
1,F,Kristina Usoltseva,Кристина Усольцева,46,,,,,,37.5,40,-45,40,,,,,,,40,48,B,Raw,Yes,Amateur Open,24,1994-05-05
1,F,Olga Genina,Ольга Генина,58.4,,,,,,47.5,52.5,-57.5,52.5,,,,,,,52.5,60,B,Raw,Yes,Amateur Juniors,23,1995-01-30
DQ,F,Polina Osminina,Полина Осминина,59.6,,,,,,-65,-65,-67.5,,,,,,,,,60,B,Raw,Yes,Amateur Juniors,23,1995-04-29
1,M,Sergey Stolbov,Сергей Столбов,65.6,,,,,,-125,125,137.5,137.5,,,,,,,137.5,67.5,B,Raw,Yes,Amateur Open,26,1992-05-03
2,M,Anatoliy Zhigulin,Анатолий Жигулин,66.7,,,,,,112.5,120,-125,120,,,,,,,120,67.5,B,Raw,Yes,Amateur Open,26,1992-02-02
1,M,Pavel Razuvaev,Павел Разуваев,72.4,,,,,,145,-150,150,150,,,,,,,150,75,B,Raw,Yes,Amateur Open,29,1988-12-02
2,M,Nikolay Morochkovskiy,Николай Морочковский,74.2,,,,,,120,125,130,130,,,,,,,130,75,B,Raw,Yes,Amateur Open,27,1991-02-14
3,M,Ilya Makeev,Илья Макеев,71.3,,,,,,-95,95,-105,95,,,,,,,95,75,B,Raw,Yes,Amateur Open,28,1990-01-26
1,M,Yuriy Chernigov,Юрий Чернигов,80.2,,,,,,105,115,125,125,,,,,,,125,82.5,B,Raw,Yes,Amateur Juniors,22,1996-06-29
1,M,Maksim Domnin,Максим Домнин,89.8,,,,,,152.5,-157.5,-157.5,152.5,,,,,,,152.5,90,B,Raw,Yes,Amateur Open,40,1978-05-03
2,M,Ramil Bakiev,Рамиль Бакиев,89.1,,,,,,150,-155,-155,150,,,,,,,150,90,B,Raw,Yes,Amateur Open,28,1990-03-18
3,M,Evgeniy Kvashnin,Евгений Квашнин,86,,,,,,100,110,-120,110,,,,,,,110,90,B,Raw,Yes,Amateur Open,37,1980-11-18
DQ,M,Bagomed Magomedov,Багомед Магомедов,88.5,,,,,,-132.5,-132.5,,,,,,,,,,90,B,Raw,Yes,Amateur Open,27,1991-06-29
1,M,Yuriy Pelymskiy,Юрий Пелымский,89.3,,,,,,132.5,-137.5,137.5,137.5,,,,,,,137.5,90,B,Raw,Yes,Amateur Masters 40-49,46,1972-08-02
1,M,Nikita Garmanov,Никита Гарманов,98,,,,,,140,152.5,-157.5,152.5,,,,,,,152.5,100,B,Raw,Yes,Amateur Juniors,23,1995-03-23
1,M,Vladimir Frolov,Владимир Фролов,106.7,,,,,,-160,160,-167.5,160,,,,,,,160,110,B,Raw,Yes,Amateur Open,29,1988-11-21
1,M,Igor Vinokurov,Игорь Винокуров,109.5,,,,,,150,157.5,-160,157.5,,,,,,,157.5,110,B,Raw,Yes,Amateur Masters 50-59,51,1967-03-03
1,F,Natalya Gladkikh,Наталья Гладких,45,,,,,,45,50,52.5,52.5,,,,,,,52.5,48,B,Raw,No,Pro Masters 40-49,45,1973-06-18
1,M,Sergey Efremov,Сергей Ефремов,81.8,,,,,,-80,90,-100,90,,,,,,,90,82.5,B,Raw,No,Pro Teen 17-19,18,2000-05-11
1,M,Vladimir Kharkov,Владимир Харьков,81.2,,,,,,145,152.5,157.5,157.5,,,,,,,157.5,82.5,B,Raw,No,Pro Juniors,22,1995-09-04
2,M,Nikita Ketov,Никита Кетов,81.7,,,,,,110,120,-127.5,120,,,,,,,120,82.5,B,Raw,No,Pro Juniors,20,1998-07-29
DQ,M,Eduard Serbolin,Эдуард Серболин,79.3,,,,,,-155,-165,-165,,,,,,,,,82.5,B,Raw,No,Pro Juniors,22,1996-06-22
1,M,Vladimir Tropin,Владимир Тропин,87.2,,,,,,145,155,-162.5,155,,,,,,,155,90,B,Raw,No,Pro Open,24,1993-09-30
1,M,Konstantin Chumilovich,Константин Чумилович,99,,,,,,180,185,-190,185,,,,,,,185,100,B,Raw,No,Pro Open,30,1987-09-20
2,M,Aleksandr Korchagin,Александр Корчагин,98.8,,,,,,180,,,180,,,,,,,180,100,B,Raw,No,Pro Open,28,1989-11-15
1,M,Valeriy Nekrasov,Валерий Некрасов,108.8,,,,,,160,-172.5,,160,,,,,,,160,110,B,Raw,No,Pro Juniors,22,1996-03-18
1,M,Oleg Paklin,Олег Паклин,109.8,,,,,,-210,210,-215,210,,,,,,,210,110,B,Raw,No,Pro Open,30,1987-10-28
2,M,Vladimir Zubachev,Владимир Зубачев,107.2,,,,,,185,-192.5,-192.5,185,,,,,,,185,110,B,Raw,No,Pro Open,32,1985-11-29
3,M,Aleksandr Prozorov,Александр Прозоров,104,,,,,,180,,,180,,,,,,,180,110,B,Raw,No,Pro Open,44,1973-12-12
1,M,Aleksandr Prozorov,Александр Прозоров,104,,,,,,180,,,180,,,,,,,180,110,B,Raw,No,Pro Masters 40-49,44,1973-12-12
1,M,Aleksandr Popov,Александр Попов,116.2,,,,,,182.2,192.5,-202.5,192.5,,,,,,,192.5,125,B,Raw,No,Pro Open,35,1983-05-14
1,F,Svetlana Ustyuzhanina,Светлана Устюжанина,51,,,,,,,,,,,100,107.5,-115,107.5,,107.5,52,D,Raw,Yes,Amateur Open,34,1984-06-09
2,F,Nadezhda Tsurikova,Надежда Цурикова,49.8,,,,,,,,,,,-95,95,102.5,102.5,,102.5,52,D,Raw,Yes,Amateur Open,29,1989-03-20
1,F,Aleksandra Bogomolova,Александра Богомолова,66.9,,,,,,,,,,,105,115,-122.5,115,,115,67.5,D,Raw,Yes,Amateur Girls,18,2000-02-19
1,F,Elena Egorova,Елена Егорова,65,,,,,,,,,,,115,122.5,-130,122.5,,122.5,67.5,D,Raw,Yes,Amateur Open,35,1983-05-17
2,F,Sofya Kharchenko,Софья Харченко,67.3,,,,,,,,,,,90,95,100,100,,100,67.5,D,Raw,Yes,Amateur Open,31,1986-09-05
1,M,Maksim Gubanov,Максим Губанов,64.5,,,,,,,,,,,150,-170,170,170,,170,67.5,D,Raw,Yes,Amateur Teen 17-19,17,2000-08-28
1,M,Roman Zavyalov,Роман Завьялов,79.1,,,,,,,,,,,250,260,265,265,,265,82.5,D,Raw,Yes,Amateur Open,38,1979-12-18
1,M,Igor Vaskin,Игорь Васькин,96.8,,,,,,,,,,,220,240,-250,240,,240,100,D,Raw,Yes,Amateur Masters 40-49,40,1978-06-01
1,M,Dmitriy Korobchenko,Дмитрий Коробченко,108.5,,,,,,,,,,,192.5,197.5,205,205,,205,110,D,Raw,Yes,Amateur Open,34,1984-03-14
1,F,Elena Putilova,Елена Путилова,69.3,,,,,,,,,,,75,80,90,90,,90,75,D,Raw,No,Pro Masters 50-59,52,1965-11-29
1,M,Vladimir Kharkov,Владимир Харьков,81.2,,,,,,,,,,,240,250,260,260,,260,82.5,D,Raw,No,Pro Juniors,22,1995-09-04
1,M,Denis Shishkin,Денис Шишкин,80.8,,,,,,,,,,,290,-307.5,-320,290,,290,82.5,D,Raw,No,Pro Open,36,1982-04-20
2,M,Vladimir Kharkov,Владимир Харьков,81.2,,,,,,,,,,,240,250,260,260,,260,82.5,D,Raw,No,Pro Open,22,1995-09-04
1,M,Stanimir Simov,Станимир Симов,96.4,,,,,,,,,,,280,300,-312.5,300,,300,100,D,Raw,No,Pro Open,29,1989-07-24
1,M,Maksim Novykh,Максим Новых,109.5,,,,,,,,,,,300,330,352.5,352.5,,352.5,110,D,Raw,No,Pro Open,27,1991-04-01
1,M,Oleg Gorev,Олег Горев,123.6,,,,,,,,,,,-330,330,-340,330,,330,125,D,Raw,No,Pro Open,30,1988-03-01
