Division,WeightClassKg,Place,Name,Team,BodyweightKg,Best3SquatKg,Best3BenchKg,Best3DeadliftKg,TotalKg,Equipment,Event,Sex
Boys,51.71,1,Nick Boyd,Colorado City Colorado,50.53,74.84,47.63,108.86,231.33,Single-ply,SBD,M
Boys,51.71,2,Chase White,Colorado City Colorado,49.62,68.04,45.36,108.86,222.26,Single-ply,SBD,M
Boys,55.79,1,Ethan Rodriguez,Midland Lee,55.16,97.52,81.65,124.74,303.91,Single-ply,SBD,M
Boys,55.79,2,Trey Jimenez,Sweetwater,51.8,113.4,65.77,106.59,285.76,Single-ply,SBD,M
Boys,55.79,3,Scott Sullivan,Midland Lee,53.71,95.25,65.77,124.74,285.76,Single-ply,SBD,M
Boys,55.79,4,Joseph Connell,Colorado City Colorado,55.16,86.18,54.43,115.67,256.28,Single-ply,SBD,M
Boys,59.87,1,Isaac Estrada,Odessa,59.6,165.56,97.52,151.95,415.04,Single-ply,SBD,M
Boys,59.87,2,Johnathan Vidal,Denver City,57.52,136.08,70.31,147.42,353.8,Single-ply,SBD,M
Boys,59.87,3,Blake Scott,Sweetwater,59.78,138.35,88.45,127.01,353.8,Single-ply,SBD,M
Boys,59.87,4,Adrian Martinez,Odessa,59.24,133.81,74.84,142.88,351.53,Single-ply,SBD,M
Boys,59.87,5,Johnny Martinez,Odessa Permian,57.06,117.93,79.38,133.81,331.12,Single-ply,SBD,M
Boys,59.87,6,Ramon Zubiate,Denver City,57.15,127.01,77.11,115.67,319.78,Single-ply,SBD,M
Boys,59.87,7,Chris Ortiz,Colorado City Colorado,59.51,115.67,61.23,120.2,297.1,Single-ply,SBD,M
Boys,67.13,1,Jorge Martinez,Snyder,64.86,165.56,83.91,199.58,449.06,Single-ply,SBD,M
Boys,67.13,2,Kendal Adames,Sweetwater,63.78,158.76,79.38,181.44,419.57,Single-ply,SBD,M
Boys,67.13,3,Colton Meeks,Midland Lee,60.24,122.47,83.91,142.88,349.27,Single-ply,SBD,M
Boys,67.13,4,Alyn Salazar,San Angelo Lake View,67.13,127.01,77.11,133.81,337.93,Single-ply,SBD,M
Boys,67.13,5,Nicholas Harrell,Colorado City Colorado,66.32,111.13,56.7,106.59,274.42,Single-ply,SBD,M
Boys,74.84,1,Brody Jasso,Snyder,74.39,204.12,120.2,201.85,526.17,Single-ply,SBD,M
Boys,74.84,2,Jonathan Valdez,Snyder,74.84,195.04,113.4,174.63,483.08,Single-ply,SBD,M
Boys,74.84,3,Josh Camacho,Sweetwater,69.13,176.9,106.59,190.51,474,Single-ply,SBD,M
Boys,74.84,4,Akimas Clarrett,Colorado City Colorado,70.49,165.56,106.59,188.24,460.4,Single-ply,SBD,M
Boys,74.84,5,Perrin Hatcher,Midland Lee,73.21,183.7,102.06,174.63,460.4,Single-ply,SBD,M
Boys,74.84,6,Anthony Martinez,San Angelo Lake View,69.85,142.88,108.86,142.88,394.63,Single-ply,SBD,M
Boys,74.84,7,Julian Vizcaino,Odessa,72.3,136.08,88.45,149.69,374.21,Single-ply,SBD,M
Boys,74.84,8,Jd Salgado,San Angelo Lake View,72.48,117.93,77.11,129.27,324.32,Single-ply,SBD,M
Boys,74.84,DQ,Roberto Montez,Midland Lee,70.13,149.69,92.99,,,Single-ply,SBD,M
Boys,82.1,1,Nestor Jiminez,Midland Lee,75.57,226.8,145.15,249.48,621.42,Single-ply,SBD,M
Boys,82.1,2,Jezreel Sanchez,Odessa,80.92,188.24,117.93,219.99,526.17,Single-ply,SBD,M
Boys,82.1,3,Tony Padilla,Sweetwater,82.1,188.24,120.2,199.58,508.02,Single-ply,SBD,M
Boys,82.1,4,Josh Taylor,Midland Lee,79.47,215.46,102.06,188.24,505.76,Single-ply,SBD,M
Boys,82.1,5,Cris Escalante,Denver City,82.1,176.9,122.47,190.51,489.88,Single-ply,SBD,M
Boys,82.1,6,Julio Acevedo,Roby,82.01,195.04,97.52,174.63,467.2,Single-ply,SBD,M
Boys,82.1,7,Carter Christensen,San Angelo Lake View,80.83,145.15,127.01,181.44,453.59,Single-ply,SBD,M
Boys,82.1,8,Leo Uresti,Midland Lee,79.65,142.88,104.33,185.97,433.18,Single-ply,SBD,M
Boys,82.1,9,Wyatt McCoy,Sweetwater,79.38,136.08,90.72,190.51,417.3,Single-ply,SBD,M
Boys,82.1,10,Jake Connell,Colorado City Colorado,76.2,124.74,99.79,151.95,376.48,Single-ply,SBD,M
Boys,82.1,11,Taden Tapaha,Denver City,79.11,129.27,72.57,120.2,322.05,Single-ply,SBD,M
Boys,82.1,12,Jahdiel Diaz,Denver City,81.56,97.52,61.23,95.25,254.01,Single-ply,SBD,M
Boys,89.81,1,Oscar Lucio,Odessa,88.81,208.65,136.08,229.06,573.79,Single-ply,SBD,M
Boys,89.81,2,Bryson Duncan,Snyder,89.58,201.85,108.86,188.24,498.95,Single-ply,SBD,M
Boys,89.81,3,Shawn Howell,Roby,86.36,190.51,90.72,181.44,462.66,Single-ply,SBD,M
Boys,89.81,4,Chris Pina,Midland Lee,83.55,163.29,99.79,195.04,458.13,Single-ply,SBD,M
Boys,89.81,5,Mykel Sevier,San Angelo Lake View,88.18,161.03,129.27,156.49,446.79,Single-ply,SBD,M
Boys,89.81,6,Abel Prieto,Denver City,85,106.59,102.06,138.35,347,Single-ply,SBD,M
Boys,89.81,7,Karson Martin,Colorado City Colorado,89.54,111.13,61.23,142.88,315.25,Single-ply,SBD,M
Boys,89.81,8,Brett Blassingame,Colorado City Colorado,87.82,95.25,52.16,113.4,260.82,Single-ply,SBD,M
Boys,99.79,1,Sean Ramirez,Odessa Permian,98.97,247.21,165.56,233.6,646.37,Single-ply,SBD,M
Boys,99.79,2,Francisco Nave,Odessa,99.7,215.46,133.81,208.65,557.92,Single-ply,SBD,M
Boys,99.79,3,Hayden Hall,Midland Lee,91.99,213.19,111.13,192.78,517.1,Single-ply,SBD,M
Boys,99.79,4,Gary Brooks,Odessa,90.72,192.78,122.47,188.24,503.49,Single-ply,SBD,M
Boys,99.79,5,Jeremy Le,Sweetwater,99.25,176.9,108.86,176.9,462.66,Single-ply,SBD,M
Boys,99.79,6,David Martinez,Odessa Permian,94.26,176.9,113.4,163.29,453.59,Single-ply,SBD,M
Boys,99.79,7,Jorge Pegueros,Odessa Permian,95.8,174.63,113.4,158.76,446.79,Single-ply,SBD,M
Boys,99.79,8,Alex Castro,Denver City,93.89,142.88,88.45,181.44,412.77,Single-ply,SBD,M
Boys,99.79,9,John Acevedo,Roby,98.34,154.22,79.38,138.35,371.95,Single-ply,SBD,M
Boys,109.77,1,Justin Castereno,Sweetwater,107.95,249.48,145.15,238.14,632.76,Single-ply,SBD,M
Boys,109.77,2,Logan Sanders,San Angelo Lake View,104.14,170.1,136.08,217.72,523.9,Single-ply,SBD,M
Boys,109.77,3,Ely Barrera,Sweetwater,106.87,181.44,86.18,226.8,494.42,Single-ply,SBD,M
Boys,109.77,4,Angel Rodríguez,Odessa,100.97,183.7,111.13,161.03,455.86,Single-ply,SBD,M
Boys,109.77,5,Manny Ramirez,Odessa Permian,106.14,161.03,108.86,158.76,428.64,Single-ply,SBD,M
Boys,109.77,6,Jesus Trabado,Denver City,100.97,131.54,102.06,136.08,369.68,Single-ply,SBD,M
Boys,109.77,7,Drake Womack,Odessa Permian,106.05,151.95,77.11,124.74,353.8,Single-ply,SBD,M
Boys,109.77,8,Noah Harrell,Colorado City Colorado,101.6,122.47,79.38,138.35,340.19,Single-ply,SBD,M
Boys,109.77,9,Adam Hernandez,Colorado City Colorado,101.88,102.06,61.23,106.59,269.89,Single-ply,SBD,M
Boys,124.74,1,Kobe Fahntrapp,Snyder,124.74,326.59,192.78,260.82,780.18,Single-ply,SBD,M
Boys,124.74,2,Michael Huff,Colorado City Colorado,112.67,195.04,136.08,195.04,526.17,Single-ply,SBD,M
Boys,124.74,3,Isaiah Casias,Odessa Permian,111.95,181.44,113.4,176.9,471.74,Single-ply,SBD,M
Boys,124.74,4,Isaak Gamboa,Odessa Permian,118.57,181.44,102.06,158.76,442.25,Single-ply,SBD,M
Boys,124.74,5,Emillio Dominguez,Odessa,123.65,167.83,106.59,165.56,439.98,Single-ply,SBD,M
Boys,124.74,6,Joaquin Gonzalez,Odessa Permian,111.04,163.29,97.52,170.1,430.91,Single-ply,SBD,M
Boys,124.74,7,Cole Brannon,Odessa Permian,112.13,147.42,102.06,154.22,403.7,Single-ply,SBD,M
Boys,124.74,8,Tristan Williams,Odessa Permian,110.04,158.76,79.38,158.76,396.89,Single-ply,SBD,M
Boys,124.74,9,Cade Owen,Odessa Permian,114.58,151.95,83.91,151.95,387.82,Single-ply,SBD,M
Boys,124.74+,1,Eric Cisneros,Midland Lee,141.79,263.08,151.95,240.4,655.44,Single-ply,SBD,M
Boys,124.74+,2,Ethan Sanchez,San Angelo Lake View,137.26,172.37,158.76,199.58,530.7,Single-ply,SBD,M
Boys,124.74+,3,Angel Longoria,Sweetwater,138.16,170.1,108.86,183.7,462.66,Single-ply,SBD,M
Boys,124.74+,4,Antonio Ronquillo,San Angelo Lake View,134.63,147.42,102.06,149.69,399.16,Single-ply,SBD,M
Boys,124.74+,5,Hagan Davilla,Odessa Permian,125.28,158.76,72.57,138.35,369.68,Single-ply,SBD,M
Boys,,NS,Julian Adame,Odessa,,,,,,Single-ply,SBD,M
Boys,,NS,Cade Mendoza,Odessa,,,,,,Single-ply,SBD,M
