Place,Name,Sex,Event,Division,WeightClassKg,Equipment,BirthYear,Team,State,BodyweightKg,Squat1Kg,Squat2Kg,Squat3Kg,Best3SquatKg,Bench1Kg,Bench2Kg,Bench3Kg,Best3BenchKg,Deadlift1Kg,Deadlift2Kg,Deadlift3Kg,Best3DeadliftKg,TotalKg
DQ,Jim McKenna,M,B,MR-M4a,105,Raw,1948,,PA,104.8,,,,,-135,-135,-135,,,,,,
1,Angelina Spizzieri,F,D,FR-T1,52,Raw,2002,,PA,51.5,,,,,,,,,92.5,100,-107.5,100,100
1,Stephanie Bennett #1,F,SBD,FR-MO,72,Raw,1985,,PA,70.9,100,105,-112.5,105,60,67.5,-72.5,67.5,117.5,130,140,140,312.5
1,Alexis Spear,F,SBD,FR-Jr,57,Raw,1995,,PA,54.4,97.5,105,110,110,52.5,-57.5,57.5,57.5,105,117.5,127.5,127.5,295
2,Albina Islam,F,SBD,FR-Jr,57,Raw,1996,,PA,55.8,90,100,-107.5,100,50,52.5,55,55,115,125,130,130,285
1,Sarah Horrox,F,SBD,FR-Jr,84+,Raw,1996,,PA,87.2,142.5,-160,160,160,82.5,90,95,95,160,172.5,182.5,182.5,437.5
1,Regina Tracy,F,SBD,FR-M2a,84,Raw,1966,,PA,77.7,-67.5,67.5,72.5,72.5,30,32.5,-40,32.5,97.5,102.5,-107.5,102.5,207.5
1,Marissa Feldberg,F,SBD,FR-O,52,Raw,1990,,PA,52,85,90,92.5,92.5,60,62.5,65,65,120,127.5,-130,127.5,285
1,Albina Islam,F,SBD,FR-O,57,Raw,1996,,PA,55.8,90,100,-107.5,100,50,52.5,55,55,115,125,130,130,285
2,Jenna Fryer,F,SBD,FR-O,57,Raw,1989,,NJ,56.6,-97.5,100,102.5,102.5,-55,55,-60,55,110,115,120,120,277.5
1,Casey Friedman,F,SBD,FR-O,72,Raw,1992,,NJ,69.6,110,115,120,120,60,62.5,65,65,132.5,150,155,155,340
2,Stephanie Bennett #1,F,SBD,FR-O,72,Raw,1985,,PA,70.9,100,105,-112.5,105,60,67.5,-72.5,67.5,117.5,130,140,140,312.5
1,Chelsea Cronin,F,SBD,FR-O,84,Raw,1990,,NJ,78.1,110,115,120,120,55,-60,-60,55,130,140,145,145,320
2,Samantha Miller,F,SBD,FR-O,84,Raw,1992,,PA,81.9,97.5,105,-112.5,105,-45,45,50,50,97.5,105,112.5,112.5,267.5
1,Salina Wydo,F,SBD,FR-O,84+,Raw,1984,,NJ,87.7,90,-97.5,-100,90,50,55,-57.5,55,120,130,140,140,285
1,Jadyn Perhonitch,F,SBD,FR-T1,72,Raw,2003,,PA,71.9,120,125,-132.5,125,50,52.5,-55,52.5,115,122.5,132.5,132.5,310
1,Kevin Zhao,M,SBD,MR-Jr,83,Raw,1996,,PA,80.1,167.5,-175,-175,167.5,110,117.5,-125,117.5,205,215,227.5,227.5,512.5
1,Carlos Morales,M,SBD,MR-O,74,Raw,1994,,NJ,72.5,165,175,-180,175,102.5,110,115,115,172.5,180,190,190,480
1,Matthew Darmi,M,SBD,MR-O,83,Raw,1990,,PA,82.5,-165,-165,165,165,140,150,-155,150,220,232.5,-255,232.5,547.5
2,Miguel Vivas,M,SBD,MR-O,83,Raw,1983,,PA,80.2,-172.5,-172.5,172.5,172.5,130,137.5,-142.5,137.5,-212.5,212.5,-220,212.5,522.5
3,Austen Gravett,M,SBD,MR-O,83,Raw,1991,,DE,81.8,175,182.5,-187.5,182.5,125,-130,-130,125,207.5,210,215,215,522.5
4,Brian Fitzmartin,M,SBD,MR-O,83,Raw,1969,Dan Campos Fitness Barbell Club,PA,80.9,125,135,-147.5,135,85,92.5,100,100,160,172.5,182.5,182.5,417.5
DD,Ruslan Pasichenko,M,SBD,MR-O,93,Raw,1991,,NY,92.2,210,-222.5,-222.5,210,145,-155,-155,145,230,-245,-245,230,
1,Derrick Dowhower,M,SBD,MR-O,93,Raw,1986,Dan Campos Fitness Barbell Club,PA,92.8,175,185,-187.5,185,110,-115,-115,110,230,242.5,250,250,545
1,Matthew Smith #6,M,SBD,MR-O,105,Raw,1985,,PA,101.8,185,200,210,210,120,127.5,132.5,132.5,245,262.5,-272.5,262.5,605
2,Neal Bakanas,M,SBD,MR-O,105,Raw,1992,,NJ,102.9,190,205,210,210,120,127.5,-135,127.5,220,-240,250,250,587.5
1,Justin Calimlim,M,SBD,MR-T3,66,Raw,1998,,VA,65.1,107.5,112.5,120,120,85,90,92.5,92.5,142.5,157.5,-162.5,157.5,370
1,Jerry Xiang,M,SBD,MR-T3,74,Raw,1998,,FL,73.2,145,152.5,-157.5,152.5,87.5,95,-97.5,95,205,217.5,-227.5,217.5,465
1,John Tibbs,M,SBD,MR-T3,83,Raw,1999,,PA,81.7,200,215,-225,215,145,-162.5,-162.5,145,225,240,247.5,247.5,607.5
1,Danielle D'Emilio,F,BD,FR-O,84,Raw,1981,,PA,82.4,,,,,57.5,-60,-60,57.5,125,137.5,142.5,142.5,200
1,Austin Kopchak,M,BD,MR-T1,120,Raw,2003,,PA,109.7,,,,,50,55,62.5,62.5,100,110,115,115,177.5
