Division,WeightClassKg,Place,Name,Team,BodyweightKg,Best3SquatKg,Best3BenchKg,Best3DeadliftKg,TotalKg,Equipment,Event,Sex
Boys,51.71,1,Weslee Duke,Groesbeck,48.99,95.25,56.7,102.06,254.01,Single-ply,SBD,M
Boys,51.71,2,Jay King,Bosqueville,49.44,81.65,61.23,102.06,244.94,Single-ply,SBD,M
Boys,51.71,3,Josiah Olvera,Riesel,51.26,92.99,43.09,108.86,244.94,Single-ply,SBD,M
Boys,51.71,4,Jesse Corvin,West,46.27,92.99,43.09,97.52,233.6,Single-ply,SBD,M
Boys,51.71,5,Matthew Owens,Lorena,50.8,63.5,49.9,102.06,215.46,Single-ply,SBD,M
Boys,51.71,6,Demitrius Parker,Waco La Vega,44,61.23,47.63,86.18,195.04,Single-ply,SBD,M
Boys,55.79,1,Gilberto Olguin,Waco Connally,55.79,145.15,77.11,147.42,369.68,Single-ply,SBD,M
Boys,55.79,2,Trevor Uptmor,West,53.07,142.88,81.65,142.88,367.41,Single-ply,SBD,M
Boys,55.79,3,Antonio Sanchez,Waco Reicher Catholic,55.52,97.52,61.23,147.42,306.17,Single-ply,SBD,M
Boys,55.79,4,Devan Bell,Valley Mills,55.79,108.86,61.23,122.47,292.57,Single-ply,SBD,M
Boys,55.79,5,Marcus Tippi,McGregor,55.34,92.99,68.04,115.67,276.69,Single-ply,SBD,M
Boys,55.79,6,Jake Caldwell,Lorena,55.34,97.52,56.7,120.2,274.42,Single-ply,SBD,M
Boys,59.87,1,Fausto Rodriguez,West,59.87,197.31,113.4,195.04,505.76,Single-ply,SBD,M
Boys,59.87,2,Ethan Rodriguez,Lorena,59.87,151.95,70.31,161.03,383.29,Single-ply,SBD,M
Boys,59.87,3,Dion Miclat,Waco Reicher Catholic,58.97,113.4,68.04,183.7,365.14,Single-ply,SBD,M
Boys,59.87,4,Beau Pagel,Groesbeck,59.87,131.54,79.38,151.95,362.87,Single-ply,SBD,M
Boys,59.87,5,Khyran Jones,McGregor,56.25,136.08,74.84,142.88,353.8,Single-ply,SBD,M
Boys,59.87,6,Stetson Thompson,Riesel,58.24,124.74,74.84,147.42,347,Single-ply,SBD,M
Boys,59.87,7,Chris Eckenrode,Riesel,56.06,108.86,63.5,133.81,306.17,Single-ply,SBD,M
Boys,59.87,8,Jared Rocha,Waco Reicher Catholic,58.97,102.06,65.77,136.08,303.91,Single-ply,SBD,M
Boys,59.87,9,Damonte Hargrow,Rosebud-Lott,57.15,102.06,68.04,115.67,285.76,Single-ply,SBD,M
Boys,59.87,10,Caden Crenshaw,Lorena,57.15,97.52,56.7,122.47,276.69,Single-ply,SBD,M
Boys,67.13,1,Joseph Holloway,Riesel,66.68,167.83,124.74,183.7,476.27,Single-ply,SBD,M
Boys,67.13,2,Elisha Cummings,Waco La Vega,67.13,136.08,92.99,183.7,412.77,Single-ply,SBD,M
Boys,67.13,3,Larson Hoffmeyer,Bosqueville,63.05,149.69,81.65,158.76,390.09,Single-ply,SBD,M
Boys,67.13,4,Will Browning,Crawford,65.32,151.95,88.45,149.69,390.09,Single-ply,SBD,M
Boys,67.13,5,Collin Taylor,Thorndale,61.69,149.69,72.57,165.56,387.82,Single-ply,SBD,M
Boys,67.13,6,Riley Kinsey,Riesel,63.5,147.42,95.25,138.35,381.02,Single-ply,SBD,M
Boys,67.13,7,Tyler Evans,Franklin,65.32,149.69,81.65,145.15,376.48,Single-ply,SBD,M
Boys,67.13,8,Hunter Speasmaker,Robinson,66.68,117.93,83.91,136.08,337.93,Single-ply,SBD,M
Boys,67.13,9,Nathan Macik,Waco Reicher Catholic,66.22,120.2,61.23,147.42,328.85,Single-ply,SBD,M
Boys,67.13,10,Daniel Dale #2,Robinson,65.32,129.27,65.77,124.74,319.78,Single-ply,SBD,M
Boys,67.13,11,Michael Truelove,Moody,63.96,113.4,79.38,124.74,317.51,Single-ply,SBD,M
Boys,67.13,12,Joseph Montelongo,Franklin,66.68,117.93,58.97,129.27,306.17,Single-ply,SBD,M
Boys,67.13,13,Josh Withers,West,65.32,106.59,65.77,99.79,272.16,Single-ply,SBD,M
Boys,67.13,14,Robert Hodnett,Bosqueville,62.6,95.25,52.16,81.65,229.06,Single-ply,SBD,M
Boys,67.13,15,Gabriel Ramthun,Thorndale,65.77,81.65,47.63,79.38,208.65,Single-ply,SBD,M
Boys,74.84,1,Gus Mulsow,Riesel,72.57,181.44,122.47,190.51,494.42,Single-ply,SBD,M
Boys,74.84,2,Colby Skarpa,West,71.21,181.44,120.2,181.44,483.08,Single-ply,SBD,M
Boys,74.84,3,Aaron Osborn,McGregor,72.12,167.83,113.4,192.78,474,Single-ply,SBD,M
Boys,74.84,4,Kain Klish,West,72.12,188.24,86.18,183.7,458.13,Single-ply,SBD,M
Boys,74.84,5,Zane Taylor,Crawford,71.21,163.29,90.72,170.1,424.11,Single-ply,SBD,M
Boys,74.84,6,Aaron Shell,Valley Mills,68.95,158.76,83.91,170.1,412.77,Single-ply,SBD,M
Boys,74.84,7,Ian Smith,Bosqueville,72.39,140.61,95.25,167.83,403.7,Single-ply,SBD,M
Boys,74.84,8,Devin Jackson,Waco La Vega,67.59,149.69,92.99,147.42,390.09,Single-ply,SBD,M
Boys,74.84,9,Logan Portillo,Rosebud-Lott,72.12,136.08,102.06,151.95,390.09,Single-ply,SBD,M
Boys,74.84,10,Jalen Darden,Robinson,71.21,158.76,81.65,147.42,387.82,Single-ply,SBD,M
Boys,74.84,11,Jason Renevato,Waco La Vega,70.76,145.15,83.91,154.22,383.29,Single-ply,SBD,M
Boys,74.84,12,Jake Boozer,Waco Reicher Catholic,73.71,136.08,81.65,158.76,376.48,Single-ply,SBD,M
Boys,74.84,13,Jose Vega,Valley Mills,74.39,142.88,79.38,149.69,371.95,Single-ply,SBD,M
Boys,74.84,14,Terrell Conn,Groesbeck,71.67,140.61,92.99,136.08,369.68,Single-ply,SBD,M
Boys,74.84,15,Bryce Tonkin,Waco Reicher Catholic,68.49,127.01,74.84,149.69,351.53,Single-ply,SBD,M
Boys,74.84,16,Joe Squires,Franklin,73.57,140.61,81.65,120.2,342.46,Single-ply,SBD,M
Boys,74.84,17,Kelley Rainer,Groesbeck,73.48,136.08,61.23,142.88,340.19,Single-ply,SBD,M
Boys,74.84,18,Justin Paxton,Thorndale,71.21,117.93,83.91,136.08,337.93,Single-ply,SBD,M
Boys,74.84,19,Davion Carr,Waco La Vega,73.48,108.86,86.18,138.35,333.39,Single-ply,SBD,M
Boys,74.84,20,Matthew Scofield,Crawford,69.4,106.59,74.84,136.08,317.51,Single-ply,SBD,M
Boys,74.84,21,Daniel Woods,Valley Mills,71.67,106.59,61.23,120.2,288.03,Single-ply,SBD,M
Boys,74.84,22,Samuel Taggert,Rosebud-Lott,72.12,92.99,65.77,120.2,278.96,Single-ply,SBD,M
Boys,74.84,DQ,Javieon Simmons,Valley Mills,74.39,,,,,Single-ply,SBD,M
Boys,82.1,1,Nathan Gerik,West,80.92,231.33,136.08,231.33,598.74,Single-ply,SBD,M
Boys,82.1,2,Ben Roberson,Robinson,80.83,217.72,120.2,215.46,553.38,Single-ply,SBD,M
Boys,82.1,3,Carsen Ford,Lorena,78.79,181.44,102.06,197.31,480.81,Single-ply,SBD,M
Boys,82.1,4,Jordan Morgan,Waco La Vega,78.29,174.63,104.33,185.97,464.93,Single-ply,SBD,M
Boys,82.1,5,Ethan Linder,Robinson,79.2,172.37,108.86,181.44,462.66,Single-ply,SBD,M
Boys,82.1,6,Logan Sauer,Robinson,81.92,176.9,108.86,170.1,455.86,Single-ply,SBD,M
Boys,82.1,7,Trashwan Hill,Moody,77.61,167.83,122.47,158.76,449.06,Single-ply,SBD,M
Boys,82.1,8,Cordell Grant,Crawford,78.83,172.37,97.52,167.83,437.72,Single-ply,SBD,M
Boys,82.1,9,Matt Bodnar,Moody,80.24,174.63,106.59,151.95,433.18,Single-ply,SBD,M
Boys,82.1,10,Zach Wilson,Groesbeck,81.83,163.29,102.06,163.29,428.64,Single-ply,SBD,M
Boys,82.1,11,Noah Jenkins,McGregor,80.1,151.95,83.91,183.7,419.57,Single-ply,SBD,M
Boys,82.1,12,Ke'Eran Ginn,Waco La Vega,80.2,142.88,95.25,147.42,385.55,Single-ply,SBD,M
Boys,82.1,13,Hunter Heath,Bosqueville,80.56,127.01,92.99,163.29,383.29,Single-ply,SBD,M
Boys,82.1,14,David Lopez,West,82.01,154.22,92.99,131.54,378.75,Single-ply,SBD,M
Boys,82.1,15,Kolton Freeman,Lorena,77.88,120.2,92.99,149.69,362.87,Single-ply,SBD,M
Boys,82.1,16,Carter Hooser,Crawford,78.02,136.08,72.57,115.67,324.32,Single-ply,SBD,M
Boys,82.1,17,Logan Kolanek,Franklin,79.97,120.2,79.38,122.47,322.05,Single-ply,SBD,M
Boys,82.1,18,Mason McHugh,Waco Reicher Catholic,77.2,106.59,74.84,136.08,317.51,Single-ply,SBD,M
Boys,82.1,19,Willie Burns,Bosqueville,80.74,83.91,79.38,111.13,274.42,Single-ply,SBD,M
Boys,82.1,20,Connor Carr,Valley Mills,81.65,90.72,65.77,104.33,260.82,Single-ply,SBD,M
Boys,82.1,DQ,Hunter Glenn,Riesel,81.51,,,,,Single-ply,SBD,M
Boys,89.81,1,Aaron Harralson,West,88.99,229.06,156.49,233.6,619.15,Single-ply,SBD,M
Boys,89.81,2,Myles McGruder,Groesbeck,89.04,233.6,136.08,244.94,614.62,Single-ply,SBD,M
Boys,89.81,3,Hunter Isham,Lorena,89.13,215.46,140.61,226.8,582.87,Single-ply,SBD,M
Boys,89.81,4,Greg Williams,McGregor,88.9,215.46,117.93,215.46,548.85,Single-ply,SBD,M
Boys,89.81,5,Tanner Mitchell,Crawford,87.82,215.46,113.4,208.65,537.51,Single-ply,SBD,M
Boys,89.81,6,Evan Doskocil,Rogers,83.78,217.72,113.4,201.85,532.97,Single-ply,SBD,M
Boys,89.81,7,Justin Bahajak,Riesel,87.09,190.51,127.01,204.12,521.63,Single-ply,SBD,M
Boys,89.81,8,Ethan Booker,Thorndale,89.81,188.24,108.86,156.49,453.59,Single-ply,SBD,M
Boys,89.81,9,Aaron Tyus,Groesbeck,89.54,163.29,97.52,170.1,430.91,Single-ply,SBD,M
Boys,89.81,10,Corbin Preusse,Thorndale,87.09,183.7,92.99,151.95,428.64,Single-ply,SBD,M
Boys,89.81,11,David Mitchell,Robinson,87.45,154.22,88.45,170.1,412.77,Single-ply,SBD,M
Boys,89.81,12,Kobe LeBreche,Franklin,88.04,161.03,86.18,163.29,410.5,Single-ply,SBD,M
Boys,89.81,13,Brayde Duncan,Groesbeck,89.18,163.29,99.79,147.42,410.5,Single-ply,SBD,M
Boys,89.81,14,Tyler Huf,Thorndale,88.09,136.08,79.38,183.7,399.16,Single-ply,SBD,M
Boys,89.81,15,Garrett Pearson,Crawford,83.46,151.95,79.38,158.76,390.09,Single-ply,SBD,M
Boys,89.81,DQ,Keegan Wilson,Franklin,83.91,,,,,Single-ply,SBD,M
Boys,99.79,1,Mikey Castillo,McGregor,98.2,238.14,158.76,226.8,623.69,Single-ply,SBD,M
Boys,99.79,2,Logan Davison,Lorena,97.43,213.19,127.01,222.26,562.45,Single-ply,SBD,M
Boys,99.79,3,Mason Liles,Thorndale,99.7,226.8,122.47,206.38,555.65,Single-ply,SBD,M
Boys,99.79,4,Sterling Harris,Lorena,99.79,199.58,122.47,204.12,526.17,Single-ply,SBD,M
Boys,99.79,5,Gustavo Aguilar,Moody,95.53,185.97,122.47,176.9,485.34,Single-ply,SBD,M
Boys,99.79,6,Brian Williams,Waco Connally,99.06,181.44,115.67,156.49,453.59,Single-ply,SBD,M
Boys,99.79,7,Mario Seldillo,Robinson,99.79,172.37,95.25,172.37,439.98,Single-ply,SBD,M
Boys,99.79,8,James Ferguson,Waco Connally,92.35,163.29,68.04,147.42,378.75,Single-ply,SBD,M
Boys,99.79,9,Cole Manzoni,Riesel,98.16,140.61,74.84,149.69,365.14,Single-ply,SBD,M
Boys,99.79,10,Tanner Martin,Rosebud-Lott,93.17,102.06,83.91,136.08,322.05,Single-ply,SBD,M
Boys,99.79,11,Michael Hare,Bosqueville,99.74,90.72,83.91,113.4,288.03,Single-ply,SBD,M
Boys,99.79,DQ,Jaime Dominguez,Valley Mills,95.84,,,,,Single-ply,SBD,M
Boys,99.79,DQ,Jordan Ortiz,Waco Reicher Catholic,99.74,124.74,,,,Single-ply,SBD,M
Boys,109.77,1,Jacob Pedroza,Thorndale,109.77,206.38,106.59,158.76,471.74,Single-ply,SBD,M
Boys,109.77,2,Brady Haug,Robinson,108.77,172.37,95.25,167.83,435.45,Single-ply,SBD,M
Boys,109.77,3,Oscar Gaono,Valley Mills,102.29,170.1,79.38,163.29,412.77,Single-ply,SBD,M
Boys,109.77,4,Kenneth Benson,Rosebud-Lott,101.88,142.88,83.91,158.76,385.55,Single-ply,SBD,M
Boys,109.77,5,Kylan Bernardi,Lorena,108.41,108.86,68.04,154.22,331.12,Single-ply,SBD,M
Boys,109.77,DQ,Jonathen Smith,Waco La Vega,106.23,,,,,Single-ply,SBD,M
Boys,124.74,1,Jairo Rodriguez,Waco La Vega,124.19,283.5,158.76,242.67,684.92,Single-ply,SBD,M
Boys,124.74,2,Crispin Salinas,Chilton,114.58,210.92,138.35,219.99,569.26,Single-ply,SBD,M
Boys,124.74,3,Clayton Herridge,Groesbeck,117.75,199.58,158.76,188.24,546.58,Single-ply,SBD,M
Boys,124.74,4,James Baggett,Waco La Vega,115.03,188.24,147.42,199.58,535.24,Single-ply,SBD,M
Boys,124.74,5,Connor Arney,Rogers,114.85,215.46,106.59,199.58,521.63,Single-ply,SBD,M
Boys,124.74,6,Jonathen Lumen,Thorndale,116.62,197.31,108.86,195.04,501.22,Single-ply,SBD,M
Boys,124.74,7,Brian Diaz,McGregor,116.3,199.58,102.06,195.04,496.68,Single-ply,SBD,M
Boys,124.74,8,Tony Gomez,Valley Mills,115.44,174.63,113.4,204.12,492.15,Single-ply,SBD,M
Boys,124.74,9,Gabriel Gongora,Waco La Vega,114.12,183.7,99.79,170.1,453.59,Single-ply,SBD,M
Boys,124.74,10,Jackson Boyer,Waco Reicher Catholic,114.03,181.44,90.72,174.63,446.79,Single-ply,SBD,M
Boys,124.74,11,Cademan Garner,Lorena,117.48,172.37,99.79,149.69,421.84,Single-ply,SBD,M
Boys,124.74,12,Jake Knuppel,Crawford,122.02,170.1,86.18,140.61,396.89,Single-ply,SBD,M
Boys,124.74,13,Kolton Benton,Rogers,114.12,,113.4,,113.4,Single-ply,B,M
Boys,124.74,DQ,Bryan Baggett-West,Groesbeck,124.42,183.7,,,,Single-ply,SBD,M
Boys,124.74,DQ,Colton Schmedthorst,Riesel,111.58,183.7,127.01,,,Single-ply,SBD,M
Boys,124.74+,1,Seth Kohlscheen,Crawford,138.53,292.57,158.76,242.67,694,Single-ply,SBD,M
Boys,124.74+,2,Andrew Toledo,Robinson,126.46,249.48,136.08,238.14,623.69,Single-ply,SBD,M
Boys,124.74+,3,Noah Plsek,Waco Reicher Catholic,134.26,233.6,120.2,265.35,619.15,Single-ply,SBD,M
Boys,124.74+,4,Zach Mellinger,Waco Reicher Catholic,138.07,192.78,99.79,185.97,478.54,Single-ply,SBD,M
Boys,124.74+,5,Trace Snyder,Robinson,148.55,167.83,108.86,192.78,469.47,Single-ply,SBD,M
Boys,124.74+,6,Jayce Jones,Rogers,143.88,174.63,86.18,170.1,430.91,Single-ply,SBD,M
Boys,124.74+,7,Jose Gonzales,Chilton,125.46,142.88,111.13,174.63,428.64,Single-ply,SBD,M
Boys,124.74+,8,Coltin Ward,Rosebud-Lott,127.46,111.13,65.77,115.67,292.57,Single-ply,SBD,M
Boys,124.74+,DQ,Garrett Jordan,Thorndale,133.95,192.78,,,,Single-ply,SBD,M
Boys,124.74+,DQ,Chris Vasquez,Chilton,127.23,188.24,,,,Single-ply,SBD,M
Boys,124.74+,DQ,Aaron Torres,McGregor,125.55,206.38,,,,Single-ply,SBD,M
