Division,WeightClassKg,Place,Name,Team,BodyweightKg,Best3SquatKg,Best3BenchKg,Best3DeadliftKg,TotalKg,Equipment,Event,Sex
Boys,51.71,1,James Ramsey,Pottsboro,51.62,154.22,68.04,147.42,369.68,Single-ply,SBD,M
Boys,51.71,2,Trais Sanchez,Sanger,49.53,97.52,58.97,124.74,281.23,Single-ply,SBD,M
Boys,51.71,3,Jimmy Rollins,Van Alstyne,51.35,95.25,54.43,102.06,251.74,Single-ply,SBD,M
Boys,51.71,4,Parker Hillis,Lindsay,51.53,68.04,36.29,83.91,188.24,Single-ply,SBD,M
Boys,55.79,1,Brandon Horst,Sanger,53.52,154.22,83.91,158.76,396.89,Single-ply,SBD,M
Boys,55.79,2,Landry Hoskins,Sanger,55.79,149.69,77.11,151.95,378.75,Single-ply,SBD,M
Boys,55.79,3,Eli Ersch,Pottsboro,55.79,145.15,95.25,136.08,376.48,Single-ply,SBD,M
Boys,55.79,4,Chase Barnett,Howe,55.38,140.61,70.31,149.69,360.61,Single-ply,SBD,M
Boys,55.79,5,Kyle Humphrey,Sherman,55.7,124.74,95.25,131.54,351.53,Single-ply,SBD,M
Boys,55.79,6,Edwin Rodriguez,Pilot Point,55.16,120.2,72.57,151.95,344.73,Single-ply,SBD,M
Boys,55.79,7,Lance Jones,Van Alstyne,55.16,120.2,68.04,129.27,317.51,Single-ply,SBD,M
Boys,55.79,8,Riley Fish,Pottsboro,55.34,108.86,56.7,127.01,292.57,Single-ply,SBD,M
Boys,55.79,9,Mason Vinson,Sanger,53.98,102.06,63.5,113.4,278.96,Single-ply,SBD,M
Boys,55.79,10,Cade Dudley,Celina,54.43,90.72,68.04,111.13,269.89,Single-ply,SBD,M
Boys,55.79,11,Grant Gallup,Tom Bean,52.16,83.91,61.23,117.93,263.08,Single-ply,SBD,M
Boys,59.87,1,Kevin Weiss,Plano,59.06,149.69,95.25,158.76,403.7,Single-ply,SBD,M
Boys,59.87,2,Enrique Colemenero,Pilot Point,59.78,149.69,63.5,172.37,385.55,Single-ply,SBD,M
Boys,59.87,3,Manuel Labrada,Whitesboro,58.69,129.27,79.38,149.69,358.34,Single-ply,SBD,M
Boys,59.87,4,Zack Carter,Sanger,59.51,136.08,70.31,136.08,342.46,Single-ply,SBD,M
Boys,59.87,5,Kason Huschke,Bells,57.97,111.13,70.31,124.74,306.17,Single-ply,SBD,M
Boys,59.87,6,David Rodriguez,Inspired Vision,59.15,111.13,65.77,127.01,303.91,Single-ply,SBD,M
Boys,59.87,7,Jayce Cross,Celina,59.6,113.4,70.31,113.4,297.1,Single-ply,SBD,M
Boys,59.87,8,Sebastian Reyes,Inspired Vision,57.33,111.13,52.16,108.86,272.16,Single-ply,SBD,M
Boys,59.87,DQ,Ethan Grant,Howe,57.42,124.74,72.57,,,Single-ply,SBD,M
Boys,59.87,DQ,Michael West,Prosper,56.15,124.74,70.31,,,Single-ply,SBD,M
Boys,59.87,DQ,Victor Martinez,Pilot Point,59.69,154.22,,,,Single-ply,SBD,M
Boys,67.13,1,Nicholas Reid,Anna,65.77,199.58,106.59,195.04,501.22,Single-ply,SBD,M
Boys,67.13,2,Mike Acevedo,Anna,65.23,190.51,117.93,167.83,476.27,Single-ply,SBD,M
Boys,67.13,3,Dalton Waller,Princeton,61.51,176.9,95.25,190.51,462.66,Single-ply,SBD,M
Boys,67.13,4,Finlee Rudicile,Farmersville,65.86,163.29,111.13,188.24,462.66,Single-ply,SBD,M
Boys,67.13,5,Erick Martinez,Pilot Point,66.5,170.1,88.45,185.97,444.52,Single-ply,SBD,M
Boys,67.13,6,Spencer Akins,Howe,65.86,176.9,106.59,158.76,442.25,Single-ply,SBD,M
Boys,67.13,7,Jackson Haines,Prosper,65.5,172.37,102.06,165.56,439.98,Single-ply,SBD,M
Boys,67.13,8,Cameron Washington,Sherman,67.13,170.1,86.18,179.17,435.45,Single-ply,SBD,M
Boys,67.13,9,Kevin Romero,Sherman,66.13,145.15,106.59,181.44,433.18,Single-ply,SBD,M
Boys,67.13,10,Keiton Eitelman,Pottsboro,65.5,181.44,88.45,151.95,421.84,Single-ply,SBD,M
Boys,67.13,11,Jordan Billions,Prosper,65.86,142.88,83.91,158.76,385.55,Single-ply,SBD,M
Boys,67.13,12,Sebastian Ruelas,Farmersville,66.32,133.81,95.25,138.35,367.41,Single-ply,SBD,M
Boys,67.13,13,Eli Mosby,Van Alstyne,64.59,131.54,74.84,145.15,351.53,Single-ply,SBD,M
Boys,67.13,14,Brett Long,Van Alstyne,65.86,129.27,68.04,154.22,351.53,Single-ply,SBD,M
Boys,67.13,15,Aiden Swift,Van Alstyne,63.32,136.08,68.04,142.88,347,Single-ply,SBD,M
Boys,67.13,16,Mason Pendegrass,Whitesboro,64.59,124.74,79.38,140.61,344.73,Single-ply,SBD,M
Boys,67.13,17,Jackson Tyler,Celina,66.5,124.74,70.31,140.61,335.66,Single-ply,SBD,M
Boys,67.13,18,Shane Marquez,Bells,65.5,113.4,74.84,142.88,331.12,Single-ply,SBD,M
Boys,67.13,DQ,Jacob Burbosa,Carrollton Smith,66.95,,,,,Single-ply,SBD,M
Boys,67.13,DQ,Sergio Portillo,Pilot Point,67.13,145.15,83.91,,,Single-ply,SBD,M
Boys,74.84,1,Mikey Hymel,Howe,74.03,238.14,147.42,226.8,612.35,Single-ply,SBD,M
Boys,74.84,2,John Wims,Detroit,74.57,226.8,138.35,219.99,585.13,Single-ply,SBD,M
Boys,74.84,3,DeVante Clayton,Sherman,72.21,197.31,113.4,229.06,539.77,Single-ply,SBD,M
Boys,74.84,4,Trevor Coglon,Bells,74.39,192.78,124.74,213.19,530.7,Single-ply,SBD,M
Boys,74.84,5,Josue Hernandez,Anna,69.85,183.7,136.08,197.31,517.1,Single-ply,SBD,M
Boys,74.84,6,Julio Leon,Carrollton Smith,74.84,172.37,113.4,226.8,512.56,Single-ply,SBD,M
Boys,74.84,7,Jaxson Rudicile,Farmersville,72.85,183.7,122.47,199.58,505.76,Single-ply,SBD,M
Boys,74.84,8,Joseph Brennen,Howe,73.66,188.24,106.59,204.12,498.95,Single-ply,SBD,M
Boys,74.84,9,Innis Mendoza,Pilot Point,74.84,185.97,127.01,181.44,494.42,Single-ply,SBD,M
Boys,74.84,10,Lee Hubbard,Gainesville,74.03,183.7,124.74,170.1,478.54,Single-ply,SBD,M
Boys,74.84,11,Malichi Davidson,Whitesboro,74.62,181.44,95.25,190.51,467.2,Single-ply,SBD,M
Boys,74.84,12,Victor Martinez,Anna,72.48,170.1,99.79,190.51,460.4,Single-ply,SBD,M
Boys,74.84,13,Hunter McCoy,Farmersville,72.85,181.44,99.79,174.63,455.86,Single-ply,SBD,M
Boys,74.84,14,Jose Dominguez,Inspired Vision,74.39,154.22,115.67,179.17,449.06,Single-ply,SBD,M
Boys,74.84,15,Tony Karleskint,Tom Bean,72.48,170.1,83.91,174.63,428.64,Single-ply,SBD,M
Boys,74.84,16,Jose Martinez,Celina,70.49,145.15,97.52,183.7,426.38,Single-ply,SBD,M
Boys,74.84,17,Parker Holman,Celina,71.85,161.03,97.52,165.56,424.11,Single-ply,SBD,M
Boys,74.84,18,Clay Barnett,Howe,74.3,163.29,72.57,174.63,410.5,Single-ply,SBD,M
Boys,74.84,19,Conner Smith,Sadler S & S Cons,74.84,145.15,92.99,170.1,408.23,Single-ply,SBD,M
Boys,74.84,20,Lawson Moore,Whitewright,74.21,142.88,90.72,149.69,383.29,Single-ply,SBD,M
Boys,74.84,21,Gage Davis,Gunter,73.3,142.88,79.38,131.54,353.8,Single-ply,SBD,M
Boys,74.84,22,Brady Knabe,Collinsville,74.75,136.08,72.57,124.74,333.39,Single-ply,SBD,M
Boys,74.84,DQ,Jayden Goodwin,Detroit,71.58,,,,,Single-ply,SBD,M
Boys,74.84,DQ,Ryan Reed,Gunter,72.94,,,,,Single-ply,SBD,M
Boys,74.84,DQ,Colby Dudley,Celina,68.13,,,,,Single-ply,SBD,M
Boys,74.84,DQ,Logan Saxon,Bells,72.39,,,,,Single-ply,SBD,M
Boys,74.84,DQ,Raul Hernandez,Howe,74.48,,,,,Single-ply,SBD,M
Boys,74.84,DQ,Dalton Winchester,Howe,74.84,138.35,,,,Single-ply,SBD,M
Boys,74.84,DQ,Shawn Lukash,Howe,74.84,147.42,,,,Single-ply,SBD,M
Boys,74.84,DQ,Cody Hunter,Sherman,71.76,172.37,,,,Single-ply,SBD,M
Boys,82.1,1,Andrew Griffin,Howe,82.1,238.14,170.1,240.4,648.64,Single-ply,SBD,M
Boys,82.1,2,David Cancino,Gainesville,81.01,222.26,147.42,195.04,564.72,Single-ply,SBD,M
Boys,82.1,3,Syler Saenz,Sanger,80.01,204.12,127.01,219.99,551.11,Single-ply,SBD,M
Boys,82.1,4,Mason Riggs,Howe,79.92,197.31,113.4,195.04,505.76,Single-ply,SBD,M
Boys,82.1,5,Isaac Graham,Princeton,80.01,190.51,108.86,201.85,501.22,Single-ply,SBD,M
Boys,82.1,6,Connor Glass,Sadler S & S Cons,78.38,197.31,113.4,188.24,498.95,Single-ply,SBD,M
Boys,82.1,7,Seth Baucum,Callisburg,80.29,181.44,106.59,204.12,492.15,Single-ply,SBD,M
Boys,82.1,8,Cabe Parham,Prosper,79.38,174.63,131.54,176.9,483.08,Single-ply,SBD,M
Boys,82.1,9,Hunter Griffin,Van Alstyne,81.47,183.7,104.33,190.51,478.54,Single-ply,SBD,M
Boys,82.1,10,Justin Crisp,Callisburg,78.65,195.04,108.86,170.1,474,Single-ply,SBD,M
Boys,82.1,11,Tyrone Rosser,Detroit,81.92,195.04,92.99,183.7,471.74,Single-ply,SBD,M
Boys,82.1,12,Jake Taylor,Van Alstyne,76.93,183.7,97.52,181.44,462.66,Single-ply,SBD,M
Boys,82.1,13,Cameron Blesi,Howe,81.74,165.56,124.74,167.83,458.13,Single-ply,SBD,M
Boys,82.1,14,Sam Whittenburg,Sadler S & S Cons,81.56,165.56,102.06,181.44,449.06,Single-ply,SBD,M
Boys,82.1,15,Adrian De La Cruz,Pottsboro,77.47,161.03,86.18,158.76,405.97,Single-ply,SBD,M
Boys,82.1,16,Jackson Adkins,Howe,78.52,151.95,86.18,156.49,394.63,Single-ply,SBD,M
Boys,82.1,17,Jose Contreras,Inspired Vision,78.38,158.76,83.91,145.15,387.82,Single-ply,SBD,M
Boys,82.1,18,Jacob Beaupre,Tom Bean,76.38,142.88,90.72,142.88,376.48,Single-ply,SBD,M
Boys,82.1,19,Brandon Gunter,Gunter,76.84,124.74,79.38,142.88,347,Single-ply,SBD,M
Boys,82.1,DQ,Michael Clarke,Gunter,80.92,,,,,Single-ply,SBD,M
Boys,82.1,DQ,Mohammed Mazzous,Carrollton Smith,81.37,208.65,122.47,,,Single-ply,SBD,M
Boys,89.81,1,Lxamri Bolden,Farmersville,87.54,240.4,167.83,226.8,635.03,Single-ply,SBD,M
Boys,89.81,2,Austin Dickson,Anna,89.81,249.48,158.76,215.46,623.69,Single-ply,SBD,M
Boys,89.81,3,Billy Goff,Sanger,85,210.92,147.42,226.8,585.13,Single-ply,SBD,M
Boys,89.81,4,Spencer May,Anna,88,219.99,140.61,217.72,578.33,Single-ply,SBD,M
Boys,89.81,5,Chris Gidney,Blue Ridge,88.81,201.85,142.88,206.38,551.11,Single-ply,SBD,M
Boys,89.81,6,Tristan Reilly,Sanger,89.81,192.78,111.13,176.9,480.81,Single-ply,SBD,M
Boys,89.81,7,Austin Wildman,Anna,82.28,183.7,99.79,181.44,464.93,Single-ply,SBD,M
Boys,89.81,8,Drayden Lawson,Pilot Point,83.37,158.76,102.06,204.12,464.93,Single-ply,SBD,M
Boys,89.81,9,Dakota Meeks,Whitesboro,86.55,156.49,99.79,183.7,439.98,Single-ply,SBD,M
Boys,89.81,10,Carson Stamper,Sanger,89.36,158.76,113.4,136.08,408.23,Single-ply,SBD,M
Boys,89.81,11,Jayden Watkins,Celina,86.27,138.35,90.72,151.95,381.02,Single-ply,SBD,M
Boys,89.81,12,Gabe Silva,Anna,88.9,133.81,83.91,138.35,356.07,Single-ply,SBD,M
Boys,89.81,13,Julius Carraway,Whitewright,89.09,131.54,70.31,142.88,344.73,Single-ply,SBD,M
Boys,89.81,DQ,Bryan Gonzalez,Inspired Vision,83.64,,,,,Single-ply,SBD,M
Boys,89.81,DQ,Luke Jackson,Howe,87.14,,,,,Single-ply,SBD,M
Boys,89.81,DQ,Joe Lewis #1,Prosper,87.45,195.04,140.61,183.7,,Single-ply,SBD,M
Boys,99.79,1,John Cooper,Whitewright,92.35,247.21,136.08,258.55,641.83,Single-ply,SBD,M
Boys,99.79,2,Harrison Cornelius,Anna,96.34,256.28,158.76,208.65,623.69,Single-ply,SBD,M
Boys,99.79,3,Trent Croke,Detroit,98.25,226.8,136.08,242.67,605.55,Single-ply,SBD,M
Boys,99.79,4,Brody Wiggins,Blue Ridge,98.43,219.99,145.15,213.19,578.33,Single-ply,SBD,M
Boys,99.79,5,Larry Green,Prosper,96.71,219.99,142.88,213.19,576.06,Single-ply,SBD,M
Boys,99.79,6,Chase Harvey,Howe,94.66,208.65,138.35,226.8,573.79,Single-ply,SBD,M
Boys,99.79,7,Cedrick Salinas,Carrollton Smith,96.62,217.72,136.08,206.38,560.19,Single-ply,SBD,M
Boys,99.79,8,Devin Miller,Gainesville,93.26,226.8,129.27,190.51,546.58,Single-ply,SBD,M
Boys,99.79,9,Brett Carter,Sanger,93.53,208.65,131.54,199.58,539.77,Single-ply,SBD,M
Boys,99.79,10,Erick Varela,Inspired Vision,96.89,206.38,140.61,188.24,535.24,Single-ply,SBD,M
Boys,99.79,11,Brandon Hubert,Pottsboro,96.8,197.31,108.86,206.38,512.56,Single-ply,SBD,M
Boys,99.79,12,Markos Morales,Whitesboro,90.17,190.51,115.67,204.12,510.29,Single-ply,SBD,M
Boys,99.79,13,Maxwell Nazarko,Van Alstyne,96.16,204.12,115.67,185.97,505.76,Single-ply,SBD,M
Boys,99.79,14,Kaden Mattingtly,Malakoff Cross Roads,93.53,163.29,111.13,172.37,446.79,Single-ply,SBD,M
Boys,99.79,15,Dartanyon Cardo,Gunter,94.08,181.44,97.52,151.95,430.91,Single-ply,SBD,M
Boys,99.79,16,Jaron Gage,Whitewright,91.9,174.63,90.72,154.22,419.57,Single-ply,SBD,M
Boys,99.79,17,Jesse Pena,Pottsboro,93.62,133.81,79.38,142.88,356.07,Single-ply,SBD,M
Boys,99.79,18,Jake Smallwood,Van Alstyne,94.53,120.2,70.31,127.01,317.51,Single-ply,SBD,M
Boys,99.79,DQ,Eric Nichols,Van Alstyne,96.25,,,,,Single-ply,SBD,M
Boys,99.79,DQ,Preston Turner,Malakoff Cross Roads,92.17,,,,,Single-ply,SBD,M
Boys,99.79,DQ,Brantly Flynn,Howe,98.52,138.35,65.77,,,Single-ply,SBD,M
Boys,99.79,DQ,T Lang,Anna,96.52,,,,,Single-ply,SBD,M
Boys,109.77,1,Alejando Rangel,Celina,109.77,278.96,142.88,213.19,635.03,Single-ply,SBD,M
Boys,109.77,2,Rasheed Readus,Anna,100.61,217.72,127.01,244.94,589.67,Single-ply,SBD,M
Boys,109.77,3,Albino Torres,Gainesville,104.42,231.33,117.93,226.8,576.06,Single-ply,SBD,M
Boys,109.77,4,Shaun Escobedo,Gainesville,106.96,226.8,117.93,222.26,566.99,Single-ply,SBD,M
Boys,109.77,5,Jack Atkins,Gainesville,108.68,213.19,122.47,219.99,555.65,Single-ply,SBD,M
Boys,109.77,6,Roberto Nava,Gainesville,102.15,215.46,133.81,201.85,551.11,Single-ply,SBD,M
Boys,109.77,7,Mason Holzer,Sanger,103.33,215.46,124.74,199.58,539.77,Single-ply,SBD,M
Boys,109.77,8,Gavin Ritchie,Van Alstyne,103.87,226.8,111.13,195.04,532.97,Single-ply,SBD,M
Boys,109.77,9,Chris Garrison,Howe,103.24,199.58,127.01,201.85,528.44,Single-ply,SBD,M
Boys,109.77,10,Nathan Duffee,Howe,103.92,197.31,124.74,204.12,526.17,Single-ply,SBD,M
Boys,109.77,11,Austin Pfeifer,Prosper,101.33,213.19,131.54,172.37,517.1,Single-ply,SBD,M
Boys,109.77,12,Devlyn Hall,Gainesville,108.5,226.8,113.4,176.9,517.1,Single-ply,SBD,M
Boys,109.77,13,Jacob Batson,Farmersville,105.96,199.58,111.13,204.12,514.83,Single-ply,SBD,M
Boys,109.77,14,Kameron Green,Princeton,107.5,185.97,136.08,181.44,503.49,Single-ply,SBD,M
Boys,109.77,15,Angel Medina,Bells,102.42,172.37,113.4,167.83,453.59,Single-ply,SBD,M
Boys,109.77,16,Jacob Gallardo,Van Alstyne,106.32,181.44,90.72,158.76,430.91,Single-ply,SBD,M
Boys,109.77,17,Chuck Lincecum,Pottsboro,106.96,165.56,108.86,156.49,430.91,Single-ply,SBD,M
Boys,109.77,18,Hunter Fulton,Pottsboro,100.52,104.33,61.23,129.27,294.84,Single-ply,SBD,M
Boys,109.77,DQ,Jacob Taylor,Bells,107.68,274.42,43.09,215.46,,Single-ply,SBD,M
Boys,109.77,DQ,Mel Readus,Anna,100.33,215.46,,,,Single-ply,SBD,M
Boys,124.74,1,Blake Tredway,Anna,113.22,333.39,185.97,274.42,793.79,Single-ply,SBD,M
Boys,124.74,2,Carson Shaffer,Prosper,124.74,249.48,204.12,226.8,680.39,Single-ply,SBD,M
Boys,124.74,3,Dylan Kays,Collinsville,111.95,229.06,158.76,219.99,607.81,Single-ply,SBD,M
Boys,124.74,4,Rudy Vasquez,Sherman,119.93,249.48,136.08,213.19,598.74,Single-ply,SBD,M
Boys,124.74,5,Oscar Calderon,Carrollton Smith,123.38,233.6,142.88,197.31,573.79,Single-ply,SBD,M
Boys,124.74,6,Hunter Nobles,Sadler S & S Cons,119.2,208.65,131.54,226.8,566.99,Single-ply,SBD,M
Boys,124.74,7,Casey Pounds,Lindsay,112.49,226.8,122.47,195.04,544.31,Single-ply,SBD,M
Boys,124.74,8,Izzy Gutierrez,Sherman,113.58,204.12,127.01,195.04,526.17,Single-ply,SBD,M
Boys,124.74,9,Tyler Smith,Sherman,116.12,181.44,97.52,215.46,494.42,Single-ply,SBD,M
Boys,124.74,10,Jake Majors,Prosper,123.2,204.12,113.4,174.63,492.15,Single-ply,SBD,M
Boys,124.74,11,Nick Vallecilla,Whitewright,119.29,158.76,106.59,172.37,437.72,Single-ply,SBD,M
Boys,124.74,DQ,Alec Narro,Tom Bean,116.39,265.35,145.15,,,Single-ply,SBD,M
Boys,124.74+,1,TK Walton,Sherman,139.25,244.94,161.03,251.74,657.71,Single-ply,SBD,M
Boys,124.74+,2,Brenden Gonzales,Gainesville,146.33,263.08,127.01,226.8,616.89,Single-ply,SBD,M
Boys,124.74+,3,Jake Loganbill,Van Alstyne,130.18,254.01,117.93,226.8,598.74,Single-ply,SBD,M
Boys,124.74+,4,Cruz Tobar,Sherman,182.8,240.4,156.49,195.04,591.94,Single-ply,SBD,M
Boys,124.74+,5,Kobe Williams,Pottsboro,136.08,204.12,136.08,195.04,535.24,Single-ply,SBD,M
Boys,124.74+,6,Aaon Prideaux,Prosper,135.71,226.8,115.67,183.7,526.17,Single-ply,SBD,M
Boys,124.74+,7,Chris Tobar,Sherman,131.36,201.85,140.61,172.37,514.83,Single-ply,SBD,M
Boys,124.74+,DQ,Jacob Scot,Pilot Point,144.06,,,,,Single-ply,SBD,M
Boys,124.74+,DQ,James Manuel,Gainesville,154.86,,,,,Single-ply,SBD,M
Boys,124.74+,DQ,Reagan Spencer,Gunter,125.28,,,,,Single-ply,SBD,M
