Division,WeightClassKg,Place,Name,Team,BodyweightKg,Best3SquatKg,Best3BenchKg,Best3DeadliftKg,TotalKg,Equipment,Event,Sex
Boys,51.71,1,Payton Robertson,West Orange-Stark,51.71,86.18,45.36,106.59,238.14,Single-ply,SBD,M
Boys,55.79,1,Juan Aguinagua,Orangefield,55.34,90.72,61.23,106.59,258.55,Single-ply,SBD,M
Boys,59.87,1,Regan Ficken,Orangefield,59.42,172.37,92.99,142.88,408.23,Single-ply,SBD,M
Boys,59.87,DQ,Javier Garcia,Orange Little Cypress-Mauriceville,59.42,,,,,Single-ply,SBD,M
Boys,67.13,1,Matthew Watkins,Orangefield,67.13,138.35,88.45,149.69,376.48,Single-ply,SBD,M
Boys,67.13,2,Cameron Guillot,Orangefield,63.5,140.61,72.57,145.15,358.34,Single-ply,SBD,M
Boys,67.13,3,Ehson Ghaboolian-Zare,Silsbee,65.32,117.93,86.18,151.95,356.07,Single-ply,SBD,M
Boys,67.13,DQ,Mason Fredric,Orange Little Cypress-Mauriceville,61.23,99.79,49.9,113.4,,Single-ply,SBD,M
Boys,74.84,1,Johnny Rodgers,Silsbee,72.57,174.63,102.06,179.17,455.86,Single-ply,SBD,M
Boys,74.84,2,Tyler Hanna,Orange Little Cypress-Mauriceville,70.31,163.29,97.52,165.56,426.38,Single-ply,SBD,M
Boys,74.84,3,Demariak Judge,West Orange-Stark,74.84,136.08,86.18,163.29,385.55,Single-ply,SBD,M
Boys,74.84,4,Floyd Reppond,Silsbee,74.84,127.01,92.99,165.56,385.55,Single-ply,SBD,M
Boys,74.84,5,Chase Williams,Orange Little Cypress-Mauriceville,72.57,136.08,77.11,147.42,360.61,Single-ply,SBD,M
Boys,74.84,DQ,Hunter Lisenby,Silsbee,73.94,122.47,92.99,163.29,,Single-ply,SBD,M
Boys,74.84,DQ,Scott McCarty,West Orange-Stark,74.84,124.74,86.18,161.03,,Single-ply,SBD,M
Boys,74.84,DQ,Chris Brown,West Orange-Stark,74.84,127.01,88.45,176.9,,Single-ply,SBD,M
Boys,82.1,1,Troy Angelo,Orange Little Cypress-Mauriceville,81.65,249.48,136.08,272.16,657.71,Single-ply,SBD,M
Boys,82.1,2,Ian Putman,Orangefield,82.1,215.46,124.74,206.38,546.58,Single-ply,SBD,M
Boys,82.1,3,Casey Viator,Orange Little Cypress-Mauriceville,77.11,226.8,117.93,190.51,535.24,Single-ply,SBD,M
Boys,82.1,4,Roderick Harper,Silsbee,77.56,195.04,117.93,222.26,535.24,Single-ply,SBD,M
Boys,82.1,5,Ryan Kirkendall,Silsbee,79.38,192.78,111.13,190.51,494.42,Single-ply,SBD,M
Boys,82.1,6,Elijah Teel,West Orange-Stark,82.1,140.61,83.91,165.56,390.09,Single-ply,SBD,M
Boys,82.1,7,Josh Tims,West Orange-Stark,82.1,154.22,79.38,,233.6,Single-ply,SB,M
Boys,89.81,1,Joe Lynch,West Orange-Stark,89.81,226.8,151.95,226.8,605.55,Single-ply,SBD,M
Boys,89.81,2,Coleton Boudreaux,Orange Little Cypress-Mauriceville,88,263.08,129.27,204.12,596.47,Single-ply,SBD,M
Boys,89.81,3,Jamarcus Myers,Silsbee,88.9,165.56,104.33,197.31,467.2,Single-ply,SBD,M
Boys,89.81,4,Blake LeBlanc,Orange Little Cypress-Mauriceville,83.46,172.37,92.99,156.49,421.84,Single-ply,SBD,M
Boys,89.81,5,Jacob Harrison,Orangefield,88.9,158.76,92.99,149.69,401.43,Single-ply,SBD,M
Boys,89.81,DQ,Austin Woods,Orange Little Cypress-Mauriceville,84.82,142.88,90.72,151.95,,Single-ply,SBD,M
Boys,89.81,DQ,Elijah Miller,Silsbee,83.91,142.88,97.52,165.56,,Single-ply,SBD,M
Boys,89.81,DQ,Jacob Rachal,Silsbee,86.18,106.59,83.91,147.42,,Single-ply,SBD,M
Boys,99.79,1,Coy Laughlin,Orange Little Cypress-Mauriceville,96.16,215.46,165.56,208.65,589.67,Single-ply,SBD,M
Boys,99.79,2,Bryan Lopez,Orangefield,97.07,201.85,117.93,204.12,523.9,Single-ply,SBD,M
Boys,99.79,3,Octavius Crosson,West Orange-Stark,99.79,172.37,111.13,174.63,458.13,Single-ply,SBD,M
Boys,99.79,4,Jose San Juan,Orangefield,96.16,195.04,90.72,161.03,446.79,Single-ply,SBD,M
Boys,99.79,5,Adam Jacobs,Orangefield,90.72,158.76,113.4,172.37,444.52,Single-ply,SBD,M
Boys,99.79,6,Talon Weaver,Silsbee,98.43,151.95,117.93,161.03,430.91,Single-ply,SBD,M
Boys,99.79,7,Jeremiah Klinkhammer,West Orange-Stark,99.79,122.47,90.72,,213.19,Single-ply,SB,M
Boys,99.79,DQ,Virgil Vontoure,West Orange-Stark,99.79,131.54,70.31,156.49,,Single-ply,SBD,M
Boys,99.79,DQ,Trent Morgan,Silsbee,91.17,142.88,104.33,165.56,,Single-ply,SBD,M
Boys,99.79,DQ,Stephen Sliter,Silsbee,94.35,142.88,115.67,183.7,,Single-ply,SBD,M
Boys,99.79,DQ,Tristen Scott,West Orange-Stark,99.79,106.59,,136.08,,Single-ply,SBD,M
Boys,109.77,1,Jerrod Watkins,Orangefield,105.23,226.8,136.08,199.58,562.45,Single-ply,SBD,M
Boys,109.77,2,Ty Ligon,Silsbee,107.5,170.1,117.93,217.72,505.76,Single-ply,SBD,M
Boys,109.77,3,Kade Holloway,Orange Little Cypress-Mauriceville,103.42,147.42,86.18,165.56,399.16,Single-ply,SBD,M
Boys,109.77,4,Carter Beck,Orange Little Cypress-Mauriceville,103.42,197.31,,190.51,387.82,Single-ply,SD,M
Boys,109.77,5,Paul Hebert,West Orange-Stark,109.77,,92.99,192.78,285.76,Single-ply,BD,M
Boys,124.74,1,Jonathan Judge,Orange Little Cypress-Mauriceville,117.93,197.31,129.27,197.31,523.9,Single-ply,SBD,M
Boys,124.74,2,Kanon Mckey,Silsbee,117.93,183.7,122.47,185.97,492.15,Single-ply,SBD,M
Boys,124.74,DQ,LaDarian Carter,West Orange-Stark,124.74,104.33,83.91,181.44,,Single-ply,SBD,M
Boys,124.74+,1,Patrick Hudson,Silsbee,144.7,208.65,136.08,272.16,616.89,Single-ply,SBD,M
Boys,124.74+,2,Seth Adams,Silsbee,129.27,213.19,147.42,238.14,598.74,Single-ply,SBD,M
