Division,WeightClassKg,Place,Name,Team,BodyweightKg,Best3SquatKg,Best3BenchKg,Best3DeadliftKg,TotalKg,Equipment,Event,Sex
Freshmen,51.71,1,Eli Torres,Laredo Nixon,42.46,104.33,49.9,106.59,260.82,Single-ply,SBD,M
Freshmen,55.79,1,Ronald Sanchez,Poteet,55.34,129.27,74.84,131.54,335.66,Single-ply,SBD,M
Freshmen,55.79,2,Israel Granados,Laredo Nixon,54.88,95.25,54.43,115.67,265.35,Single-ply,SBD,M
Freshmen,55.79,3,Jackson Stewart,La Vernia,52.62,83.91,56.7,102.06,242.67,Single-ply,SBD,M
Freshmen,59.87,1,Brandon Hawkins,Three Rivers,59.15,120.2,61.23,136.08,317.51,Single-ply,SBD,M
Freshmen,59.87,2,Brian McClure,Laredo Nixon,58.79,90.72,54.43,122.47,267.62,Single-ply,SBD,M
Freshmen,59.87,DQ,Michael Laskowski,La Vernia,59.15,79.38,,102.06,,Single-ply,SBD,M
Freshmen,67.13,1,Jorge Silva,Laredo Nixon,64.59,129.27,74.84,158.76,362.87,Single-ply,SBD,M
Freshmen,67.13,2,Levon Ramirez,Devine,65.32,131.54,81.65,136.08,349.27,Single-ply,SBD,M
Freshmen,67.13,3,Peter Canazos,Laredo Nixon,66.41,129.27,63.5,149.69,342.46,Single-ply,SBD,M
Freshmen,67.13,4,Zenon Sanchez,Three Rivers,67.13,138.35,65.77,136.08,340.19,Single-ply,SBD,M
Freshmen,67.13,5,Dylan Johnson,La Vernia,62.23,90.72,77.11,124.74,292.57,Single-ply,SBD,M
Freshmen,67.13,6,Mark Garcia,Devine,66.13,111.13,61.23,117.93,290.3,Single-ply,SBD,M
Freshmen,67.13,7,Patrick Jarratt,Three Rivers,63.59,92.99,47.63,136.08,276.69,Single-ply,SBD,M
Freshmen,74.84,1,Armando Delarosa,Somerset,71.85,140.61,95.25,145.15,381.02,Single-ply,SBD,M
Freshmen,74.84,2,Jesus Perez,Laredo Nixon,74.57,131.54,65.77,179.17,376.48,Single-ply,SBD,M
Freshmen,74.84,3,Alden Mann,Wimberley,69.58,113.4,88.45,154.22,356.07,Single-ply,SBD,M
Freshmen,74.84,4,Lemuel Ramirez,Center Point,73.94,127.01,77.11,124.74,328.85,Single-ply,SBD,M
Freshmen,74.84,5,Lawton Bean,Devine,71.12,117.93,65.77,122.47,306.17,Single-ply,SBD,M
Freshmen,74.84,6,Cody Burns,La Vernia,73.03,79.38,70.31,108.86,258.55,Single-ply,SBD,M
Freshmen,74.84,7,Adam Alcorta,La Vernia,67.95,104.33,72.57,61.23,238.14,Single-ply,SBD,M
Freshmen,82.1,1,Jake Wiatrek,La Vernia,75.11,142.88,90.72,136.08,369.68,Single-ply,SBD,M
Freshmen,89.81,2,Dalton Mahac,Northside Holmes,82.28,124.74,90.72,149.69,365.14,Single-ply,SBD,M
Freshmen,82.1,3,Jose Hernandez,Laredo Nixon,79.47,102.06,79.38,172.37,353.8,Single-ply,SBD,M
Freshmen,82.1,4,Jose Villa,San Antonio Kennedy,80.01,92.99,74.84,129.27,297.1,Single-ply,SBD,M
Freshmen,89.81,1,Justin Quesada,Somerset,83.91,158.76,97.52,147.42,403.7,Single-ply,SBD,M
Freshmen,89.81,2,Fred Carrasco,San Antonio Kennedy,86,106.59,65.77,136.08,308.44,Single-ply,SBD,M
Freshmen,99.79,1,Erick Fernandez,Laredo Nixon,98.7,163.29,120.2,197.31,480.81,Single-ply,SBD,M
Freshmen,99.79,2,Brenton Weaver,La Vernia,91.81,161.03,95.25,158.76,415.04,Single-ply,SBD,M
Freshmen,99.79,3,Jonathan Mendoza,Northside Holmes,96.16,165.56,88.45,154.22,408.23,Single-ply,SBD,M
Freshmen,99.79,4,Mark Cerda,Somerset,91.17,158.76,74.84,170.1,403.7,Single-ply,SBD,M
Freshmen,99.79,5,Mateo Villarreal,Laredo Nixon,96.52,142.88,72.57,181.44,396.89,Single-ply,SBD,M
Freshmen,99.79,6,Jose Lopez,Boerne Champion,99.52,145.15,92.99,147.42,385.55,Single-ply,SBD,M
Freshmen,99.79,7,David Lopez,Northside Holmes,92.9,129.27,74.84,154.22,358.34,Single-ply,SBD,M
Freshmen,99.79,8,Steven Sartuche,Devine,92.71,117.93,88.45,145.15,351.53,Single-ply,SBD,M
Freshmen,99.79,9,Nathan Perez,La Vernia,90.26,122.47,81.65,140.61,344.73,Single-ply,SBD,M
Freshmen,99.79,DQ,Francisco Zumudo,Somerset,95.25,,,,,Single-ply,SBD,M
Freshmen,109.77,1,Adrian Contreras,Poteet,104.33,147.42,88.45,181.44,417.3,Single-ply,SBD,M
Freshmen,109.77,2,Xavier Rangel,Laredo Nixon,101.51,124.74,77.11,140.61,342.46,Single-ply,SBD,M
Freshmen,109.77,3,Travis Spielman,Devine,105.23,117.93,68.04,136.08,322.05,Single-ply,SBD,M
Freshmen,124.74,1,Gabriel Garza,Somerset,113.4,140.61,83.91,145.15,369.68,Single-ply,SBD,M
Freshmen,124.74,2,Luis Rangel,La Vernia,114.67,142.88,79.38,142.88,365.14,Single-ply,SBD,M
Freshmen,124.74+,1,Eric Falcon,Northside Holmes,140.89,174.63,86.18,165.56,426.38,Single-ply,SBD,M
Varsity,51.71,1,Robert Barajas,Laredo Martin,51.07,163.29,79.38,185.97,428.64,Single-ply,SBD,M
Varsity,51.71,2,Dean Lewis,La Vernia,51.44,136.08,83.91,156.49,376.48,Single-ply,SBD,M
Varsity,51.71,3,Sawyer Yandell,Devine,51.26,122.47,52.16,120.2,294.84,Single-ply,SBD,M
Varsity,51.71,4,Caleb Bryant,Center Point,51.71,77.11,34.02,83.91,195.04,Single-ply,SBD,M
Varsity,55.79,DQ,Jesus Garcia,Somerset,51.94,113.4,,90.72,,Single-ply,SBD,M
Varsity,55.79,1,Leonard Garza,Poteet,54.61,147.42,90.72,147.42,385.55,Single-ply,SBD,M
Varsity,55.79,2,Jorge Regino,Johnson City,53.71,138.35,79.38,140.61,358.34,Single-ply,SBD,M
Varsity,55.79,3,Josh Shoemake,Center Point,53.43,102.06,56.7,124.74,283.5,Single-ply,SBD,M
Varsity,55.79,4,Robert Knight,Poteet,52.25,79.38,61.23,106.59,247.21,Single-ply,SBD,M
Varsity,67.13,1,Jonathan Ibarra,Somerset,60.06,181.44,92.99,181.44,455.86,Single-ply,SBD,M
Varsity,59.87,2,Caleb Gale,Somerset,58.65,156.49,86.18,179.17,421.84,Single-ply,SBD,M
Varsity,59.87,3,Steven Garza,Crystal City,58.06,140.61,74.84,149.69,365.14,Single-ply,SBD,M
Varsity,59.87,4,Luis Flores,Poteet,59.87,124.74,61.23,136.08,322.05,Single-ply,SBD,M
Varsity,59.87,5,Freddy Falcon,Del Rio,58.79,95.25,54.43,136.08,285.76,Single-ply,SBD,M
Varsity,59.87,DQ,Ryan Montgomery,Devine,59.15,,,,,Single-ply,SBD,M
Varsity,67.13,1,Justin Carpenter,Seguin,65.23,176.9,117.93,195.04,489.88,Single-ply,SBD,M
Varsity,67.13,2,Ozzie Verela,Somerset,67.04,188.24,102.06,192.78,483.08,Single-ply,SBD,M
Varsity,74.84,3,Darrell DuBose,Devine,67.36,172.37,99.79,195.04,467.2,Single-ply,SBD,M
Varsity,67.13,4,Arturo Cervantez,Crystal City,66.41,174.63,106.59,181.44,462.66,Single-ply,SBD,M
Varsity,67.13,5,David Gonzalez,Northside Holmes,66.86,174.63,90.72,183.7,449.06,Single-ply,SBD,M
Varsity,67.13,6,Rick Dominguez,Center Point,65.59,176.9,102.06,165.56,444.52,Single-ply,SBD,M
Varsity,67.13,7,Able Ingle,Floresville,64.86,165.56,102.06,172.37,439.98,Single-ply,SBD,M
Varsity,67.13,8,Josh Hardin,Del Rio,64.32,149.69,115.67,156.49,421.84,Single-ply,SBD,M
Varsity,67.13,9,Miguel Abrego,Floresville,64.05,142.88,83.91,172.37,399.16,Single-ply,SBD,M
Varsity,67.13,10,David Greenwood,La Vernia,64.95,147.42,104.33,147.42,399.16,Single-ply,SBD,M
Varsity,67.13,11,Rey Diaz,San Antonio Kennedy,65.68,147.42,81.65,167.83,396.89,Single-ply,SBD,M
Varsity,67.13,12,Patrick Halsell,Center Point,62.23,151.95,88.45,136.08,376.48,Single-ply,SBD,M
Varsity,67.13,13,Robert Trevino,Natalia,60.51,133.81,72.57,154.22,360.61,Single-ply,SBD,M
Varsity,67.13,14,Jake Davis,Sabinal,62.41,111.13,74.84,147.42,333.39,Single-ply,SBD,M
Varsity,67.13,15,Danny Zavala,Crystal City,63.23,136.08,74.84,111.13,322.05,Single-ply,SBD,M
Varsity,67.13,16,Sebastian Atayde,Center Point,63.78,124.74,56.7,129.27,310.71,Single-ply,SBD,M
Varsity,67.13,17,Adam Austin,Del Rio,64.68,117.93,72.57,117.93,308.44,Single-ply,SBD,M
Varsity,67.13,18,David Rodriguez,Sabinal,62.32,74.84,74.84,111.13,260.82,Single-ply,SBD,M
Varsity,74.84,1,Del Ryan Alvarez,Somerset,72.48,204.12,120.2,208.65,532.97,Single-ply,SBD,M
Varsity,74.84,2,Roy Arispe,Devine,73.21,206.38,99.79,213.19,519.36,Single-ply,SBD,M
Varsity,74.84,3,Dakota Ross,Center Point,70.03,170.1,108.86,176.9,455.86,Single-ply,SBD,M
Varsity,82.1,4,Trenton Rodriguez,Johnson City,74.93,170.1,102.06,170.1,442.25,Single-ply,SBD,M
Varsity,74.84,5,Tyler Bloom,Wimberley,73.75,147.42,95.25,181.44,424.11,Single-ply,SBD,M
Varsity,74.84,6,Mario Munoz,Center Point,72.39,165.56,90.72,161.03,417.3,Single-ply,SBD,M
Varsity,74.84,7,Bryan Stuffin,Del Rio,74.66,154.22,97.52,165.56,417.3,Single-ply,SBD,M
Varsity,74.84,8,Mark Mendez,Floresville,67.68,147.42,83.91,172.37,403.7,Single-ply,SBD,M
Varsity,74.84,9,Nhat Nguyen,Boerne Champion,69.13,149.69,65.77,170.1,385.55,Single-ply,SBD,M
Varsity,74.84,10,Josh Hughes,Del Rio,73.57,133.81,95.25,154.22,383.29,Single-ply,SBD,M
Varsity,74.84,11,Luis Ochiuzzi,Floresville,72.12,142.88,86.18,147.42,376.48,Single-ply,SBD,M
Varsity,74.84,12,Zack Bosquez,Comfort,69.94,131.54,86.18,136.08,353.8,Single-ply,SBD,M
Varsity,74.84,13,Anthony Medillian,Del Rio,69.4,138.35,83.91,97.52,319.78,Single-ply,SBD,M
Varsity,74.84,14,Eric Luke,Comfort,67.68,99.79,54.43,108.86,263.08,Single-ply,SBD,M
Varsity,89.81,1,Jacob Fortier,La Vernia,82.19,210.92,136.08,210.92,557.92,Single-ply,SBD,M
Varsity,82.1,2,Carlton Bullard,Floresville,76.57,188.24,113.4,233.6,535.24,Single-ply,SBD,M
Varsity,89.81,3,Chez Borneman,Wimberley,82.19,181.44,142.88,192.78,517.1,Single-ply,SBD,M
Varsity,82.1,4,Joey Perez,Crystal City,81.47,204.12,122.47,170.1,496.68,Single-ply,SBD,M
Varsity,89.81,5,Garrett Perez,Center Point,82.28,188.24,115.67,188.24,492.15,Single-ply,SBD,M
Varsity,82.1,6,Dwight Taylor,Somerset,80.06,192.78,102.06,192.78,487.61,Single-ply,SBD,M
Varsity,82.1,7,Dillion Brunet,Center Point,79.29,188.24,111.13,185.97,485.34,Single-ply,SBD,M
Varsity,82.1,8,Raymond Garcia,Somerset,79.51,197.31,108.86,174.63,480.81,Single-ply,SBD,M
Varsity,82.1,9,Joseph Sadler,Devine,75.39,170.1,95.25,181.44,446.79,Single-ply,SBD,M
Varsity,82.1,10,Nathan Cantrell,Comfort,76.66,161.03,111.13,165.56,437.72,Single-ply,SBD,M
Varsity,82.1,11,James Carreon,Northside Holmes,79.56,151.95,95.25,183.7,430.91,Single-ply,SBD,M
Varsity,82.1,12,Javier Garcia,Seguin,81.74,181.44,83.91,158.76,424.11,Single-ply,SBD,M
Varsity,82.1,13,Shane DeLeon,Seguin,80.38,129.27,108.86,163.29,401.43,Single-ply,SBD,M
Varsity,82.1,14,Hector Martinez,San Antonio Kennedy,75.48,115.67,92.99,142.88,351.53,Single-ply,SBD,M
Varsity,82.1,15,Josh Valderama,Boerne Champion,78.93,68.04,68.04,106.59,242.67,Single-ply,SBD,M
Varsity,82.1,DQ,Joey Gauna,Floresville,77.2,192.78,102.06,,,Single-ply,SBD,M
Varsity,82.1,DQ,Dekota Nolte,Seguin,79.92,,,,,Single-ply,SBD,M
Varsity,82.1,DQ,Jacob Fernandez,Natalia,82.1,183.7,,,,Single-ply,SBD,M
Varsity,99.79,1,Paul Perez,Natalia,89.99,210.92,142.88,226.8,580.6,Single-ply,SBD,M
Varsity,89.81,2,Rudy Farias,Somerset,88.45,222.26,106.59,217.72,546.58,Single-ply,SBD,M
Varsity,89.81,3,Casey Benavides,Somerset,87.72,204.12,108.86,226.8,539.77,Single-ply,SBD,M
Varsity,99.79,4,Juan Rios,Crystal City,89.99,183.7,83.91,170.1,437.72,Single-ply,SBD,M
Varsity,89.81,5,Tyler Pippin,Comfort,89.36,156.49,88.45,151.95,396.89,Single-ply,SBD,M
Varsity,89.81,DQ,Garrett Mangold,Boerne Champion,89.18,181.44,,,,Single-ply,SBD,M
Varsity,99.79,1,Charles Armstrong,Somerset,97.43,244.94,145.15,233.6,623.69,Single-ply,SBD,M
Varsity,99.79,2,Jerry Nino,Laredo Martin,98.79,235.87,158.76,226.8,621.42,Single-ply,SBD,M
Varsity,99.79,3,Leonard Aranda,Somerset,97.52,226.8,151.95,226.8,605.55,Single-ply,SBD,M
Varsity,99.79,4,Salvador Marines,Somerset,97.16,249.48,113.4,240.4,603.28,Single-ply,SBD,M
Varsity,99.79,5,Miles Dixon,Seguin,90.81,204.12,111.13,233.6,548.85,Single-ply,SBD,M
Varsity,99.79,6,George Pena,Northside Holmes,91.81,219.99,120.2,206.38,546.58,Single-ply,SBD,M
Varsity,99.79,7,Johnny Sanders,Del Rio,97.61,217.72,129.27,188.24,535.24,Single-ply,SBD,M
Varsity,99.79,8,Kevin Castro,Laredo Nixon,95.8,190.51,120.2,213.19,523.9,Single-ply,SBD,M
Varsity,99.79,9,Zane Sanchez,Devine,92.62,197.31,120.2,190.51,508.02,Single-ply,SBD,M
Varsity,99.79,10,Louie Herrera,La Vernia,94.53,190.51,124.74,190.51,505.76,Single-ply,SBD,M
Varsity,99.79,11,Jesse Baker,Seguin,90.81,170.1,127.01,195.04,492.15,Single-ply,SBD,M
Varsity,99.79,12,Steve Cavazos,Natalia,93.53,174.63,111.13,206.38,492.15,Single-ply,SBD,M
Varsity,99.79,13,Eric Perez,Somerset,98.88,204.12,104.33,174.63,483.08,Single-ply,SBD,M
Varsity,99.79,14,Patrick Rodriguez,Devine,99.25,167.83,104.33,176.9,449.06,Single-ply,SBD,M
Varsity,99.79,15,Eddie Alvarez,Laredo Martin,99.25,183.7,83.91,170.1,437.72,Single-ply,SBD,M
Varsity,99.79,16,Jonathan Guerra,Poteet,99.79,156.49,102.06,154.22,412.77,Single-ply,SBD,M
Varsity,99.79,DQ,Luis Hernandez,Somerset,99.79,208.65,,192.78,,Single-ply,SBD,M
Varsity,109.77,1,Freddy Chavarria,Laredo Martin,104.42,272.16,158.76,222.26,653.17,Single-ply,SBD,M
Varsity,124.74,2,Alfred Godines,Somerset,109.91,235.87,165.56,204.12,605.55,Single-ply,SBD,M
Varsity,124.74,3,Jose Alvarado #4,Somerset,110,263.08,136.08,204.12,603.28,Single-ply,SBD,M
Varsity,109.77,4,Victor Ziminez,Crystal City,101.33,226.8,145.15,215.46,587.4,Single-ply,SBD,M
Varsity,109.77,5,Victor Martinez,Laredo Martin,109.68,229.06,129.27,190.51,548.85,Single-ply,SBD,M
Varsity,109.77,6,Domenic Willhem,Del Rio,101.7,206.38,133.81,199.58,539.77,Single-ply,SBD,M
Varsity,109.77,7,Skylar Richter,Boerne Champion,104.05,217.72,115.67,204.12,537.51,Single-ply,SBD,M
Varsity,109.77,8,Luke Briscoe,Devine,106.23,188.24,124.74,195.04,508.02,Single-ply,SBD,M
Varsity,109.77,9,Rob Davis,Boerne Champion,108.05,183.7,104.33,156.49,444.52,Single-ply,SBD,M
Varsity,109.77,10,Alex Salazar,Center Point,106.14,165.56,106.59,142.88,415.04,Single-ply,SBD,M
Varsity,109.77,11,Christian DeLores,Johnson City,104.42,158.76,106.59,147.42,412.77,Single-ply,SBD,M
Varsity,109.77,12,Efrain Rodriguez,Comfort,107.05,156.49,83.91,158.76,399.16,Single-ply,SBD,M
Varsity,109.77,DQ,Andrew Salazar,Devine,106.41,206.38,115.67,195.04,,Single-ply,SBD,M
Varsity,124.74,1,Brandon Rodriguez,Somerset,116.85,294.84,161.03,231.33,687.19,Single-ply,SBD,M
Varsity,124.74,2,Vincent Lee,Northside Holmes,120.47,272.16,151.95,229.06,653.17,Single-ply,SBD,M
Varsity,124.74,3,Joey Guzman,Del Rio,120.38,238.14,149.69,231.33,619.15,Single-ply,SBD,M
Varsity,124.74,4,Javier Paredes,Natalia,113.49,238.14,122.47,238.14,598.74,Single-ply,SBD,M
Varsity,124.74,5,Angel Garza,Somerset,123.38,226.8,113.4,231.33,571.53,Single-ply,SBD,M
Varsity,124.74,6,Tommy Kosob,La Vernia,119.57,213.19,122.47,226.8,562.45,Single-ply,SBD,M
Varsity,124.74,7,Gus Zavala,Del Rio,120.66,222.26,136.08,192.78,551.11,Single-ply,SBD,M
Varsity,124.74,8,Leo Rodriguez,Northside Holmes,114.49,183.7,108.86,226.8,519.36,Single-ply,SBD,M
Varsity,124.74,9,Sean Pittman,Devine,117.03,181.44,136.08,181.44,498.95,Single-ply,SBD,M
Varsity,124.74,10,Gus Palacios,San Antonio Kennedy,114.4,174.63,131.54,176.9,483.08,Single-ply,SBD,M
Varsity,124.74,11,Dj Carlson,Devine,122.38,192.78,104.33,174.63,471.74,Single-ply,SBD,M
Varsity,124.74,12,Matt Thomas,Sabinal,119.39,151.95,83.91,183.7,419.57,Single-ply,SBD,M
Varsity,124.74+,1,Victor Buitrago,La Vernia,129.18,272.16,188.24,233.6,694,Single-ply,SBD,M
Varsity,124.74+,2,Nykiren Wellington,Northside Holmes,132.9,233.6,102.06,251.74,587.4,Single-ply,SBD,M
Varsity,124.74+,3,Abraham Jimenez,Somerset,132.45,249.48,129.27,190.51,569.26,Single-ply,SBD,M
Varsity,124.74+,4,Blake Griffith,Floresville,126.1,249.48,124.74,192.78,566.99,Single-ply,SBD,M
Varsity,124.74+,5,Davryel Senney,Del Rio,133.54,210.92,140.61,192.78,544.31,Single-ply,SBD,M
Varsity,124.74+,6,Rudy Martinez,Laredo Nixon,125.1,201.85,117.93,217.72,537.51,Single-ply,SBD,M
Varsity,124.74+,7,Jessie Adams,Del Rio,134.17,176.9,140.61,183.7,501.22,Single-ply,SBD,M
Varsity,124.74+,8,Guy LaRue,San Antonio Kennedy,144.42,185.97,113.4,190.51,489.88,Single-ply,SBD,M
Varsity,124.74+,9,James Ximenez,Northside Holmes,130.73,183.7,83.91,195.04,462.66,Single-ply,SBD,M
Varsity,,NS,Chase Brown,Wimberley,,,,,,Single-ply,SBD,M
Varsity,,NS,Dayton Danz,Johnson City,,,,,,Single-ply,SBD,M
Varsity,,NS,Javier Flores,Boerne Champion,,,,,,Single-ply,SBD,M
Junior Varsity,51.71,1,John Dominguez,Somerset,51.62,90.72,54.43,102.06,247.21,Single-ply,SBD,M
Junior Varsity,59.87,1,Michael Casarez,Three Rivers,56.7,158.76,70.31,172.37,401.43,Single-ply,SBD,M
Junior Varsity,59.87,2,Arthur Briones,Laredo Nixon,57.88,88.45,58.97,113.4,260.82,Single-ply,SBD,M
Junior Varsity,67.13,1,Randall Masters,Somerset,65.32,147.42,74.84,154.22,376.48,Single-ply,SBD,M
Junior Varsity,67.13,2,Rogelio Fuentes,Somerset,64.86,117.93,83.91,142.88,344.73,Single-ply,SBD,M
Junior Varsity,67.13,3,José Castillo,Laredo Nixon,64.64,102.06,65.77,136.08,303.91,Single-ply,SBD,M
Junior Varsity,67.13,DQ,Tyler Riesinger,Seguin,65.86,90.72,,102.06,,Single-ply,SBD,M
Junior Varsity,82.1,1,Jacob Muniz,Three Rivers,79.56,192.78,104.33,197.31,494.42,Single-ply,SBD,M
Junior Varsity,82.1,2,Jj Elias,Somerset,77.56,192.78,97.52,192.78,483.08,Single-ply,SBD,M
Junior Varsity,82.1,3,Gerardo Rodriguez,Laredo Nixon,75.75,181.44,102.06,181.44,464.93,Single-ply,SBD,M
Junior Varsity,82.1,4,Travis Smith,Seguin,79.29,138.35,70.31,127.01,335.66,Single-ply,SBD,M
Junior Varsity,89.81,1,Max Mullins,Seguin,82.46,170.1,90.72,183.7,444.52,Single-ply,SBD,M
Junior Varsity,89.81,2,Santiago Perez,Somerset,89.36,167.83,83.91,151.95,403.7,Single-ply,SBD,M
Junior Varsity,89.81,3,Colton Jenkins,Seguin,85,142.88,92.99,163.29,399.16,Single-ply,SBD,M
Junior Varsity,89.81,DQ,Matt Garcia,Somerset,89.81,136.08,88.45,,,Single-ply,SBD,M
Junior Varsity,99.79,1,Carlos Muñoz,Laredo Nixon,95.35,161.03,92.99,208.65,462.66,Single-ply,SBD,M
Junior Varsity,99.79,2,Angel Mendoza,Laredo Nixon,99.16,145.15,72.57,142.88,360.61,Single-ply,SBD,M
Junior Varsity,99.79,3,Kevin Villaneuva,Somerset,99.79,142.88,102.06,,244.94,Single-ply,SB,M
Junior Varsity,109.77,1,Daniel Casarez,Somerset,109.77,185.97,124.74,192.78,503.49,Single-ply,SBD,M
Junior Varsity,109.77,2,Larry Vidales,Somerset,107.5,188.24,92.99,199.58,480.81,Single-ply,SBD,M
Junior Varsity,109.77,3,Chris Kight,Seguin,101.15,158.76,102.06,174.63,435.45,Single-ply,SBD,M
Junior Varsity,109.77,4,Abraham Reyna,Laredo Nixon,105.96,156.49,92.99,165.56,415.04,Single-ply,SBD,M
Junior Varsity,109.77,5,Zackary Moreno,Somerset,109.77,111.13,83.91,136.08,331.12,Single-ply,SBD,M
Junior Varsity,124.74,1,Jaime Cardona,Laredo Nixon,111.4,219.99,97.52,188.24,505.76,Single-ply,SBD,M
Junior Varsity,124.74,2,Raul Loza,Natalia,113.76,204.12,92.99,167.83,464.93,Single-ply,SBD,M
Junior Varsity,124.74,3,Bruno Castillo,Somerset,115.67,138.35,97.52,147.42,383.29,Single-ply,SBD,M
Junior Varsity,124.74,4,Gabriel Gonzalez,Devine,114.85,124.74,79.38,127.01,331.12,Single-ply,SBD,M
Junior Varsity,124.74+,1,Michael Reyes,Natalia,129.36,251.74,102.06,206.38,560.19,Single-ply,SBD,M
Junior Varsity,124.74+,DQ,Jimmy Perez,Devine,128.46,127.01,,,,Single-ply,SBD,M
Junior Varsity,,NS,Korey Ochoa,Devine,,,,,,Single-ply,SBD,M
