Name,BirthYear,Sex,Division,BodyweightKg,WeightClassKg,Squat1Kg,Squat2Kg,Squat3Kg,Best3SquatKg,Bench1Kg,Bench2Kg,Bench3Kg,Best3BenchKg,Deadlift1Kg,Deadlift2Kg,Deadlift3Kg,Best3DeadliftKg,TotalKg,Place,Team,Event,Equipment
Kristi Polizzano,1992,F,O,47.7,48,85,92.5,95,95,60,-67.5,-67.5,60,110,115,-120,115,270,1,CONCRT,SBD,Raw
Katia Porretta,1974,F,O,47.5,48,87.5,-97.5,-97.5,87.5,-60,-60,60,60,95,107.5,117.5,117.5,265,2,NY,SBD,Raw
Dana McMahan,1974,F,O,45.6,48,-80,-80,80,80,40,-42.5,42.5,42.5,77.5,85,-92.5,85,207.5,3,KY,SBD,Raw
Kristi Polizzano,1992,F,T3,47.7,48,85,92.5,95,95,60,-67.5,-67.5,60,110,115,-120,115,270,1,CONCRT,SBD,Raw
Debra Ustar,1955,F,M2b,50.8,52,62.5,-70,-70,62.5,40,42.5,-45,42.5,110,115,120,120,225,1,OH,SBD,Raw
Suzanne Hartwig-Gary,1968,F,O,51.5,52,127.5,137.5,145,145,72.5,77.5,82.5,82.5,132.5,142.5,-150,142.5,370,1,SSPT,SBD,Raw
Colleen McNamara,1981,F,O,51.2,52,90,97.5,102.5,102.5,60,65,67.5,67.5,110,120,127.5,127.5,297.5,2,SSPT,SBD,Raw
Suzanne Hartwig-Gary,1968,F,M1a,51.5,52,127.5,137.5,145,145,72.5,77.5,82.5,82.5,132.5,142.5,-150,142.5,370,1,SSPT,SBD,Raw
Marlene Eveland,1964,F,M1b,55.7,56,60,70,-77.5,70,45,-50,-50,45,82.5,95,107.5,107.5,222.5,1,PA,SBD,Raw
Amanda Padgett,1987,F,O,52.8,56,92.5,102.5,107.5,107.5,52.5,-60,-60,52.5,132.5,142.5,150,150,310,1,CRLNA,SBD,Raw
Lucia A. Garcia,1982,F,O,55.7,56,80,85,90,90,65,70,72.5,72.5,132.5,140,147.5,147.5,310,2,LA,SBD,Raw
Gina St. Clair,1975,F,O,55.1,56,77.5,85,-90,85,72.5,80,-82.5,80,117.5,130,-140,130,295,3,CRLNA,SBD,Raw
Theresa Jesinger,1981,F,O,52.8,56,80,87.5,-92.5,87.5,45,57.5,60,60,110,120,-127.5,120,267.5,4,NJ,SBD,Raw
Rachel Warpeha,1984,F,O,55.1,56,80,85,-90,85,57.5,-62.5,62.5,62.5,85,100,110,110,257.5,5,MN,SBD,Raw
Brittany Wehman,1991,F,O,54.1,56,75,77.5,82.5,82.5,57.5,60,62.5,62.5,100,102.5,-105,102.5,247.5,6,NJ,SBD,Raw
Susan Kwasny,1976,F,O,55.5,56,75,-80,80,80,40,-42.5,-42.5,40,97.5,105,107.5,107.5,227.5,7,KY,SBD,Raw
Marlene Eveland,1964,F,O,55.7,56,60,70,-77.5,70,45,-50,-50,45,82.5,95,107.5,107.5,222.5,8,PA,SBD,Raw
Brittany Wehman,1991,F,T3,54.1,56,75,77.5,82.5,82.5,57.5,60,62.5,62.5,100,102.5,-105,102.5,247.5,1,NJ,SBD,Raw
Laura McGuill,1991,F,JR,57.9,60,100,112.5,-117.5,112.5,42.5,50,-52.5,50,117.5,132.5,142.5,142.5,305,1,TX,SBD,Raw
Susan Stephens,1968,F,M1a,57.9,60,97.5,-100,105,105,57.5,60,62.5,62.5,127.5,132.5,137.5,137.5,305,1,MD,SBD,Raw
Gayle Prebis,1963,F,M1b,59.2,60,57.5,-67.5,67.5,67.5,40,42.5,-45,42.5,87.5,100,-107.5,100,210,1,OH,SBD,Raw
Sylvia Bahr,1955,F,M2b,56.9,60,42.5,50,55,55,32.5,-37.5,37.5,37.5,80,85,90,90,182.5,1,OH,SBD,Raw
Helen White,1945,F,M3b,58.4,60,70,77.5,80,80,55,-57.5,-57.5,55,85,95,97.5,97.5,232.5,1,NJ,SBD,Raw
Jennifer Thompson #1,1973,F,O,59.8,60,130,143,-145,143,120,130,133,133,160,182.5,190,190,466,1,CRLNA,SBD,Raw
Melissa Erwin,1981,F,O,59.6,60,107.5,112.5,115,115,62.5,-67.5,-67.5,62.5,145,157.5,-162.5,157.5,335,2,NY,SBD,Raw
Cristina Escalante,1986,F,O,59.6,60,115,-120,-122.5,115,67.5,70,-72.5,70,-132.5,132.5,137.5,137.5,322.5,3,FL,SBD,Raw
Jessica Kratz,1972,F,O,59.4,60,97.5,-110,-110,97.5,57.5,67.5,-70,67.5,130,140,145,145,310,4,PA,SBD,Raw
Susan Stephens,1968,F,O,57.9,60,97.5,-100,105,105,57.5,60,62.5,62.5,127.5,132.5,137.5,137.5,305,5,MD,SBD,Raw
Laura McGuill,1991,F,O,57.9,60,100,112.5,-117.5,112.5,42.5,50,-52.5,50,117.5,132.5,142.5,142.5,305,5,TX,SBD,Raw
Laura Monroe,1982,F,O,59.8,60,85,87.5,90,90,57.5,62.5,65,65,125,130,132.5,132.5,287.5,7,NY,SBD,Raw
Sarah Cahill,1981,F,O,58.5,60,-80,-80,80,80,57.5,60,-65,60,127.5,135,137.5,137.5,277.5,8,CONCRT,SBD,Raw
Kimberly Delaney,1986,F,O,58.3,60,82.5,92.5,-100,92.5,45,-52.5,-52.5,45,125,135,137.5,137.5,275,9,NY,SBD,Raw
Heather Crocker,1988,F,JR,63.5,67.5,107.5,115,-120,115,62.5,67.5,-72.5,67.5,160,170,-182.5,170,352.5,1,CONCRT,SBD,Raw
Tierney Wallace,1988,F,JR,66.1,67.5,100,107.5,115.5,115.5,55,-60,-60,55,140,150,155,155,325.5,2,NY,SBD,Raw
Chelsea Wrenn,1989,F,JR,66.4,67.5,102.5,112.5,118,118,60,-67.5,-67.5,60,125,140,147.5,147.5,325.5,3,TX,SBD,Raw
Vanessa Gale,1988,F,JR,66.9,67.5,102.5,110,117.5,117.5,55,60,62.5,62.5,130,-140,-140,130,310,4,NY,SBD,Raw
BilliJo Brown,1988,F,JR,64,67.5,100,107.5,-110,107.5,50,-55,-55,50,102.5,110,120,120,277.5,5,NY,SBD,Raw
Emily Moin,1987,F,JR,65.1,67.5,60,70,80,80,37.5,42.5,-47.5,42.5,80,92.5,105,105,227.5,6,NY,SBD,Raw
Jill Joiner-Wong,1969,F,M1a,66.3,67.5,105,117.5,127.5,127.5,65,-72.5,72.5,72.5,120,135,140,140,340,1,WA,SBD,Raw
Gail Sherman,1971,F,M1a,64.1,67.5,-97.5,97.5,-105,97.5,52.5,-55,-55,52.5,120,127.5,135,135,285,2,NY,SBD,Raw
Luann Kuznicki,1965,F,M1b,60.3,67.5,80,90,-102.5,90,62.5,67.5,-75,67.5,135,140,-152.5,140,297.5,1,MI,SBD,Raw
Caryn Daniel,1963,F,M1b,66.7,67.5,82.5,92.5,97.5,97.5,55,60,-62.5,60,102.5,112.5,-117.5,112.5,270,2,MD,SBD,Raw
Judith Drenth,1958,F,M2a,65.8,67.5,-85,-85,-85,,57.5,62.5,-67.5,62.5,112.5,120,-127.5,120,,DQ,MN,SBD,Raw
Judith M. DeMuro,1960,F,M2a,66.2,67.5,-75,-75,75,75,52.5,-55,-55,52.5,110,115,-120,115,242.5,1,NY,SBD,Raw
Ellen Bittner,1948,F,M3a,65.4,67.5,37.5,42.5,-45,42.5,37.5,42.5,-45,42.5,92.5,95,97.5,97.5,182.5,1,NY,SBD,Raw
Chelsea Wrenn,1989,F,MIL,66.4,67.5,102.5,112.5,118,118,60,-67.5,-67.5,60,125,140,147.5,147.5,325.5,1,TX,SBD,Raw
Jillian Ramirez,1985,F,O,63.2,67.5,-117.5,-117.5,-117.5,,75,-77.5,-77.5,75,137.5,150,-165,150,,DQ,OH,SBD,Raw
Judith Drenth,1958,F,O,65.8,67.5,-85,-85,-85,,57.5,62.5,-67.5,62.5,112.5,120,-127.5,120,,DQ,MN,SBD,Raw
Caryn Daniel,1963,F,O,66.7,67.5,82.5,92.5,97.5,97.5,55,60,-62.5,60,102.5,112.5,-117.5,112.5,270,10,MD,SBD,Raw
Kimberly Walford,1978,F,O,62.4,67.5,115,120,132.5,132.5,85,92.5,-110,92.5,190,205,215,215,440,1,TITAN,SBD,Raw
Wendy Catherine Hajik,1983,F,O,65.2,67.5,127.5,135,-142.5,135,57.5,62.5,65,65,145,150,157.5,157.5,357.5,2,NY,SBD,Raw
Jill Joiner-Wong,1969,F,O,66.3,67.5,105,117.5,127.5,127.5,65,-72.5,72.5,72.5,120,135,140,140,340,3,WA,SBD,Raw
Amy Welcome,1986,F,O,66.2,67.5,105,-112.5,112.5,112.5,57.5,60,62.5,62.5,140,152.5,160,160,335,4,CONCRT,SBD,Raw
Patricia Lee Maizels,1977,F,O,66.2,67.5,135,140,-145,140,45,50,-52.5,50,-140,140,-150,140,330,5,GRG INK,SBD,Raw
Chelsea Wrenn,1989,F,O,66.4,67.5,102.5,112.5,118,118,60,-67.5,-67.5,60,125,140,147.5,147.5,325.5,6,TX,SBD,Raw
Lauren Mitchell,1986,F,O,65.3,67.5,110,120,-125,120,70,75,77.5,77.5,110,120,125,125,322.5,7,TITAN,SBD,Raw
Jessica Stroup,1983,F,O,66.7,67.5,90,100,-107.5,100,67.5,77.5,-80,77.5,132.5,142.5,145,145,322.5,8,PA,SBD,Raw
Jennifer Varner,1983,F,O,62.5,67.5,102.5,107.5,115,115,57.5,60,-65,60,132.5,137.5,142.5,142.5,317.5,9,MI,SBD,Raw
Shaina Petit,1989,F,JR,68,75,115,122.5,-132.5,122.5,77.5,85,-88.5,85,125,137.5,-145,137.5,345,1,CONCRT,SBD,Raw
Chelsi Mundy,1988,F,JR,71.9,75,100,-107.5,-107.5,100,55,60,-65,60,107.5,112.5,-115,112.5,272.5,2,AZ,SBD,Raw
Allison Almeida,1989,F,JR,69.4,75,-80,-80,80,80,52.5,-60,-60,52.5,102.5,107.5,115,115,247.5,3,CONCRT,SBD,Raw
Sabrina Davis,1970,F,M1a,71.2,75,112.5,122.5,-140,122.5,60,75,-77.5,75,172.5,-190,-190,172.5,370,1,TITAN,SBD,Raw
Lisa McAdams,1958,F,M2a,73.7,75,95,97.5,-102.5,97.5,47.5,-52.5,-52.5,47.5,137.5,145,-147.5,145,290,1,TX,SBD,Raw
Lori Couvillion,1956,F,M2b,73.5,75,70,85,-92.5,85,40,45,-47.5,45,85,100,-107.5,100,230,1,NC,SBD,Raw
Sharon Hernstadt,1939,F,M3c,70.4,75,-52.5,-52.5,52.5,52.5,40,-42.5,-42.5,40,100,105,-107.5,105,197.5,1,NY,SBD,Raw
Sandra Sebastian,1986,F,O,72.7,75,120,130,140,140,70,80,85,85,165,175,-185,175,400,1,TITAN,SBD,Raw
Sabrina Davis,1970,F,O,71.2,75,112.5,122.5,-140,122.5,60,75,-77.5,75,172.5,-190,-190,172.5,370,2,TITAN,SBD,Raw
Sheryl Condon,1972,F,O,70.9,75,130,135,-137.5,135,67.5,-72.5,-72.5,67.5,157.5,-165,-170,157.5,360,3,CA,SBD,Raw
Jennifer Amann,1974,F,O,73.9,75,117.5,127.5,132.5,132.5,62.5,-67.5,-67.5,62.5,142.5,147.5,150,150,345,4,TX,SBD,Raw
Rebecca Myers,1986,F,O,74.2,75,112.5,122.5,-127.5,122.5,65,70,-75,70,127.5,140,145,145,337.5,5,MD,SBD,Raw
Chelsi Mundy,1988,F,O,71.9,75,100,-107.5,-107.5,100,55,60,-65,60,107.5,112.5,-115,112.5,272.5,6,AZ,SBD,Raw
Rupa Bhattacharya,1981,F,O,74.1,75,72.5,82.5,-92.5,82.5,37.5,-40,-40,37.5,112.5,120,-125,120,240,7,NY,SBD,Raw
Lori Couvillion,1956,F,O,73.5,75,70,85,-92.5,85,40,45,-47.5,45,85,100,-107.5,100,230,8,CRLNA,SBD,Raw
Kelly Pace,1991,F,T3,71.6,75,72.5,82.5,92.5,92.5,45,-50,-50,45,92.5,102.5,112.5,112.5,250,1,NJ,SBD,Raw
Tammy Walker,1968,F,M1a,82.1,82.5,110,115,-122.5,115,102.5,105,-107.5,105,137.5,145,152.5,152.5,372.5,1,NC,SBD,Raw
Maureen Tierney,1965,F,M1b,78.2,82.5,65,72.5,80,80,37.5,42.5,-47.5,42.5,100,110,117.5,117.5,240,1,NJ,SBD,Raw
Patricia Kroken,1947,F,M3a,81.3,82.5,70,75,-82.5,75,37.5,-40,-40,37.5,102.5,110,-115,110,222.5,1,NM,SBD,Raw
Tammy Walker,1968,F,O,82.1,82.5,110,115,-122.5,115,102.5,105,-107.5,105,137.5,145,152.5,152.5,372.5,1,NC,SBD,Raw
Melissa Steere,1970,F,O,88,90,122.5,137.5,-152.5,137.5,90,-95,-97.5,90,145,162.5,165,165,392.5,1,NY,SBD,Raw
Jessica Borrelli,1979,F,O,89.1,90,107.5,-125,140,140,70,-77.5,-77.5,70,142.5,-165,-165,142.5,352.5,2,WA,SBD,Raw
Jerriann Doll,1968,F,M1a,96.9,90+,85,-100,-107.5,85,82.5,92.5,-95,92.5,142.5,150,162.5,162.5,340,1,OH,SBD,Raw
Nancy M. Edelson,1961,F,M2a,138.8,90+,102.5,-125,-125,102.5,-50,55,60,60,-175,175,,175,337.5,1,FL,SBD,Raw
Jan Koenig,1954,F,M2b,97,90+,85,-92.5,95,95,65,-72.5,-72.5,65,145,150,-152.5,150,310,1,OH,SBD,Raw
Chelsea Katherine Rebman,1989,F,O,93.5,90+,152.5,162.5,172.5,172.5,70,-75,75,75,147.5,160,170,170,417.5,1,PA,SBD,Raw
Chelsea Katherine Rebman,1989,F,O,93.5,90+,152.5,162.5,172.5,172.5,70,-75,75,75,147.5,160,170,170,417.5,1,PA,SBD,Raw
Jerriann Doll,1968,F,O,96.9,90+,85,-100,-107.5,85,82.5,92.5,-95,92.5,142.5,150,162.5,162.5,340,2,OH,SBD,Raw
Nancy M. Edelson,1961,F,O,138.8,90+,102.5,-125,-125,102.5,-50,55,60,60,-175,175,,175,337.5,3,FL,SBD,Raw
Jan Koenig,1954,F,O,97,90+,85,-92.5,95,95,65,-72.5,-72.5,65,145,150,-152.5,150,310,4,OH,SBD,Raw
Kimberly Muhammad,1979,F,O,103.6,90+,75,82.5,90,90,45,50,55,55,90,102.5,112.5,112.5,257.5,5,MD,SBD,Raw
Stephanie Winchip,1996,F,T1,91.7,90+,82.5,97.5,100,100,-42.5,42.5,50,50,112.5,122.5,-137.5,122.5,272.5,1,NY,SBD,Raw
Stephanie Winchip,1996,F,T1,91.7,90+,82.5,97.5,100,100,-42.5,42.5,50,50,112.5,122.5,-137.5,122.5,272.5,1,NY,SBD,Raw
Tyler Bear Maizels,1998,M,Y2,47.1,52,77.5,80,82.5,82.5,37.5,-40,-40,37.5,92.5,95,97.5,97.5,217.5,1,GRG INK,SBD,Raw
Matt Kalinowski,1988,M,JR,55.9,56,140,145,150,150,82.5,87.5,95,95,185,200,,200,445,1,AZ,SBD,Raw
Eric Kupperstein,1966,M,M1b,56,56,155,175,-185,175,90,100,102.5,102.5,220,240,250,250,527.5,1,CONCRT,SBD,Raw
Eric Kupperstein,1966,M,O,56,56,155,175,-185,175,90,100,102.5,102.5,220,240,250,250,527.5,1,CONCRT,SBD,Raw
Michael Fox,1991,M,O,55.8,56,162.5,170,172.5,172.5,122.5,127.5,,127.5,185,190,192.5,192.5,492.5,2,KS,SBD,Raw
Matt Kalinowski,1988,M,O,55.9,56,140,145,150,150,82.5,87.5,95,95,185,200,,200,445,3,AZ,SBD,Raw
Marcus Iwama,1996,M,T1,55.9,56,92.5,105,107.5,107.5,72.5,75,77.5,77.5,132.5,145,-147.5,145,330,1,NJ,SBD,Raw
Michael Fox,1991,M,T3,55.8,56,162.5,170,172.5,172.5,122.5,127.5,,127.5,185,190,192.5,192.5,492.5,1,KS,SBD,Raw
Dillion Walker,1993,M,T3,58.5,60,92.5,100,-110,100,72.5,77.5,-80,77.5,152.5,162.5,,162.5,340,1,PA,SBD,Raw
Kevin Spencer,1990,M,JR,56.1,60,-132.5,-132.5,-132.5,,-92.5,-92.5,92.5,92.5,-165,-165,-165,,,DQ,NJ,SBD,Raw
Phil Townsend,1991,M,JR,59.6,60,140,-150,-150,140,80,-85,-85,80,190,200,-215,200,420,1,OH,SBD,Raw
Steven Grosso,1989,M,JR,57.6,60,-117.5,117.5,-135,117.5,75,-82.5,82.5,82.5,160,180,185,185,385,2,NY,SBD,Raw
Peter Willette,1990,M,JR,59.5,60,-120,127.5,-135,127.5,85,-92.5,-92.5,85,155,-160,-200,155,367.5,3,NH,SBD,Raw
Kevin Spencer,1990,M,O,56.1,60,-132.5,-132.5,-132.5,,-92.5,-92.5,92.5,92.5,-165,-165,-165,,,DQ,NJ,SBD,Raw
Michael Kuhns,1985,M,O,59.7,60,217.5,-237.5,-237.5,217.5,127.5,142.5,-150,142.5,160,175,-180,175,535,1,TITAN,SBD,Raw
Phil Townsend,1991,M,O,59.6,60,140,-150,-150,140,80,-85,-85,80,190,200,-215,200,420,2,OH,SBD,Raw
Adam Roth,1993,M,O,59.2,60,135,142.5,-150,142.5,92.5,95,-97.5,95,157.5,167.5,177.5,177.5,415,3,KY,SBD,Raw
Rick Delollis,1980,M,O,58.5,60,102.5,107.5,-115,107.5,112.5,117.5,-122.5,117.5,-182.5,-182.5,182.5,182.5,407.5,4,OH,SBD,Raw
Adam Roth,1993,M,T3,59.2,60,135,142.5,-150,142.5,92.5,95,-97.5,95,157.5,167.5,177.5,177.5,415,1,KY,SBD,Raw
Mathew Fox,1991,M,T3,59.6,60,150,-152.5,-152.5,150,102.5,107.5,-110,107.5,147.5,157.5,-162.5,157.5,415,2,KS,SBD,Raw
Michael Tancredi,1990,M,JR,66.5,67.5,155,-165,165,165,107.5,115,120,120,200,218,227.5,227.5,512.5,1,NJ,SBD,Raw
James Long,1988,M,JR,65.5,67.5,125,142.5,-155,142.5,102.5,110,115,115,170,195,-212.5,195,452.5,2,OH,SBD,Raw
Ronnie Garner,1969,M,M1a,66.5,67.5,85,100,-117.5,100,92.5,100,107.5,107.5,142.5,152.5,162.5,162.5,370,1,CRLNA,SBD,Raw
Jeff Phillips #1,1965,M,M1b,66.6,67.5,175,187.5,,187.5,117.5,-120,-120,117.5,220,227.5,,227.5,532.5,1,AR,SBD,Raw
Paul McColgan,1958,M,M2a,65.6,67.5,-102.5,102.5,-105,102.5,75,80,85,85,142.5,147.5,-152.5,147.5,335,1,PA,SBD,Raw
Rich Blaumuller,1952,M,M2b,66.5,67.5,85,90,95,95,65,67.5,-72.5,67.5,112.5,115,122.5,122.5,285,1,MS,SBD,Raw
Daren M Flagg,1973,M,O,66.6,67.5,-152.5,152.5,-157.5,152.5,-110,-110,-110,,227.5,-235,,227.5,,DQ,CO,SBD,Raw
Ron Hackaspker,1974,M,O,66.2,67.5,-207.5,215,-225,215,145,-150,,145,212.5,222.5,230,230,590,1,NJ,SBD,Raw
Jeff Phillips #1,1965,M,O,66.6,67.5,175,187.5,,187.5,117.5,-120,-120,117.5,220,227.5,,227.5,532.5,2,AR,SBD,Raw
Michael Tancredi,1990,M,O,66.5,67.5,155,-165,165,165,107.5,115,120,120,200,218,227.5,227.5,512.5,3,NJ,SBD,Raw
Dustin Craigo,1982,M,O,66.5,67.5,172.5,185,-190,185,95,102.5,-107.5,102.5,187.5,-200,200,200,487.5,4,IN,SBD,Raw
Justin Parent,1987,M,O,67,67.5,140,-150,150,150,95,100,-105,100,175,182.5,-185,182.5,432.5,5,CONCRT,SBD,Raw
Ronnie Garner,1969,M,O,66.5,67.5,85,100,-117.5,100,92.5,100,107.5,107.5,142.5,152.5,162.5,162.5,370,6,CRLNA,SBD,Raw
Jack Wolff,1938,M,O,66.2,67.5,-107.5,107.5,-115,107.5,50,60,-65,60,155,165,175,175,342.5,7,NJ,SBD,Raw
Tyler Logan,1996,M,T1,63,67.5,82.5,95,100,100,60,65,70,70,102.5,-110,117.5,117.5,287.5,1,PA,SBD,Raw
Okechi Egekwu,1987,M,JR,70.5,75,162.5,170,-185,170,107.5,115,-122.5,115,212.5,220,232.5,232.5,517.5,1,,SBD,Raw
Ramiro Espinosa,1988,M,JR,73.7,75,160,172.5,177.5,177.5,122.5,132.5,140,140,197.5,-222.5,-222.5,197.5,515,2,,SBD,Raw
Joshua Guillory,1990,M,JR,71.7,75,160,182.5,200,200,90,-102.5,102.5,102.5,182.5,205,-217.5,205,507.5,3,,SBD,Raw
Joshua A. Mink,1991,M,JR,72.8,75,140,155,160,160,105,115,-120,115,185,200,202.5,202.5,477.5,4,GRG INK,SBD,Raw
Mike Cagliola,1970,M,M1a,73.7,75,182.5,192.5,202.5,202.5,147.5,155,-157.5,155,-212.5,222.5,227.5,227.5,585,1,GRG INK,SBD,Raw
Michael Macri,1969,M,M1a,74.2,75,175,-192.5,192.5,192.5,97.5,102.5,-105,102.5,205,232.5,-247.5,232.5,527.5,1,,SBD,Raw
Stuart Roy,1967,M,M1a,74.2,75,135,147.5,-155,147.5,92.5,102.5,-107.5,102.5,170,185,-187.5,185,435,2,,SBD,Raw
Francis Kozub,1963,M,M1b,73.8,75,-155,155,-172.5,155,122.5,-132.5,-132.5,122.5,180,195,205,205,482.5,1,,SBD,Raw
Brad Olson,1962,M,M1b,73.9,75,165,180,187.5,187.5,130,140,145,145,182.5,-200,200,200,532.5,1,OH,SBD,Raw
David J Petro-Roy,1949,M,M3a,72.2,75,172.5,-182.5,-182.5,172.5,102.5,-107.5,,102.5,205,-220,,205,480,1,,SBD,Raw
Nicholas Theodorou,1950,M,M3a,72.8,75,147.5,160,-172.5,160,50,60,,60,215,235,,235,455,2,,SBD,Raw
Jay Halprin,1949,M,M3a,74,75,130,-147.5,-147.5,130,90,97.5,-100,97.5,170,187.5,192.5,192.5,420,3,CRLNA,SBD,Raw
Ronald Hess,1976,M,MIL,74.5,75,130,-140,140,140,102.5,107.5,-112.5,107.5,180,-192.5,-202.5,180,427.5,1,,SBD,Raw
Jamie McDougal,1972,M,O,74.9,75,200,207.5,-212.5,207.5,175,-182.5,-185,175,265,275,-285,275,657.5,1,,SBD,Raw
Reggie Dukes,1975,M,O,72.8,75,182.5,-185,215,215,145,157.5,167.5,167.5,227.5,250,-257.5,250,632.5,2,,SBD,Raw
Shawn Frasquillo,1986,M,O,72.8,75,200,207.5,-215,207.5,150,160,165,165,217.5,227.5,235,235,607.5,3,,SBD,Raw
Jonathan Peebles,1988,M,O,74.9,75,187.5,200,-207.5,200,135,150,152.5,152.5,227.5,245,255,255,607.5,4,,SBD,Raw
Chris Ferree,1985,M,O,74.4,75,210,220,-230,220,130,137.5,142.5,142.5,210,225,-232.5,225,587.5,5,,SBD,Raw
Mike Cagliola,1970,M,O,73.7,75,182.5,192.5,202.5,202.5,147.5,155,-157.5,155,-212.5,222.5,227.5,227.5,585,6,,SBD,Raw
Tim Lamando,1979,M,O,74.1,75,182.5,205,210,210,115,122.5,-125,122.5,227.5,245,250,250,582.5,7,,SBD,Raw
Brendan Didiano,1991,M,O,74.01,75,170,-185,185,185,125,135,-137.5,135,202.5,217.5,-242.5,217.5,537.5,8,,SBD,Raw
James Golembieski,1979,M,O,74.6,75,175,182.5,-192.5,182.5,112.5,120,-125,120,192.5,207.5,-227.5,207.5,510,9,,SBD,Raw
Joshua Guillory,1990,M,O,71.7,75,160,182.5,200,200,90,-102.5,102.5,102.5,182.5,205,-217.5,205,507.5,10,,SBD,Raw
An N Tran,1986,M,O,72.8,75,150,162.5,172.5,172.5,102.5,112.5,-127.5,112.5,192.5,205,217.5,217.5,502.5,11,,SBD,Raw
Mark Davis,1984,M,O,73.6,75,165,-177.5,-177.5,165,110,112.5,120,120,187.5,205,215,215,500,12,,SBD,Raw
Derek Nellis,1985,M,O,69,75,147.5,155,-175,155,-125,-125,130,130,170,182.5,205,205,490,13,,SBD,Raw
David J Petro-Roy,1949,M,O,72.2,75,172.5,-182.5,-182.5,172.5,102.5,-107.5,,102.5,205,-220,,205,480,14,,SBD,Raw
Francisco S. Arcibal III,1975,M,O,70.9,75,132.5,137.5,-145,137.5,135,140,-142.5,140,175,190,-197.5,190,467.5,15,,SBD,Raw
Joe Warpeha,1976,M,O,73.6,75,125,132.5,135,135,125,135,137.5,137.5,165,175,185,185,457.5,16,,SBD,Raw
Stuart Roy,1967,M,O,74.2,75,135,147.5,-155,147.5,92.5,102.5,-107.5,102.5,170,185,-187.5,185,435,17,,SBD,Raw
Dennis Danley,1992,M,O,72.6,75,120,135,145,145,105,120,-122.5,120,130,145,162.5,162.5,427.5,18,,SBD,Raw
Ronald Hess,1976,M,O,74.5,75,130,-140,140,140,102.5,107.5,-112.5,107.5,180,-192.5,-202.5,180,427.5,19,,SBD,Raw
Matthew Koe,1996,M,T1,74.3,75,130,142.5,147.5,147.5,85,97.5,105.5,105.5,142.5,182.5,187.5,187.5,440.5,1,,SBD,Raw
Josh Sweeney,1994,M,T2,74.8,75,90,107.5,115,115,70,-87.5,-92.5,70,160,185,-200,185,370,1,,SBD,Raw
Brendan Didiano,1991,M,T3,74.1,75,170,-185,185,185,125,135,-137.5,135,202.5,217.5,-242.5,217.5,537.5,1,,SBD,Raw
Jonnie Candito,1992,M,T3,73.3,75,190,195,-197.5,195,117.5,122.5,125,125,187.5,197.5,215,215,535,2,,SBD,Raw
Sam Derynck,1992,M,T3,73.4,75,170,182.5,-195,182.5,110,-117.5,117.5,117.5,215,230,-240,230,530,3,,SBD,Raw
Dennis Danley,1992,M,T3,72.6,75,120,135,145,145,105,120,-122.5,120,130,145,162.5,162.5,427.5,4,,SBD,Raw
Joseph Cassaro,1991,M,T3,73.9,75,130,140,147.5,147.5,87.5,97.5,-102.5,97.5,160,175,-182.5,175,420,5,CONCRT,SBD,Raw
Evan Miller,,M,JR,80.3,82.5,197.5,207.5,-217.5,207.5,175,-185,-185,175,185,230,250,250,632.5,1,OH,SBD,Raw
Erick Cuellar,,M,JR,81.5,82.5,167.5,182.5,-192.5,182.5,92.5,110,115,115,220,230,242.5,242.5,540,2,NJ,SBD,Raw
David M. Bell,,M,JR,79.4,82.5,155,165,170,170,107.5,112.5,117.5,117.5,172.5,185,192.5,192.5,480,3,NJ,SBD,Raw
James Benemerito,,M,M1a,80.1,82.5,175,190,215,215,137.5,145,150,150,220,-250,255,255,620,1,NJ,SBD,Raw
Craig Lynch,,M,M1a,81.8,82.5,190,205,215,215,145,157.5,-165,157.5,215,227.5,-237.5,227.5,600,2,IL,SBD,Raw
Travis Pardue,1971,M,M1a,82.1,82.5,-192.5,192.5,205,205,135,140,142.5,142.5,242.5,-245,-275,242.5,590,3,CRLNA,SBD,Raw
Chris Cirnigliaro,1971,M,M1a,81.2,82.5,165,177.5,185,185,120,127.5,-132.5,127.5,200,215,-222.5,215,527.5,4,PA,SBD,Raw
Sean Duston,,M,M1a,81.5,82.5,180,185,192.5,192.5,95,105,-110,105,195,205,-215,205,502.5,5,VA,SBD,Raw
Vadim Vilensky,,M,M1a,78.7,82.5,152.5,157.5,-162.5,157.5,125,127.5,-130,127.5,200,-205,-205,200,485,6,NY,SBD,Raw
Joe Braca,,M,M1b,80.2,82.5,195,215,-230,215,115,125,130,130,277.5,288,-300,288,633,1,PA,SBD,Raw
Donovan Thompson,,M,M1b,81.9,82.5,175,207.5,215,215,142.5,158,163,163,227.5,-235,-235,227.5,605.5,2,CRLNA,SBD,Raw
Gary Kaiser,1960,M,M2a,77.1,82.5,182.5,205,,205,140,145,-152.5,145,205,227.5,,227.5,577.5,1,AZ,SBD,Raw
Steve Cusak,,M,M2a,80.2,82.5,165,-175,175,175,110,-112.5,112.5,112.5,217.5,-227.5,,217.5,505,2,NY,SBD,Raw
Brig Seaver,,M,M2b,78.5,82.5,102.5,110,115,115,82.5,85,87.5,87.5,150,160,167.5,167.5,370,1,NY,SBD,Raw
Jim Klostergaard,,M,M3a,81.8,82.5,125,,,125,130,140.5,-145,140.5,125,,,125,390.5,1,TX,SBD,Raw
Bill Lindsey,,M,M3b,81.4,82.5,125,137.5,140,140,92.5,100,105,105,137.5,145,155,155,400,1,VA,SBD,Raw
Pete Miller,,M,M3b,81.1,82.5,-105,105,115,115,80,85,-87.5,85,155,175,180,180,380,2,VA,SBD,Raw
Calvin Sun,,M,MIL,79.2,82.5,175,-185,-185,175,110,115,-120,115,210,220,-230,220,510,1,CA,SBD,Raw
Alex Tertitski,,M,O,81.4,82.5,217.5,227.5,237.5,237.5,155,160,-162.5,160,287.5,297.5,305,305,702.5,1,FL,SBD,Raw
Reece Verbois,,M,O,81.8,82.5,242.5,255,-262.5,255,142.5,145,155,155,242.5,265,277.5,277.5,687.5,2,LA,SBD,Raw
Joe Braca,,M,O,80.2,82.5,195,215,-230,215,115,125,130,130,277.5,288,-300,288,633,3,PA,SBD,Raw
Evan Miller,,M,O,80.3,82.5,197.5,207.5,-217.5,207.5,175,-185,-185,175,185,230,250,250,632.5,4,OH,SBD,Raw
Lucas E. Hisghman,,M,O,78.3,82.5,215,227.5,-235,227.5,152.5,160,167.5,167.5,205,215,227.5,227.5,622.5,5,VA,SBD,Raw
James Benemerito,,M,O,80.1,82.5,175,190,215,215,137.5,145,150,150,220,-250,255,255,620,6,NJ,SBD,Raw
Michael York,,M,O,79.1,82.5,190,197.5,205,205,142.5,147.5,-150,147.5,250,260,-272.5,260,612.5,7,CONCRT,SBD,Raw
Donovan Thompson,,M,O,81.9,82.5,175,207.5,215,215,142.5,158,163,163,227.5,-235,-235,227.5,605.5,8,CRLNA,SBD,Raw
Craig Lynch,,M,O,81.8,82.5,190,205,215,215,145,157.5,-165,157.5,215,227.5,-237.5,227.5,600,9,IL,SBD,Raw
Travis Pardue,1971,M,O,82.1,82.5,-192.5,192.5,205,205,135,140,142.5,142.5,242.5,-245,-275,242.5,590,10,CRLNA,SBD,Raw
Lloyd Summers,,M,O,80.6,82.5,175,182.5,-185,182.5,155,-167.5,-167.5,155,-237.5,237.5,-260,237.5,575,11,OH,SBD,Raw
Mathew S. Buttimer,,M,O,81.7,82.5,182.5,-195,-195,182.5,122.5,-130,130,130,227.5,240,-245,240,552.5,12,CONCRT,SBD,Raw
Joseph Lukus,,M,O,82,82.5,182.5,195,-205,195,-137.5,137.5,-142.5,137.5,205,215,220,220,552.5,13,PA,SBD,Raw
Chris Cirnigliaro,1971,M,O,81.2,82.5,165,177.5,185,185,120,127.5,-132.5,127.5,200,215,-222.5,215,527.5,14,PA,SBD,Raw
Calvin Sun,,M,O,79.2,82.5,175,-185,-185,175,110,115,-120,115,210,220,-230,220,510,15,CA,SBD,Raw
Joseph G. Brudzinski,,M,O,81.7,82.5,190,-210,-210,190,105,112.5,-117.5,112.5,190,205,-227.5,205,507.5,16,PA,SBD,Raw
Brian Espino,,M,O,80.7,82.5,142.5,157.5,-167.5,157.5,122.5,127.5,,127.5,187.5,207.5,-227.5,207.5,492.5,17,NY,SBD,Raw
Vadim Vilensky,,M,O,78.7,82.5,152.5,157.5,-162.5,157.5,125,127.5,-130,127.5,200,-205,-205,200,485,18,NY,SBD,Raw
Thomas Ballerini,,M,O,75.7,82.5,122.5,125,130,130,100,102.5,-105,102.5,185,190,-192.5,190,422.5,19,PA,SBD,Raw
Jim Klostergaard,,M,O,81.8,82.5,125,,,125,130,140.5,-145,140.5,125,,,125,390.5,20,TX,SBD,Raw
William K Mennell,,M,O,81.6,82.5,,,,160,,,,107.5,,,,215,482.5,G,MA,SBD,Raw
Joseph Lukus,,M,PF,82,82.5,182.5,195,-205,195,-137.5,137.5,-142.5,137.5,205,215,220,220,552.5,1,PA,SBD,Raw
Robbie Karstendiek,,M,T2,81.9,82.5,-187.5,187.5,202.5,202.5,105,120,125,125,212.5,230,245,245,572.5,1,PA,SBD,Raw
Keith Schneider,,M,T3,81,82.5,157.5,172.5,182.5,182.5,102.5,110,115,115,195,215,222.5,222.5,520,1,OH,SBD,Raw
Craig Peterson,1990,M,JR,89,90,242.5,255,-265,255,152.5,160,-165,160,260,-275,-275,260,675,1,MN,SBD,Raw
Ryan C. Kimball,1987,M,JR,89.8,90,237.5,-250,-250,237.5,142.5,145,147.5,147.5,260,270,-275,270,655,2,LA,SBD,Raw
Andrey Grebenetsky,1990,M,JR,89,90,210,230,245,245,137.5,147.5,-155,147.5,225,245,-267.5,245,637.5,3,NY,SBD,Raw
Steven Roy,1987,M,JR,88.7,90,190,-207.5,210,210,142.5,155,-160,155,242.5,-257.5,-257.5,242.5,607.5,1,CT,SBD,Raw
Nicholas Lee,1990,M,JR,84.5,90,197.5,207.5,-217.5,207.5,155,162.5,165,165,197.5,210,217.5,217.5,590,4,,SBD,Raw
Rob Buxbaum,1988,M,JR,88,90,197.5,212.5,-217.5,212.5,-115,117.5,125,125,220,242.5,250,250,587.5,2,WA,SBD,Raw
Collin Morstein,1990,M,JR,88.6,90,-180,195,200,200,105,115,-117.5,115,230,245,252.5,252.5,567.5,3,MD,SBD,Raw
Andrew DiCecco,1989,M,JR,86.3,90,137.5,147.5,155,155,125,-130,-130,125,210,220,-227.5,220,500,4,PA,SBD,Raw
Hap Brecht,1988,M,JR,88.2,90,152.5,165,170,170,115,-127.5,-127.5,115,177.5,200,-210,200,485,5,VA,SBD,Raw
Chad Rexrode,1968,M,M1a,88.3,90,230,235,-240,235,-172.5,-172.5,-172.5,,230,,,230,,DQ,RTS,SBD,Raw
John Brooks,1968,M,M1a,89.5,90,-235,-240,240,240,-185,-185,-185,,-245,,,,,DQ,TITAN,SBD,Raw
John Demchak,1967,M,M1a,89.7,90,197.5,207.5,215,215,112.5,117.5,-120,117.5,227.5,245,,245,577.5,1,CRLNA,SBD,Raw
Greg Eckard,1967,M,M1a,88.2,90,135,145,155,155,102.5,105,115,115,175,190,200,200,470,2,GRG INK,SBD,Raw
Thomas Mazzotta,,M,M1a,87.1,90,137.5,150,162.5,162.5,95,102.5,107.5,107.5,175,187.5,190,190,460,1,OH,SBD,Raw
Joe Semeister III,1968,M,M1a,86.8,90,-107.5,117.5,122.5,122.5,102.5,107.5,-110,107.5,165,175,177.5,177.5,407.5,2,GRG INK,SBD,Raw
Joe McAulliffe,1965,M,M1b,89.2,90,235,,,235,-190,190,195,195,235,245,252.5,252.5,682.5,1,NJ,SBD,Raw
Richard Wenner,,M,M1b,89.2,90,197.5,212.5,220,220,155,165,170,170,242.5,257.5,270,270,660,2,AZ,SBD,Raw
Allan Miller,1965,M,M1b,87.6,90,200,-215,-215,200,142.5,150,-160,150,200,212.5,220,220,570,1,PA,SBD,Raw
Jeff Monahos,,M,M2a,88.2,90,190,-205,205,205,125,135,-140,135,207.5,222.5,-237.5,222.5,562.5,1,WI,SBD,Raw
Claude Welcome,,M,M3a,89.8,90,157.5,167.5,175,175,137.5,142.5,145,145,182.5,195,200,200,520,1,PA,SBD,Raw
David W. Morgan,1948,M,M3a,89.3,90,137.5,157.5,-167.5,157.5,125,127.5,130,130,197.5,212.5,217.5,217.5,505,2,OH,SBD,Raw
Joseph Nealis,,M,M3a,87.8,90,127.5,142.5,157.5,157.5,112.5,117.5,125,125,175,187.5,200,200,482.5,3,PA,SBD,Raw
Rip L. Stahura,,M,M3b,86,90,100,110,115,115,-52.5,-52.5,52.5,52.5,125,135,145,145,312.5,1,NY,SBD,Raw
Bill Dove,1941,M,M4a,87.2,90,-122.5,122.5,-140,122.5,97.5,102.5,107.5,107.5,177.5,190,197.5,197.5,427.5,1,WI,SBD,Raw
Tom O'Keefe,,M,M4b,89.6,90,87.5,100,-105,100,77.5,80,82.5,82.5,125,137.5,142.5,142.5,325,1,CO,SBD,Raw
Mark Riebel,1981,M,MIL,88.1,90,202.5,-222.5,-222.5,202.5,145,-150,-150,145,205,220,-227.5,220,567.5,1,TX,SBD,Raw
Kyle Barry,1986,M,MIL,89.9,90,177.5,190,197.5,197.5,115,120,-125,120,212.5,227.5,237.5,237.5,555,1,NJ,SBD,Raw
Michael Hitcho,,M,MIL,88.9,90,147.5,157.5,162.5,162.5,102.5,110,-112.5,110,195,-210,-210,195,467.5,2,PA,SBD,Raw
Chad Rexrode,1968,M,O,88.3,90,230,235,-240,235,-172.5,-172.5,-172.5,,,,,,,DQ,RTS,SBD,Raw
John Brooks,1968,M,O,89.5,90,-235,-240,240,240,-185,-185,-185,,-245,,,,,DQ,TITAN,SBD,Raw
Anthony Parrella,1983,M,O,89.7,90,227.5,247.5,255,255,155,165,170,170,272.5,295,-300,295,720,1,TITAN,SBD,Raw
David Jurgans,1981,M,O,88.4,90,232.5,245,250,250,137.5,-145,145,145,295,312.5,-325,312.5,707.5,2,CA,SBD,Raw
Mike Loncharich,1989,M,O,88.8,90,-227.5,232.5,237.5,237.5,165,172.5,175,175,255,267.5,285,285,697.5,3,PA,SBD,Raw
Joe McAulliffe,1965,M,O,89.2,90,235,,,235,-190,190,195,195,235,245,252.5,252.5,682.5,3,NJ,SBD,Raw
Anthony Loreto,1986,M,O,89,90,222.5,-235,235,235,142.5,147.5,-150,147.5,270,292.5,-302.5,292.5,675,4,FL,SBD,Raw
Craig Peterson,1990,M,O,89,90,242.5,255,-265,255,152.5,160,-165,160,260,-275,-275,260,675,5,MN,SBD,Raw
Lauren Cohen,1979,M,O,89.1,90,240,-255,-255,240,165,-175,-175,165,260,270,-280,270,675,6,CONCRT,SBD,Raw
Stephon Ashcraft,1985,M,O,87.9,90,217.5,230,-240,230,172.5,185,-190,185,227.5,240,252.5,252.5,667.5,7,OH,SBD,Raw
Richard Wenner,1963,M,O,89.2,90,197.5,212.5,220,220,155,165,170,170,242.5,257.5,270,270,660,8,AZ,SBD,Raw
Ryan C. Kimball,1987,M,O,89.8,90,237.5,-250,-250,237.5,142.5,145,147.5,147.5,260,270,-275,270,655,9,LA,SBD,Raw
Derek Gove,1987,M,O,87.7,90,215,225,232.5,232.5,135,142.5,-147.5,142.5,247.5,-262.5,272.5,272.5,647.5,7,TX,SBD,Raw
Damon Mayes,1979,M,O,87.9,90,215,-245,-245,215,130,150,-155,150,280,-290,-290,280,645,11,GA,SBD,Raw
Brad Steere,1969,M,O,88.5,90,217.5,227.5,-237.5,227.5,175,-180,180,180,230,237.5,-250,237.5,645,8,MI,SBD,Raw
Bernard Franklin,1982,M,O,84.7,90,202.5,212.5,227.5,227.5,145,-152.5,152.5,152.5,250,260,-272.5,260,640,12,WA,SBD,Raw
Derek Gelato,1986,M,O,88.6,90,202.5,215,222.5,222.5,142.5,150,-157.5,150,240,257.5,265,265,637.5,12,NY,SBD,Raw
Andrey Grebenetsky,1990,M,O,89,90,210,230,245,245,137.5,147.5,-155,147.5,225,245,-267.5,245,637.5,13,NY,SBD,Raw
Jack DiBenedetto,1985,M,O,88.9,90,200,215,227.5,227.5,152.5,160,167.5,167.5,197.5,215,230,230,625,16,NJ,SBD,Raw
Dean L. Johnson,1975,M,O,88.3,90,230,242.5,-255,242.5,140,-147.5,-147.5,140,230,240,-245,240,622.5,17,MN,SBD,Raw
Alex Hanson,1986,M,O,85.8,90,205,217.5,225,225,115,122.5,-130,122.5,252.5,265,-272.5,265,612.5,15,SD,SBD,Raw
Corey Hadzick,1985,M,O,89.2,90,212.5,217.5,-222.5,217.5,130,135,140,140,235,247.5,255,255,612.5,16,PA,SBD,Raw
Kristopher Semon,1980,M,O,89.6,90,192.5,210,-225,210,147.5,160,-175,160,225,230,237.5,237.5,607.5,19,PA,SBD,Raw
Paul Tongiani,1976,M,O,87,90,180,192.5,197.5,197.5,137.5,147.5,-152.5,147.5,260,-275,-275,260,605,19,PA,SBD,Raw
Ben Esgro,1985,M,O,89.7,90,200,-215,-215,200,125,132.5,-137.5,132.5,272.5,-277.5,-277.5,272.5,605,20,PA,SBD,Raw
Nicholas Lee,1990,M,O,84.5,90,197.5,207.5,-217.5,207.5,155,162.5,165,165,197.5,210,217.5,217.5,590,23,CONCRT,SBD,Raw
John Demchak,1967,M,O,89.7,90,197.5,207.5,215,215,112.5,117.5,-120,117.5,227.5,245,,245,577.5,24,CRLNA,SBD,Raw
Dave Frankovic,1986,M,O,88.7,90,167.5,182.5,192.5,192.5,122.5,130,137.5,137.5,210,227.5,242.5,242.5,572.5,24,NJ,SBD,Raw
Mark Riebel,1981,M,O,88.1,90,202.5,-222.5,-222.5,202.5,145,-150,-150,145,205,220,-227.5,220,567.5,26,TX,SBD,Raw
Danial Patrisso,1981,M,O,88.5,90,180,-192.5,192.5,192.5,135,-142.5,-142.5,135,222.5,237.5,-247.5,237.5,565,26,PA,SBD,Raw
Ben Smolinski,1981,M,O,89,90,175,185,197.5,197.5,112.5,117.5,120,120,227.5,237.5,242.5,242.5,560,27,NJ,SBD,Raw
Nicholas Schneider,1987,M,O,88.8,90,185,-200,-200,185,122.5,-130,-130,122.5,220,230,-240,230,537.5,30,PA,SBD,Raw
Fred Rumler,1987,M,O,89.3,90,170,-182.5,-182.5,170,157.5,160,167.5,167.5,182.5,197.5,-205,197.5,535,30,NY,SBD,Raw
Noah Smith,1986,M,O,86,90,-142.5,-142.5,142.5,142.5,117.5,132.5,-150,132.5,185,210,227.5,227.5,502.5,32,PA,SBD,Raw
Anthony W. Smith,1985,M,O,88,90,165,-182.5,182.5,182.5,110,120,130,130,175,185,-212.5,185,497.5,33,NY,SBD,Raw
Greg Eckard,1967,M,O,88.2,90,135,145,155,155,102.5,105,115,115,175,190,200,200,470,34,GRG INK,SBD,Raw
Tim Lawrence,1986,M,O,89.6,90,150,-160,-160,150,127.5,132.5,-135,132.5,127.5,167.5,185,185,467.5,35,NJ,SBD,Raw
Tim Borrelli,1976,M,O,90,90,152.5,-165,-165,152.5,115,-127.5,-127.5,115,187.5,-205,-205,187.5,455,36,WA,SBD,Raw
James Stevens,1982,M,O,89.8,90,155,-165,-165,155,92.5,-100,-100,92.5,185,205,-220,205,452.5,37,OH,SBD,Raw
Lee Keaffer,1992,M,T3,85.6,90,165,175,185,185,115,125,-127.5,125,220,237.5,240.5,240.5,550.5,1,CONCRT,SBD,Raw
Bill Lewis,1993,M,T3,88.6,90,165,177.5,-190,177.5,-115,115,-125,115,220,-225,-225,220,512.5,2,PA,SBD,Raw
John Norcott,1989,M,JR,99.9,100,240,255,,255,150,167.5,-170,167.5,260,277.5,290,290,712.5,1,CONCRT,SBD,Raw
Jordan Krogman,1987,M,JR,96.8,100,240,250,260,260,155,-165,165,165,265,277.5,-280,277.5,702.5,2,TITAN,SBD,Raw
Edward P. Schreiner,1990,M,JR,98,100,185,197.5,202.5,202.5,125,132.5,-137.5,132.5,205,220,232.5,232.5,567.5,3,PA,SBD,Raw
Aaron Boulay,1991,M,JR,97.3,100,-160,170,-185,170,120,132.5,-142.5,132.5,205,227.5,237.5,237.5,540,4,CT,SBD,Raw
Joe Wharton,1988,M,JR,98.6,100,142.5,152.5,162.5,162.5,142.5,147.5,-152.5,147.5,217.5,227.5,-235,227.5,537.5,5,OH,SBD,Raw
Patrick Kozub,1988,M,JR,94.8,100,140,-160,165,165,107.5,117.5,-130,117.5,172.5,182.5,197.5,197.5,480,1,IN,SBD,Raw
Joseph Rattenni,1991,M,JR,93.3,100,130,145,152.5,152.5,85,90,-102.5,90,162.5,175,185,185,427.5,6,DE,SBD,Raw
Michael Caceci,1969,M,M1a,99.5,100,-152.5,-152.5,,,-122.5,,,,,,,,,DQ,NY,SBD,Raw
Russ McDonnell,1969,M,M1a,99.8,100,242.5,262.5,272.5,272.5,167.5,177.5,182.5,182.5,252.5,272.5,-285,272.5,727.5,1,PA,SBD,Raw
Jeff Van Dyke,1967,M,M1a,98.1,100,147.5,157.5,167.5,167.5,97.5,102.5,107.5,107.5,190,207.5,217.5,217.5,492.5,1,GRG INK,SBD,Raw
Dennis Cieri,1968,M,M1a,97.2,100,100,,,100,227.5,237.5,-241.5,237.5,140,-192.5,-192.5,140,477.5,2,NJ,SBD,Raw
Jim Brown,1965,M,M1b,93.4,100,240,257.5,265,265,165,175,182.5,182.5,230,240,-247.5,240,687.5,1,TITAN,SBD,Raw
Will Slade,1964,M,M1b,97.7,100,212.5,232.5,237.5,237.5,137.5,147.5,150,150,212.5,230,-242.5,230,617.5,1,MD,SBD,Raw
Ron Lobb,1963,M,M1b,98,100,172.5,185,-190,185,102.5,112.5,-115,112.5,210,217.5,-222.5,217.5,515,2,PA,SBD,Raw
Phillip Capps,1961,M,M2a,94.6,100,-187.5,187.5,212.5,212.5,142.5,152.5,-160,152.5,210,227.5,-237.5,227.5,592.5,1,CRLNA,SBD,Raw
Doug Benedict,1959,M,M2a,98.6,100,175,-187.5,187.5,187.5,120,130,135,135,192.5,215,-225,215,537.5,2,MD,SBD,Raw
Jim Yakubovsky,1947,M,M3a,98.9,100,165,175,187.5,187.5,87.5,97.5,107.5,107.5,210,228.5,240,240,535,1,TX,SBD,Raw
P.J. Couvillion,1946,M,M3b,97.7,100,155,-165,170,170,110,115,117.5,117.5,150,-155,160,160,447.5,1,CRLNA,SBD,Raw
Tony Contino,1946,M,M3b,97.9,100,-102.5,102.5,120,120,102.5,-110,-110,102.5,192.5,207.5,-215,207.5,430,2,PA,SBD,Raw
Tim Smallwood,1974,M,O,98.9,100,192.5,207.5,-212.5,207.5,,,,,,,,,,DQ,IL,SBD,Raw
Matt Nolan,1986,M,O,98.2,100,237.5,250,260,260,155,165,172.5,172.5,292.5,312.5,325,325,757.5,1,MD,SBD,Raw
Rick Cancelino,1976,M,O,98.2,100,230,250,257.5,257.5,175,182.5,-187.5,182.5,277.5,302.5,315,315,755,2,NY,SBD,Raw
Russ McDonnell,1969,M,O,99.8,100,242.5,262.5,272.5,272.5,167.5,177.5,182.5,182.5,252.5,272.5,-285,272.5,727.5,3,PA,SBD,Raw
Jordan Krogman,1987,M,O,96.8,100,240,250,260,260,155,-165,165,165,265,277.5,-280,277.5,702.5,4,TITAN,SBD,Raw
Michael Jones,1975,M,O,98.6,100,237.5,255,-260,255,165,-175,-175,165,260,277.5,-287.5,277.5,697.5,5,MD,SBD,Raw
Jim Brown,1965,M,O,93.4,100,240,257.5,265,265,165,175,182.5,182.5,230,240,-247.5,240,687.5,6,TITAN,SBD,Raw
Brian Keener,1978,M,O,98,100,210,220,230,230,140,150,160,160,250,267.5,280,280,670,7,PA,SBD,Raw
Dale McLaren,1976,M,O,99.6,100,207.5,220,-240,220,142.5,152.5,160,160,245,267.5,287.5,287.5,667.5,8,GA,SBD,Raw
David R. Jones,1987,M,O,99.7,100,217.5,230,237.5,237.5,137.5,147.5,152.5,152.5,245,262.5,272.5,272.5,662.5,9,NY,SBD,Raw
Stephen Brindle,1983,M,O,96.2,100,212.5,225,230,230,157.5,167.5,170,170,240,250,257.5,257.5,657.5,10,PA,SBD,Raw
Jarrell White,1983,M,O,97.7,100,182.5,207.5,215,215,160,170,182.5,182.5,227.5,257.5,-272.5,257.5,655,11,NY,SBD,Raw
Robert Tamburello,1978,M,O,98.1,100,210,222.5,227.5,227.5,155,165,170,170,235,250,257.5,257.5,655,12,MD,SBD,Raw
Andrew Cohn,1984,M,O,97.7,100,205,217.5,-227.5,217.5,-137.5,137.5,142.5,142.5,245,257.5,262.5,262.5,622.5,13,DC,SBD,Raw
Jared Keisling,1984,M,O,92.9,100,180,187.5,197.5,197.5,137.5,140,-145,140,210,227.5,-240,227.5,565,14,PA,SBD,Raw
Jason Morstein,1983,M,O,98,100,180,195,-205,195,112.5,-120,120,120,250,-275,-275,250,565,15,MD,SBD,Raw
Jim Wheaton,1977,M,O,98.9,100,175,185,195,195,115,-122.5,-122.5,115,205,222.5,235,235,545,16,CRLNA,SBD,Raw
Andrew Wainer,1985,M,O,99.8,100,-185,-190,190,190,122.5,130,135,135,220,-237.5,-237.5,220,545,17,FL,SBD,Raw
Jim Yakubovsky,1947,M,O,98.9,100,165,175,187.5,187.5,87.5,97.5,107.5,107.5,210,228.5,240,240,535,18,TX,SBD,Raw
Tom McDonald,1972,M,O,93.4,100,175,187.5,-195,187.5,137.5,142.5,147.5,147.5,187.5,197.5,-210,197.5,532.5,19,NJ,SBD,Raw
Dennis Cieri,1968,M,O,97.2,100,100,,,100,227.5,237.5,-241.5,237.5,140,-192.5,-192.5,140,477.5,20,NJ,SBD,Raw
Louis R Sarry,1984,M,O,97.8,100,145,160,-170,160,105,112.5,117.5,117.5,195,-215,-215,195,472.5,21,MD,SBD,Raw
Mathew Malin,1982,M,O,97.7,100,145,-152.5,152.5,152.5,95,105,-110,105,-165,165,-175,165,422.5,22,KY,SBD,Raw
Mark Runyon,1978,M,PF,98.5,100,250,275,-282.5,275,-165,165,-185,165,230,250,-260,250,690,1,WV,SBD,Raw
Zack Robb,1994,M,T2,99.1,100,182.5,192.5,200,200,97.5,105,112.5,112.5,185,197.5,210,210,522.5,1,RTS,SBD,Raw
Aidan O'Keefe,1995,M,T2,98.6,100,90,102.5,110,110,60,-65,65,65,125,137.5,145,145,320,2,CO,SBD,Raw
Adam Carter,1992,M,T3,98.8,100,192.5,210,-217.5,210,142.5,-152.5,-152.5,142.5,242.5,-262.5,-262.5,242.5,595,1,NY,SBD,Raw
Matt Rehan,1989,M,JR,108.5,110,265,-287.5,-287.5,265,185,-192.5,,185,265,282.5,295,295,745,1,IL,SBD,Raw
Jeremy S. Auerbach,1987,M,JR,105.8,110,217.5,-237.5,-237.5,217.5,202.5,-217.5,,202.5,237.5,-257.5,-257.5,237.5,657.5,2,OH,SBD,Raw
Bryan Bouldin,1991,M,JR,109.9,110,207.5,227.5,-237.5,227.5,157.5,167.5,-170,167.5,227.5,252.5,-267.5,252.5,647.5,1,PA,SBD,Raw
Mike Turpin,1988,M,JR,108.5,110,165,177.5,-182.5,177.5,157.5,162.5,-165,162.5,240,-252.5,252.5,252.5,592.5,2,GRG INK,SBD,Raw
Scott Green,1971,M,M1a,104,110,147.5,160,167.5,167.5,130,-137.5,-137.5,130,182.5,-200,-200,182.5,480,1,,SBD,Raw
Phillip Wylie,1965,M,M1b,109.8,110,237.5,-250,-250,237.5,170,177.5,-182.5,177.5,280,290,-305,290,705,5,TX,SBD,Raw
Ed Kutin,1962,M,M1b,108.8,110,182.5,200,215,215,155,165,-167.5,165,260,-275,-275,260,640,1,NJ,SBD,Raw
Mark Robb,1959,M,M2a,103.2,110,227.5,250,-265,250,155,-162.5,,155,265,285,290,290,695,6,RTS,SBD,Raw
Paul. P Diliberto,1961,M,M2a,108,110,207.5,222.5,-227.5,222.5,167.5,-177.5,177.5,177.5,217.5,237.5,-247.5,237.5,637.5,1,NJ,SBD,Raw
Jeff Sperber,1960,M,M2a,108.1,110,182.5,210,-215,210,142.5,-165,-165,142.5,215,250,-255,250,602.5,2,NJ,SBD,Raw
Frank Panaro,1951,M,M2b,109.1,110,200,227.5,240,240,125,-140,-140,125,237.5,275,-287.5,275,640,1,NY,SBD,Raw
Albert Wood,1950,M,M3a,107.1,110,135,-145,150,150,80,87.5,100,100,182.5,-197.5,-197.5,182.5,432.5,1,TX,SBD,Raw
Ronald Scott Yard,1982,M,O,109.4,110,240,262.5,272.5,272.5,200,210,-215,210,280,-295,-295,280,762.5,1,PA,SBD,Raw
Matt Rehan,1989,M,O,108.5,110,265,-287.5,-287.5,265,185,-192.5,,185,265,282.5,295,295,745,2,IL,SBD,Raw
Carl LaRovera Jr,1982,M,O,106.7,110,220,245,260,260,152.5,170,-177.5,170,245,277.5,287.5,287.5,717.5,3,CT,SBD,Raw
Bill McCarthy,1981,M,O,109.9,110,247.5,255,-260,255,165,175,-182.5,175,260,272.5,280,280,710,4,NJ,SBD,Raw
Phillip Wylie,1965,M,O,109.8,110,237.5,-250,-250,237.5,170,177.5,-182.5,177.5,280,290,-305,290,705,5,TX,SBD,Raw
Mark Robb,1959,M,O,103.2,110,227.5,250,-265,250,155,-162.5,,155,265,285,290,290,695,6,RTS,SBD,Raw
Romaine Bostick,1972,M,O,108.9,110,250,265,275,275,160,170,-172.5,170,237.5,250,-257.5,250,695,7,DC,SBD,Raw
John Franks,1975,M,O,108,110,-205,-220,220,220,200,-207.5,207.5,207.5,250,265,-272.5,265,692.5,8,PA,SBD,Raw
Casey Gerster,1984,M,O,110,110,242.5,-255,-265,242.5,142.5,152.5,-160,152.5,282.5,-297.5,-297.5,282.5,677.5,9,CO,SBD,Raw
Alex Battaglino,1987,M,O,109.4,110,245,255,265,265,160,167.5,-172.5,167.5,207.5,225,242.5,242.5,675,10,TX,SBD,Raw
Chris Campbell,1987,M,O,107.4,110,207.5,220,-227.5,220,187.5,195,-200,195,230,237.5,245,245,660,11,RTS,SBD,Raw
Jeremy S. Auerbach,1987,M,O,105.8,110,217.5,-237.5,-237.5,217.5,202.5,-217.5,,202.5,237.5,-257.5,-257.5,237.5,657.5,12,OH,SBD,Raw
Edward Christie,1974,M,O,106.3,110,182.5,202.5,215,215,137.5,-152.5,-155,137.5,272.5,292.5,300,300,652.5,13,PA,SBD,Raw
Cary Solyna,1975,M,O,103.6,110,190,212.5,220,220,130,142.5,-150,142.5,255,275,-280,275,637.5,14,NY,SBD,Raw
Harry A. Derr III,1976,M,O,106.2,110,-205,205,-210,205,125,137.5,142.5,142.5,227.5,-232.5,-232.5,227.5,575,15,GRG INK,SBD,Raw
Nicholas Vochko,1980,M,O,109.1,110,,187.5,200,200,107.5,115,-122.5,115,215,-230,-230,215,530,16,PA,SBD,Raw
Melvin Logan,1983,M,O,102.1,110,205,-227.5,-227.5,205,-182.5,-182.5,-182.5,,250,,,250,,DQ,OH,SBD,Raw
Michael Kalter,,M,O,107.4,110,217.5,230,-240,230,,,,,,,,,,DQ,CONCRT,SBD,Raw
Brandon Mauro,1994,M,T2,108.6,110,197.5,-205,205,205,140,-145,145,145,210,227.5,-232.5,227.5,577.5,1,PA,SBD,Raw
Joseph Michalski,1992,M,T3,109.5,110,190,205,215,215,130,142.5,-152.5,142.5,220,240,-257.5,240,597.5,1,NY,SBD,Raw
Levi Perillo,1990,M,JR,123.2,125,-262.5,262.5,277.5,277.5,182.5,190,-192.5,190,262.5,272.5,-280,272.5,740,1,PA,SBD,Raw
Taylor Fox,1991,M,JR,111.1,125,215,227.5,-232.5,227.5,142.5,-147.5,-147.5,142.5,215,240,-250,240,610,2,PA,SBD,Raw
Richard Wilcox,1967,M,M1a,122.7,125,245,-265,-265,245,200,212.5,215,215,275,-300,-300,275,735,1,CRLNA,SBD,Raw
Marcell Pink,1971,M,M1a,122.9,125,185,-202.5,202.5,202.5,172.5,185,-192.5,185,185,230,252.5,252.5,640,2,OH,SBD,Raw
Lyndon B. Samuels,1966,M,M1b,114.8,125,245,265,,265,175,-182.5,,175,287.5,-300,-300,287.5,727.5,1,NJ,SBD,Raw
Randy Cairns,1965,M,M1b,119.8,125,215,235,250,250,140,155,-162.5,155,245,267.5,-275,267.5,672.5,2,MI,SBD,Raw
Butch Dayhoff,1966,M,M1b,115.5,125,175,192.5,202.5,202.5,110,125,-132.5,125,210,227.5,232.5,232.5,560,3,PA,SBD,Raw
James D. Ranker,1958,M,M2a,119.2,125,135,-145,-150,135,97.5,105,107.5,107.5,185,200,205,205,447.5,1,PA,SBD,Raw
Joe Zwick,1957,M,M2a,112.3,125,127.5,137.5,147.5,147.5,110,117.5,-122.5,117.5,147.5,165,175,175,440,2,PA,SBD,Raw
Dave Schneider,1956,M,M2b,124.2,125,217.5,235,247.5,247.5,130,142.5,150,150,240,260,275,275,672.5,1,OH,SBD,Raw
Sid Zullinger,1983,M,O,115.1,125,197.5,205,210,210,172.5,177.5,185,185,230,245,260,260,655,9,VA,SBD,Raw
Michael Battaglino,1985,M,O,123.1,125,245,252.5,-260,252.5,137.5,142.5,145,145,247.5,270,-285,270,667.5,8,TX,SBD,Raw
Randy Cairns,1965,M,O,119.8,125,215,235,250,250,140,155,-162.5,155,245,267.5,-275,267.5,672.5,7,MI,SBD,Raw
Ryan Gill,1976,M,O,119.2,125,227.5,245,-252.5,245,175,-187.5,-187.5,175,232.5,255,260,260,680,6,GRG INK,SBD,Raw
Lyndon B. Samuels,1966,M,O,114.8,125,245,265,,265,175,-182.5,,175,287.5,-300,-300,287.5,727.5,5,NJ,SBD,Raw
Richard Wilcox,1967,M,O,122.7,125,245,-265,-265,245,200,212.5,215,215,275,-300,-300,275,735,4,CRLNA,SBD,Raw
Brad Harris,1976,M,O,121.4,125,257.5,272.5,-277.5,272.5,172.5,180,185,185,275,287.5,-292.5,287.5,745,3,RTS,SBD,Raw
Letroy Higgins,1980,M,O,122.1,125,300,312.5,320,320,205,-212.5,-212.5,205,305,312.5,-317.5,312.5,837.5,2,TITAN,SBD,Raw
Michael Tuchscherer,1985,M,O,120.2,125,312.5,332.5,347.5,347.5,197.5,207.5,-217.5,207.5,332.5,355,377.5,377.5,932.5,1,RTS,SBD,Raw
Dale Hammond,1983,M,O,115,125,-172.5,172.5,-185,172.5,137.5,145,150,150,182.5,210,,210,532.5,10,PA,SBD,Raw
Joseph Behari Jr,1968,M,M1a,130.2,125+,207.5,227.5,245,245,192.5,-200,-200,192.5,237.5,250,-260,250,687.5,1,CT,SBD,Raw
Jeff Campbell,1966,M,M1b,126.8,125+,220,232.5,-237.5,232.5,177.5,185,190,190,200,215,222.5,222.5,645,1,MN,SBD,Raw
Ronald Beuch,1950,M,M3a,136.3,125+,175,-192.5,192.5,192.5,172.5,180,-187.5,180,227.5,242.5,250,250,622.5,1,VA,SBD,Raw
Ettore Ewen,1986,M,O,132.5,125+,300,312.5,322.5,322.5,220,232.5,240,240,332.5,350,362.5,362.5,925,1,FL,SBD,Raw
Blaine Sumner,1982,M,O,156.4,125+,350,372.5,387.5,387.5,185,205,-212.5,205,295,320,332.5,332.5,925,2,TITAN,SBD,Raw
Paul Tompkins,1984,M,O,150.8,125+,272.5,282.5,292.5,292.5,185,195,205,205,272.5,292.5,297.5,297.5,795,3,PA,SBD,Raw
Chris Riley,1986,M,O,135.3,125+,282.5,-292.5,-292.5,282.5,160,165,170,170,257.5,285,302.5,302.5,755,4,TX,SBD,Raw
Chris Crisman,1978,M,O,172.6,125+,-250,250,265,265,182.5,187.5,192.5,192.5,250,265,275,275,732.5,5,IN,SBD,Raw
Chip Beck,1972,M,O,125.3,125+,237.5,250,-255,250,182.5,-187.5,-187.5,182.5,250,272.5,,272.5,705,6,IN,SBD,Raw
Ryan Cohen,1987,M,O,143.1,125+,230,-250,-250,230,152.5,165,-177.5,165,245,267.5,-272.5,267.5,662.5,7,OH,SBD,Raw
