Name,Age,Sex,Equipment,Division,BodyweightKg,WeightClassKg,Squat1Kg,Squat2Kg,Squat3Kg,Squat4Kg,Best3SquatKg,Bench1Kg,Bench2Kg,Bench3Kg,Bench4Kg,Best3BenchKg,Deadlift1Kg,Deadlift2Kg,Deadlift3Kg,Deadlift4Kg,Best3DeadliftKg,TotalKg,Place,Event,Tested
Tiffany Lin,23,F,Raw,F_JR_AAPF,58.8,60,,,,,,,,,,,127.5,132.5,140,,140,140,1,D,Yes
Michael Casale,71,M,Raw,M_MR_7_APF,58.2,60,,,,,,,,,,,70,85,92.5,,92.5,92.5,1,D,
Ron Panthor,67,M,Raw,M_MR_6_AAPF,70.7,75,,,,,,,,,,,145,-152.5,-152.5,,145,145,1,D,Yes
Ron Panthor,67,M,Raw,M_MR_6_APF,70.7,75,,,,,,,,,,,145,-152.5,-152.5,,145,145,1,D,
Don Babcock,63,M,Raw,M_MR_5_APF,124.7,125,,,,,,,,,,,100,117.5,-130,,117.5,117.5,1,D,
John Brolley,55,M,Multi-ply,M_MEM_4_AAPF,93.8,100,,,,,,,,,,,192.5,205,-210,,205,205,1,D,Yes
Humberto Sanchez,43,M,Raw,M_MR_1_AAPF,99.2,100,,,,,,,,,,,245,260,-265,,260,260,1,D,Yes
Humberto Sanchez,43,M,Raw,M_MR_1_APF,99.2,100,,,,,,,,,,,245,260,-265,,260,260,1,D,
Billy Beard,39,M,Multi-ply,M_SEM_APF,88.1,90,,,,,,,,,,,250,265,-272.5,,265,265,1,D,
Ruben Medina,37,M,Raw,M_SR_AAPF,96.9,100,,,,,,,,,,,200,210,-217.5,,210,210,1,D,Yes
Adam Johnson,35,M,Raw,M_SR_AAPF,145.5,140+,,,,,,,,,,,235,255,-275,,255,255,1,D,Yes
Ruben Medina,37,M,Raw,M_SR_APF,96.9,100,,,,,,,,,,,200,210,-217.5,,210,210,1,D,
John Kaphusman,18,M,Raw,M_TR_3_AAPF,72.3,75,,,,,,,,,,,175,187.5,195,,195,195,1,D,Yes
Wally Anczerewicz,76,M,Raw,M_MR_8_AAPF,87.7,90,,,,,,87.5,95,-100,,95,,,,,,95,1,B,Yes
Wally Anczerewicz,76,M,Raw,M_MR_8_APF,87.7,90,,,,,,87.5,95,-100,,95,,,,,,95,1,B,
Dan Corradetti,65,M,Raw,M_MR_6_AAPF,88.3,90,,,,,,117.5,122.5,127.5,,127.5,,,,,,127.5,1,B,Yes
Bill Busby,66,M,Raw,M_MR_6_AAPF,84.8,90,,,,,,110,120,-125,,120,,,,,,120,2,B,Yes
Bill Busby,66,M,Raw,M_MR_6_APF,84.8,90,,,,,,110,120,-125,,120,,,,,,120,1,B,
Jeffrey Orr,62,M,Multi-ply,M_MEM_5_AAPF,98.6,100,,,,,,155,157.5,160,,160,,,,,,160,1,B,Yes
Rich Kelly,63,M,Multi-ply,M_MEM_5_AAPF,96.6,100,,,,,,-182.5,-182.5,-182.5,,,,,,,,,DQ,B,Yes
Rich Kelly,63,M,Multi-ply,M_MEM_5_APF,96.6,100,,,,,,-182.5,-182.5,-182.5,,,,,,,,,DQ,B,
Stephen Pate,62,M,Raw,M_MR_5_AAPF,83.8,90,,,,,,-130,130,-137.5,,130,,,,,,130,1,B,Yes
Craig Gordon,60,M,Raw,M_MR_5_AAPF,96.8,100,,,,,,152.5,157.5,162.5,,162.5,,,,,,162.5,1,B,Yes
John Lucas,60,M,Raw,M_MR_5_APF,122.3,125,,,,,,185,195,-202.5,,195,,,,,,195,1,B,
James Briggs,59,M,Raw,M_MR_4_AAPF,99.5,100,,,,,,125,132.5,137.5,,137.5,,,,,,137.5,1,B,Yes
James Briggs,59,M,Raw,M_MR_4_APF,99.5,100,,,,,,125,132.5,137.5,,137.5,,,,,,137.5,1,B,
Tony Bartolomei,59,M,Raw,M_MR_4_APF,108,110,,,,,,165,-172.5,-172.5,,165,,,,,,165,1,B,
Howard Penrose,51,M,Multi-ply,M_MEM_3_AAPF,138.3,140,,,,,,220,225,-227.5,,225,,,,,,225,1,B,Yes
Paul Henry,53,M,Multi-ply,M_MEM_3_APF,89,90,,,,,,-187.5,-187.5,-187.5,,,,,,,,,DQ,B,
Howard Penrose,51,M,Multi-ply,M_MEM_3_APF,138.3,140,,,,,,220,225,-227.5,,225,,,,,,225,1,B,
David Johnson,50,M,Raw,M_MR_3_AAPF,106.8,110,,,,,,185,192.5,-200,,192.5,,,,,,192.5,1,B,Yes
Ed Taber,52,M,Raw,M_MR_3_APF,106.2,110,,,,,,182.5,192.5,-205,,192.5,,,,,,192.5,1,B,
Andrew Jeleniewski,51,M,Raw,M_MR_3_APF,120.1,125,,,,,,205,212.5,-220,,212.5,,,,,,212.5,1,B,
Mark Miller,51,M,Raw,M_MR_3_APF,122,125,,,,,,165,175,-180,,175,,,,,,175,2,B,
Brad Saunders,54,M,Raw,M_MR_3_APF,113.8,125,,,,,,165,-177.5,-177.5,,165,,,,,,165,3,B,
Brian Martin,45,M,Raw,M_MR_2_AAPF,97.3,100,,,,,,127.5,-137.5,-137.5,,127.5,,,,,,127.5,1,B,Yes
Tom Corsi,43,M,Raw,M_MR_1_AAPF,105.5,110,,,,,,-165,-175,-175,,,,,,,,,DQ,B,Yes
Dave Scott,37,M,Raw,M_SR_AAPF,87.5,90,,,,,,167.5,170,-180,,170,,,,,,170,1,B,Yes
Michael Buzonik,35,M,Raw,M_SR_AAPF,87.5,90,,,,,,-120,120,-125,,120,,,,,,120,2,B,Yes
Ruben Jimenez,22,M,Raw,M_SR_APF,108.4,110,,,,,,185,195,-205,,195,,,,,,195,1,B,
Tyler DeLaRosa,18,M,Single-ply,M_TES_3_AAPF,110,110,,,,,,142.5,190,215,,215,,,,,,215,1,B,Yes
John Stiglitz,29,M,Multi-ply,M_OEM_AAPF,122.5,125,,,,,,-237.5,237.5,250,,250,,,,,,250,1,B,Yes
Casey Haayer,20,M,Raw,M_OR_AAPF,84.8,90,,,,,,145,150,155,,155,,,,,,155,1,B,Yes
Delvin Jennings,33,M,Raw,M_OR_AAPF,107.6,110,,,,,,185,190,195,,195,,,,,,195,1,B,Yes
Ruben Jimenez,33,M,Raw,M_OR_APF,108.4,110,,,,,,185,195,-205,,195,,,,,,195,1,B,
Sandra Coopman,54,F,Raw,F_MR_3_AAPF,109.9,90+,,,,,,72.5,77.5,-82.5,,77.5,,,,,,77.5,1,B,Yes
Tiffany Lin,23,F,Raw,F_JR_AAPF,58.8,60,,,,,,45,50,-52.5,,50,,,,,,50,1,B,Yes
Madison Szymanski,18,F,Raw,F_TR_3_AAPF,57.8,60,,,,,,60,-67.5,-67.5,,60,,,,,,60,1,B,Yes
Madison Szymanski,18,F,Raw,F_OR_AAPF,57.8,60,,,,,,60,-67.5,-67.5,,60,,,,,,60,1,B,Yes
Tiffany Lin,23,F,Raw,F_OR_AAPF,58.8,60,,,,,,45,50,-52.5,,50,,,,,,50,2,B,Yes
Mandy Martinez,35,F,Raw,F_OR_APF,94.4,90+,,,,,,45,55,60,,60,,,,,,60,1,B,
Michael Casale,71,M,Raw,M_MR_7_APF,58.2,60,,,,,,82.5,85,87.5,,87.5,,,,,,87.5,1,B,
Ron Panther,67,M,Raw,M_MR_6_AAPF,70.7,75,,,,,,95,97.5,-100,,97.5,,,,,,97.5,1,B,Yes
Ron Panther,67,M,Raw,M_MR_6_APF,70.7,75,,,,,,95,97.5,-100,,97.5,,,,,,97.5,1,B,
Charles Morse,51,M,Raw,M_MR_3_APF,73.8,75,,,,,,102.5,110,-115,,110,,,,,,110,1,B,
Humberto Sanchez,43,M,Raw,M_MR_1_AAPF,99.2,100,,,,,,150,160,-165,,160,,,,,,160,1,B,Yes
Humberto Sanchez,43,M,Raw,M_MR_1_APF,99.2,100,,,,,,150,160,-165,,160,,,,,,160,1,B,
Ruben Medina,37,M,Raw,M_SR_AAPF,96.9,100,,,,,,-150,-160,160,,160,,,,,,160,1,B,Yes
Ruben Medina,37,M,Raw,M_SR_APF,96.9,100,,,,,,-150,-160,160,,160,,,,,,160,1,B,
Anthony Adamo,56,M,Raw,M_OR_AAPF,54.7,56,,,,,,-87.5,-87.5,-95,,,,,,,,,DQ,B,Yes
Penny Bergstrom,52,F,Wraps,F_MCR_3_AAPF,66.8,67.5,-97.5,-105,-105,,,57.5,60,-62.5,,60,,,,,,,DQ,SBD,Yes
Penny Bergstrom,52,F,Wraps,F_MCR_3_APF,66.8,67.5,-97.5,-105,-105,,,57.5,60,-62.5,,60,,,,,,,DQ,SBD,
Tonya Foust,50,F,Raw,F_MR_3_AAPF,120.3,90+,57.5,60,-65,,60,50,57.5,-67.5,,57.5,87.5,100,107.5,,107.5,225,1,SBD,Yes
Valerie Valenta,48,F,Raw,F_MR_2_AAPF,57,60,97.5,102.5,107.5,,107.5,37.5,42.5,-47.5,,42.5,120,130,135,,135,285,1,SBD,Yes
Jenny Morgan,41,F,Wraps,F_MCR_1_APF,66.9,67.5,107.5,112.5,-115,,112.5,65,-67.5,-67.5,,65,150,157.5,-160,,157.5,335,1,SBD,
Dorothy Pleas,40,F,Raw,F_MR_1_AAPF,97.7,90+,67.5,80,85,,85,62.5,72.5,-77.5,,72.5,102.5,112.5,117.5,,117.5,275,1,SBD,Yes
Bianca Hernandez,21,F,Multi-ply,F_JEM_APF,51.2,52,160,172.5,182.5,,182.5,50,77.5,-85,,77.5,127.5,140,-150,,140,400,1,SBD,
Judy Cabael,23,F,Wraps,F_JCR_AAPF,47.5,48,87.5,92.5,-97.5,,92.5,40,42.5,-45,,42.5,120,122.5,-127.5,,122.5,257.5,1,SBD,Yes
Jenna Marcinkowski,22,F,Wraps,F_JCR_AAPF,80.5,82.5,137.5,-150,-150,,137.5,77.5,82.5,-85,,82.5,150,165,-182.5,,165,385,1,SBD,Yes
Jacqueline Rodriguez,23,F,Wraps,F_JCR_APF,74.9,75,177.5,190,-197.5,,190,67.5,72.5,77.5,,77.5,130,140,145,,145,412.5,1,SBD,
Alex Cuevas,21,F,Wraps,F_JCR_APF,81.3,82.5,145,160,-170,,160,65,70,75,,75,147.5,-167.5,-167.5,,147.5,382.5,1,SBD,
Katelyn Amidon,21,F,Raw,F_JR_AAPF,50.1,52,77.5,85,-92.5,,85,52.5,-57.5,-57.5,,52.5,95,100,110,,110,247.5,1,SBD,Yes
Jennifer Mohrs,21,F,Raw,F_JR_AAPF,55.7,56,90,92.5,-95,,92.5,50,52.5,-55,,52.5,122.5,127.5,130,,130,275,1,SBD,Yes
Emily Nagle,23,F,Raw,F_JR_AAPF,62.3,67.5,97.5,-107.5,107.5,,107.5,65,-70,-70,,65,130,137.5,145,,145,317.5,1,SBD,Yes
Abigail Fischer,18,F,Wraps,F_TCR_3_AAPF,54.6,56,67.5,-80,80,,80,35,42.5,-47.5,,42.5,102.5,112.5,120,,120,242.5,1,SBD,Yes
Gracie Horvath,18,F,Wraps,F_TCR_3_APF,76.2,82.5,85,-92.5,-102.5,,85,50,55,-60,,55,122.5,130,-137.5,,130,270,1,SBD,
Isabelle Rivera,14,F,Raw,F_TR_1_AAPF,89.9,90,132.5,137.5,147.5,,147.5,60,67.5,72.5,,72.5,155,162.5,170,,170,390,1,SBD,Yes
Isabelle Rivera,14,F,Raw,F_TR_1_APF,89.9,90,132.5,137.5,147.5,,147.5,60,67.5,72.5,,72.5,155,162.5,170,,170,390,1,SBD,
Judy Cabael,23,F,Wraps,F_OCR_AAPF,47.5,48,87.5,92.5,-97.5,,92.5,40,42.5,-45,,42.5,120,122.5,-127.5,,122.5,257.5,1,SBD,Yes
Krystal Santaniello,26,F,Wraps,F_OCR_AAPF,58.6,60,112.5,122.5,132.5,,132.5,57.5,-65,65,,65,127.5,-137.5,137.5,,137.5,335,1,SBD,Yes
Patricia Pulsakowska,22,F,Wraps,F_OCR_AAPF,65.1,67.5,77.5,85,-95,,85,37.5,-42.5,-42.5,,37.5,97.5,105,-112.5,,105,227.5,1,SBD,Yes
Alexandra Perry,28,F,Wraps,F_OCR_AAPF,70.4,75,125,135,-150,,135,60,65,-67.5,,65,147.5,155,160,,160,360,1,SBD,Yes
Twanna Sampson,38,F,Wraps,F_OCR_AAPF,70.9,75,110,117.5,127.5,,127.5,65,-80,-80,,65,147.5,165,-172.5,,165,357.5,2,SBD,Yes
Sarah Force,28,F,Wraps,F_OCR_AAPF,81.5,82.5,157.5,-165,-165,,157.5,77.5,82.5,-85,,82.5,170,182.5,-195,,182.5,422.5,1,SBD,Yes
Latrice Haynes,39,F,Wraps,F_OCR_AAPF,79.2,82.5,115,127.5,137.5,,137.5,70,80,-90,,80,152.5,165,172.5,,172.5,390,2,SBD,Yes
Kara Dinaro,32,F,Wraps,F_OCR_AAPF,86.6,90,80,87.5,92.5,,92.5,55,60,-65,,60,105,115,122.5,,122.5,275,1,SBD,Yes
Judy Cabael,23,F,Wraps,F_OCR_APF,47.5,48,87.5,92.5,-97.5,,92.5,40,42.5,-45,,42.5,120,122.5,-127.5,,122.5,257.5,1,SBD,
Shorook Quran,29,F,Wraps,F_OCR_APF,55.7,56,97.5,107.5,-112.5,,107.5,42.5,47.5,-52.5,,47.5,120,-130,-130,,120,275,1,SBD,
Lynette Gebhardt,30,F,Wraps,F_OCR_APF,63.7,67.5,105,112.5,-120,,112.5,62.5,72.5,-75,,72.5,120,130,140,,140,325,1,SBD,
Jacqueline Rodriguez,23,F,Wraps,F_OCR_APF,74.9,75,177.5,190,-197.5,,190,67.5,72.5,77.5,,77.5,130,140,145,,145,412.5,1,SBD,
Sarah Force,28,F,Wraps,F_OCR_APF,81.5,82.5,157.5,-165,-165,,157.5,77.5,82.5,-85,,82.5,170,182.5,-195,,182.5,422.5,1,SBD,
Natalie Meza,24,F,Raw,F_OR_AAPF,58.8,60,97.5,105,-110,,105,65,72.5,77.5,,77.5,127.5,135,142.5,,142.5,325,1,SBD,Yes
Bree Massingale,32,F,Raw,F_OR_AAPF,58.5,60,-107.5,110,-115,,110,52.5,57.5,-60,,57.5,120,-125,-125,,120,287.5,2,SBD,Yes
Valerie Valenta,48,F,Raw,F_OR_AAPF,57,60,97.5,102.5,107.5,,107.5,37.5,42.5,-47.5,,42.5,120,130,135,,135,285,3,SBD,Yes
Erin Meyer,29,F,Raw,F_OR_AAPF,58.2,60,67.5,72.5,77.5,,77.5,60,-65,65,,65,100,107.5,-112.5,,107.5,250,4,SBD,Yes
Amy Zager,30,F,Raw,F_OR_AAPF,65,67.5,110,115,120,,120,67.5,70,-72.5,,70,132.5,140,145,,145,335,1,SBD,Yes
Claralicia Torres,27,F,Raw,F_OR_AAPF,63.4,67.5,77.5,85,-92.5,,85,42.5,45,-55,,45,102.5,110,120,,120,250,2,SBD,Yes
Maggie Ollander,27,F,Raw,F_OR_AAPF,66.4,67.5,-92.5,-92.5,-92.5,,,,,,,,,,,,,,DQ,SBD,Yes
Tiffani Vasinko,30,F,Raw,F_OR_AAPF,72.8,75,107.5,-112.5,-115,,107.5,65,70,-72.5,,70,135,142.5,147.5,,147.5,325,1,SBD,Yes
Claralicia Torres,27,F,Raw,F_OR_APF,63.4,67.5,77.5,85,-92.5,,85,42.5,45,-55,,45,102.5,110,120,,120,250,1,SBD,
Brittany Tarpey,29,F,Raw,F_OR_APF,71.5,75,90,95,100,,100,-55,57.5,-60,,57.5,115,120,-125,,120,277.5,1,SBD,
Erica Tremble,26,F,Raw,F_OR_APF,85.5,90,115,120,125,,125,57.5,62.5,65,,65,125,132.5,137.5,,137.5,327.5,1,SBD,
Matt Wallace,23,M,Wraps,M_JCR_AAPF,67.4,67.5,-200,205,-215,,205,117.5,122.5,-127.5,,122.5,230,240,-250,,240,567.5,1,SBD,Yes
Jamie Johnson,21,M,Wraps,M_JCR_AAPF,81.7,82.5,212.5,222.5,232.5,,232.5,142.5,-150,-150,,142.5,-227.5,227.5,245,,245,620,1,SBD,Yes
Steve Suarez,22,M,Wraps,M_JCR_AAPF,79,82.5,215,227.5,-242.5,,227.5,125,140,147.5,,147.5,205,217.5,230,,230,605,2,SBD,Yes
Christopher Gumban,21,M,Wraps,M_JCR_AAPF,79.7,82.5,160,170,182.5,,182.5,115,120,122.5,,122.5,207.5,217.5,227.5,,227.5,532.5,3,SBD,Yes
Bryce Kalusa,23,M,Wraps,M_JCR_AAPF,79.9,82.5,177.5,195,205,,205,110,-117.5,-120,,110,192.5,205,212.5,,212.5,527.5,4,SBD,Yes
Dan Monaco,23,M,Wraps,M_JCR_AAPF,88.4,90,242.5,257.5,265,,265,147.5,157.5,-165,,157.5,230,242.5,-245,,242.5,665,1,SBD,Yes
David Aquilera,22,M,Wraps,M_JCR_AAPF,89.4,90,210,227.5,237.5,,237.5,-137.5,152.5,-162.5,,152.5,215,230,245,,245,635,2,SBD,Yes
Tyler Bolger,20,M,Wraps,M_JCR_AAPF,87.5,90,197.5,215,227.5,,227.5,140,150,-157.5,,150,237.5,255,-272.5,,255,632.5,3,SBD,Yes
Sean Lohmeyer,23,M,Wraps,M_JCR_AAPF,94.5,100,157.5,170,175,,175,127.5,132.5,-135,,132.5,192.5,207.5,215,,215,522.5,1,SBD,Yes
Melvin Brown III,23,M,Wraps,M_JCR_APF,59.6,60,105,120,130,,130,70,-75,-75,,70,165,172.5,-182.5,,172.5,372.5,1,SBD,
Gabriel Tertocha,22,M,Wraps,M_JCR_APF,88,90,225,-245,-250,,225,130,-140,-140,,130,225,-250,-250,,225,580,1,SBD,
Joe Messina,23,M,Wraps,M_JCR_APF,87.5,90,175,187.5,-192.5,,187.5,112.5,-120,120,,120,227.5,245,-252.5,,245,552.5,2,SBD,
Zachary Inskeep,22,M,Wraps,M_JCR_APF,98.8,100,-262.5,-262.5,-272.5,,,,,,,,,,,,,,DQ,SBD,
Mekhi Arvin,20,M,Wraps,M_JCR_APF,101.5,110,-232.5,242.5,-260,,242.5,112.5,125,-137.5,,125,227.5,237.5,250,,250,617.5,1,SBD,
Derrick Jenkins,21,M,Wraps,M_JCR_APF,102.1,110,225,240,-250,,240,117.5,-122.5,122.5,,122.5,-210,-210,-210,,,,DQ,SBD,
Tyler Shliff,22,M,Raw,M_JR_AAPF,104.6,110,202.5,212.5,-217.5,,212.5,115,125,-132.5,,125,205,227.5,-237.5,,227.5,565,1,SBD,Yes
Andrew Ochoa,22,M,Raw,M_JR_AAPF,102.8,110,-165,165,177.5,,177.5,120,132.5,-137.5,,132.5,185,205,-227.5,,205,515,2,SBD,Yes
Alejandro Magana,21,M,Raw,M_JR_APF,74.8,75,160,170,175,,175,125,-130,-130,,125,215,227.5,-235,,227.5,527.5,1,SBD,
Joseph Cuttie,20,M,Raw,M_JR_APF,105,110,102.5,112.5,125,,125,-82.5,-82.5,-82.5,,,137.5,155,172.5,,172.5,,DQ,SBD,
Philip Powers,19,M,Wraps,M_TCR_3_AAPF,99.3,100,-217.5,217.5,230,,230,125,132.5,137.5,,137.5,252.5,272.5,282.5,,282.5,650,1,SBD,Yes
Alex Dodd,19,M,Wraps,M_TCR_3_APF,94.3,100,165,180,190,,190,102.5,-117.5,-117.5,,102.5,182.5,210,227.5,,227.5,520,1,SBD,
Logan Stender,18,M,Wraps,M_TCR_3_APF,107.2,110,212.5,-225,225,,225,-127.5,130,140,,140,207.5,220,-227.5,,220,585,1,SBD,
Ben Pauza,19,M,Raw,M_TR_3_AAPF,81.6,82.5,175,182.5,-197.5,,182.5,135,142.5,-145,,142.5,202.5,217.5,-230,,217.5,542.5,1,SBD,Yes
Dominic Swanson,19,M,Raw,M_TR_3_AAPF,137.5,140,-267.5,272.5,-277.5,,272.5,177.5,185,-190,,185,265,275,-282.5,,275,732.5,1,SBD,Yes
Dominic Swanson,19,M,Raw,M_TR_3_APF,137.5,140,-267.5,272.5,-277.5,,272.5,177.5,185,-190,,185,265,275,-282.5,,275,732.5,1,SBD,
Joshua Eldridge,16,M,Wraps,M_TCR_2_AAPF,109.3,110,190,215,227.5,,227.5,120,-130,-130,,120,185,205,-220,,205,552.5,1,SBD,Yes
Dylan Kelley,17,M,Raw,M_TR_2_AAPF,71.7,75,-140,145,162.5,,162.5,90,102.5,-107.5,,102.5,157.5,167.5,182.5,,182.5,447.5,1,SBD,Yes
Rene Caballero,17,M,Raw,M_TR_2_APF,69.7,75,-75,85,100,,100,75,87.5,-102.5,,87.5,92.5,145,-170,,145,332.5,1,SBD,
Sam Pauza,13,M,Raw,M_TR_1_AAPF,77.3,82.5,85,92.5,102.5,,102.5,50,55,-57.5,,55,125,-135,-135,,125,282.5,1,SBD,Yes
Carlos Cruz,15,M,Raw,M_TR_1_APF,62.7,67.5,80,92.5,-102.5,,92.5,55,62.5,-67.5,,62.5,110,125,137.5,,137.5,292.5,1,SBD,
Michael Casale,71,M,Raw,M_MR_7_AAPF,58.7,60,60,67.5,72.5,,72.5,82.5,85,87.5,,87.5,85,92.5,97.5,,97.5,257.5,1,SBD,Yes
Thomas March,73,M,Raw,M_MR_7_AAPF,59.1,60,82.5,-87.5,87.5,,87.5,42.5,45,52.5,,52.5,107.5,115,-120,,115,255,2,SBD,Yes
Michael Casale,71,M,Raw,M_MR_7_APF,58.7,60,60,67.5,72.5,,72.5,82.5,85,87.5,,87.5,85,92.5,97.5,,97.5,257.5,1,SBD,
Roger Haab,67,M,Wraps,M_MCR_6_AAPF,85.6,90,132.5,-142.5,-150,,132.5,85,-90,90,,90,175,-185,-185,,175,397.5,1,SBD,Yes
John Ponzetti,53,M,Multi-ply,M_MEM_3_APF,88.1,90,-285,285,305,,305,175,187.5,-192.5,,187.5,225,245,255,,255,747.5,1,SBD,
Dave Chastain,49,M,Raw,M_MR_2_APF,88.3,90,255,272.5,277.5,,277.5,145,155,160,,160,255,275,-282.5,,275,712.5,1,SBD,
Gustavo Garcia,33,M,Wraps,M_SCR_AAPF,79.9,82.5,165,192.5,-205,,192.5,125,132.5,-137.5,,132.5,185,220,-242.5,,220,545,1,SBD,Yes
Gustavo Garcia,33,M,Wraps,M_SCR_APF,79.9,82.5,165,192.5,-205,,192.5,125,132.5,-137.5,,132.5,185,220,-242.5,,220,545,1,SBD,
Stephan Wang,36,M,Raw,M_SR_AAPF,80.5,82.5,132.5,-140,-145,,132.5,85,90,-92.5,,90,-165,-165,165,,165,387.5,1,SBD,Yes
Abraham Medina,33,M,Raw,M_SR_APF,72.1,75,112.5,122.5,137.5,,137.5,87.5,97.5,-107.5,,97.5,180,190,195,,195,430,1,SBD,
Seaver Mattison,30,M,Multi-ply,M_OEM_APF,74.9,75,-320,320,-342.5,,320,200,-205,205,,205,250,-270,,,250,775,1,SBD,
Thomas Krawiec,35,M,Multi-ply,M_OEM_APF,82.4,82.5,380,-400,410,,410,270,-277.5,-282.5,,270,290,310,320,,320,1000,1,SBD,
Greg Denny,35,M,Multi-ply,M_OEM_APF,89.5,90,350,365,-375,,365,-235,-235,-235,,,,,,,,,DQ,SBD,
Samuel Merrill,26,M,Multi-ply,M_OEM_APF,88.1,90,-282.5,-282.5,-282.5,,,,,,,,,,,,,,DQ,SBD,
Erik Nava,22,M,Wraps,M_OCR_AAPF,70.2,75,165,177.5,185,,185,122.5,130,-140,,130,215,225,230,,230,545,1,SBD,Yes
Dustin Worker,32,M,Wraps,M_OCR_AAPF,72,75,117.5,125,-132.5,,125,82.5,87.5,92.5,,92.5,157.5,170,187.5,,187.5,405,2,SBD,Yes
Lucas Ivanic,26,M,Wraps,M_OCR_AAPF,80.2,82.5,210,220,227.5,,227.5,120,125,130,,130,215,225,232.5,,232.5,590,1,SBD,Yes
Cody Wong,22,M,Wraps,M_OCR_AAPF,75.9,82.5,192.5,205,212.5,,212.5,127.5,-137.5,-137.5,,127.5,230,-245,-245,,230,570,2,SBD,Yes
Justin Jansky,27,M,Wraps,M_OCR_AAPF,79.8,82.5,120,130,137.5,,137.5,102.5,105,-107.5,,105,165,175,182.5,,182.5,425,3,SBD,Yes
Adam Kulaga,27,M,Wraps,M_OCR_AAPF,89,90,185,190,200,,200,127.5,-135,135,,135,202.5,210,222.5,,222.5,557.5,1,SBD,Yes
Georgie Arvai,25,M,Wraps,M_OCR_AAPF,86.5,90,175,187.5,195,,195,120,-130,-130,,120,195,207.5,217.5,,217.5,532.5,2,SBD,Yes
Jordan Seaman,21,M,Wraps,M_OCR_AAPF,85.2,90,147.5,165,170,,170,97.5,107.5,-110,,107.5,185,205,227.5,,227.5,505,3,SBD,Yes
Cody Bornemann,24,M,Wraps,M_OCR_AAPF,83.4,90,155,165,177.5,,177.5,107.5,117.5,-127.5,,117.5,177.5,192.5,195,,195,490,4,SBD,Yes
Ryan Klupar,24,M,Wraps,M_OCR_AAPF,85.9,90,-135,135,140,,140,85,90,92.5,,92.5,142.5,147.5,150,,150,382.5,5,SBD,Yes
Erik Nava,22,M,Wraps,M_OCR_APF,70.2,75,165,177.5,185,,185,122.5,130,-140,,130,215,225,230,,230,545,1,SBD,
Patrick Kelly,27,M,Wraps,M_OCR_APF,81.5,82.5,260,280,290,,290,-150,150,160,,160,240,255,265,,265,715,1,SBD,
Cody Wong,22,M,Wraps,M_OCR_APF,75.9,82.5,192.5,205,212.5,,212.5,127.5,-137.5,-137.5,,127.5,230,-245,-245,,230,570,2,SBD,
Tom Kallas,24,M,Wraps,M_OCR_APF,89,90,332.5,352.5,370,,370,150,160,-170,,160,270,-287.5,287.5,,287.5,817.5,1,SBD,
Ryan DiPompeo,29,M,Wraps,M_OCR_APF,88.7,90,247.5,265,272.5,,272.5,160,167.5,-170,,167.5,275,280,282.5,,282.5,722.5,2,SBD,
Michael Mullen,27,M,Wraps,M_OCR_APF,88.9,90,180,-187.5,190,,190,-120,120,125,,125,235,245,-260,,245,560,3,SBD,
Luis Acosta,22,M,Wraps,M_OCR_APF,86.5,90,247.5,262.5,-267.5,,262.5,147.5,155,-165,,155,,,,,,,DQ,SBD,
Anthony Adamo,32,M,Raw,M_OR_AAPF,56,56,90,95,-102.5,,95,85,90,95,,95,117.5,127.5,137.5,,137.5,327.5,1,SBD,Yes
Jacob Rogers,25,M,Raw,M_OR_AAPF,64,67.5,152.5,155,157.5,,157.5,97.5,102.5,-105,,102.5,205,-210,210,,210,470,1,SBD,Yes
Josh Agins,28,M,Raw,M_OR_AAPF,65.6,67.5,145,155,-160,,155,67.5,80,87.5,,87.5,142.5,160,167.5,,167.5,410,2,SBD,Yes
Stetson Drolet,29,M,Raw,M_OR_AAPF,76.5,82.5,177.5,182.5,185,,185,100,105,-107.5,,105,190,197.5,205,,205,495,1,SBD,Yes
Kristopher Ellis,24,M,Raw,M_OR_AAPF,89,90,160,-175,182.5,,182.5,100,112.5,117.5,,117.5,207.5,225,237.5,,237.5,537.5,1,SBD,Yes
Joshua Kreye,33,M,Raw,M_OR_AAPF,83.7,90,140,147.5,155,,155,115,125,-127.5,,125,200,210,220,,220,500,2,SBD,Yes
Edward Breitzke,26,M,Raw,M_OR_AAPF,85.9,90,162.5,170,-182.5,,170,107.5,-115,-115,,107.5,195,210,222.5,,222.5,500,3,SBD,Yes
Richard O'Keefe,33,M,Raw,M_OR_AAPF,90,90,145,155,165,,165,120,-130,-130,,120,170,185,-197.5,,185,470,4,SBD,Yes
Anthony Adamo,32,M,Raw,M_OR_APF,56,56,90,95,-102.5,,95,85,90,95,,95,117.5,127.5,137.5,,137.5,327.5,1,SBD,
John Carrano,60,M,Wraps,M_MCR_5_APF,107.7,110,-170,170,182.5,,182.5,152.5,162.5,-170,,162.5,185,200,217.5,,217.5,562.5,1,SBD,
Jeff Pietka,57,M,Wraps,M_MCR_4_APF,99,100,160,185,187.5,,187.5,120,-130,-130,,120,162.5,170,182.5,,182.5,490,1,SBD,
Scott Edmiston,55,M,Wraps,M_MCR_4_APF,125.8,140,250,275,287.5,,287.5,150,-165,-165,,150,257.5,272.5,-277.5,,272.5,710,1,SBD,
Bama Hibbing,49,M,Multi-ply,M_MEM_2_APF,98.4,100,280,305,340,,340,165,-177.5,-195,,165,230,250,257.5,,257.5,762.5,1,SBD,
John Wagner,48,M,Multi-ply,M_MEM_2_APF,116,125,-305,305,320,,320,237.5,-247.5,-252.5,,237.5,237.5,260,272.5,,272.5,830,1,SBD,
Christopher Cravatta,45,M,Wraps,M_MCR_2_AAPF,109.9,110,182.5,197.5,207.5,,207.5,150,160,-165,,160,182.5,200,212.5,,212.5,580,1,SBD,Yes
Jeff Zweifel,44,M,Wraps,M_MCR_2_AAPF,105.6,110,182.5,-195,-195,,182.5,145,152.5,-157.5,,152.5,195,210,227.5,,227.5,562.5,2,SBD,Yes
Denny Krerowicz,44,M,Wraps,M_MCR_1_APF,91.9,100,210,217.5,230,,230,155,-165,165,,165,200,217.5,230,,230,625,1,SBD,
Ted Callahan,40,M,Wraps,M_MCR_1_APF,104.6,110,215,230,245,,245,-125,137.5,-145,,137.5,145,160,182.5,,182.5,565,1,SBD,
Matt Nyman,41,M,Wraps,M_MCR_1_APF,145.4,140+,185,,,,185,135,,,,135,225,,,,225,545,1,SBD,
Jim Galto,44,M,Raw,M_MR_1_APF,105.9,110,175,195,210,,210,137.5,150,-162.5,,150,215,237.5,-255,,237.5,597.5,1,SBD,
Max Runions,33,M,Multi-ply,M_SEM_AAPF,97.4,100,305,-320,-320,,305,102.5,220,-227.5,,220,205,230,250,,250,775,1,SBD,Yes
Brian Hegg,38,M,Wraps,M_SCR_AAPF,97.6,100,250,-262.5,-262.5,,250,170,180,-185,,180,227.5,-240,240,,240,670,1,SBD,Yes
Brian Simmerman,33,M,Wraps,M_SCR_AAPF,98,100,190,202.5,-215,,202.5,125,132.5,-137.5,,132.5,260,272.5,290,,290,625,2,SBD,Yes
Brian Simmerman,33,M,Wraps,M_SCR_APF,98,100,190,202.5,-215,,202.5,125,132.5,-137.5,,132.5,260,272.5,290,,290,625,1,SBD,
Mario Pineda,39,M,Wraps,M_SCR_APF,121.5,125,242.5,260,,,260,,,,,,,,,,,,DQ,SBD,
Josh Davis,33,M,Raw,M_SR_APF,96.9,100,145,165,182.5,,182.5,105,125,137.5,,137.5,160,190,-210,,190,510,1,SBD,
Joe Trent,34,M,Multi-ply,M_OEM_APF,110,110,330,-340,340,,340,192.5,205,-215,,205,-255,255,-265,,255,800,1,SBD,
Pat Crawford,31,M,Multi-ply,M_OEM_APF,124.5,125,342.5,-375,,,342.5,-300,-300,300,,300,250,-277.5,277.5,,277.5,920,1,SBD,
Jordan Travis,26,M,Wraps,M_OCR_AAPF,98,100,227.5,240,247.5,,247.5,150,157.5,-162.5,,157.5,227.5,237.5,247.5,,247.5,652.5,1,SBD,Yes
Brian Simmerman,33,M,Wraps,M_OCR_AAPF,98,100,190,202.5,-215,,202.5,125,132.5,-137.5,,132.5,260,272.5,290,,290,625,2,SBD,Yes
Konstantin Paraskevov,23,M,Wraps,M_OCR_AAPF,91.7,100,197.5,-210,217.5,,217.5,125,-132.5,132.5,,132.5,-205,205,235,,235,585,3,SBD,Yes
Aaron King,26,M,Wraps,M_OCR_AAPF,108.4,110,210,227.5,242.5,,242.5,147.5,152.5,-160,,152.5,250,262.5,-285,,262.5,657.5,1,SBD,Yes
Scott Kiser,29,M,Wraps,M_OCR_AAPF,105.3,110,222.5,237.5,242.5,,242.5,142.5,150,-155,,150,235,245,252.5,,252.5,645,2,SBD,Yes
Josh Nagle,25,M,Wraps,M_OCR_AAPF,106.6,110,207.5,217.5,227.5,,227.5,160,-165,-165,,160,227.5,242.5,250,,250,637.5,3,SBD,Yes
Dan Koilalovith,30,M,Wraps,M_OCR_AAPF,107.7,110,172.5,185,192.5,,192.5,137.5,145,150,,150,222.5,235,245,,245,587.5,4,SBD,Yes
David DeStefano,30,M,Wraps,M_OCR_AAPF,100.3,110,145,162.5,175,,175,115,-127.5,-127.5,,115,192.5,205,-210,,205,495,5,SBD,Yes
Chris Danner,31,M,Wraps,M_OCR_AAPF,115.3,125,272.5,287.5,300,,300,185,-195,-195,,185,275,290,300,,300,785,1,SBD,Yes
William Thrun,27,M,Wraps,M_OCR_AAPF,123.6,125,227.5,240,252.5,,252.5,147.5,-160,160,,160,227.5,242.5,252.5,,252.5,665,2,SBD,Yes
Dakota Dunn,23,M,Wraps,M_OCR_AAPF,122.8,125,-225,235,252.5,,252.5,132.5,-140,-140,,132.5,237.5,257.5,-272.5,,257.5,642.5,3,SBD,Yes
Ernie Lilliebridge Jr,30,M,Wraps,M_OCR_APF,98.9,100,305,-320,320,,320,185,-195,,,185,310,330,-355,,330,835,1,SBD,
Cameron Needham,25,M,Wraps,M_OCR_APF,96.8,100,287.5,307.5,-320,,307.5,167.5,185,190,,190,277.5,292.5,300,,300,797.5,2,SBD,
Guillermo Blanco,28,M,Wraps,M_OCR_APF,98.9,100,280,-300,-300,,280,152.5,162.5,-170,,162.5,230,255,-272.5,,255,697.5,3,SBD,
Peter Katsuleas,19,M,Wraps,M_OCR_APF,97,100,225,237.5,252.5,,252.5,152.5,160,167.5,,167.5,252.5,262.5,-272.5,,262.5,682.5,4,SBD,
Brian Simmerman,33,M,Wraps,M_OCR_APF,98,100,190,202.5,-215,,202.5,125,132.5,-137.5,,132.5,260,272.5,290,,290,625,5,SBD,
Cheuyeml Yang,30,M,Wraps,M_OCR_APF,97.8,100,195,210,-227.5,,210,112.5,125,137.5,,137.5,195,217.5,230,,230,577.5,6,SBD,
Chris Noble,30,M,Wraps,M_OCR_APF,106.2,110,250,272.5,280,,280,155,165,172.5,,172.5,240,275,287.5,,287.5,740,1,SBD,
Steve Caldwell,30,M,Wraps,M_OCR_APF,123.9,125,292.5,310,-327.5,,310,-162.5,162.5,177.5,,177.5,280,300,,,300,787.5,1,SBD,
Anthony Narducci,27,M,Wraps,M_OCR_APF,114.3,125,192.5,212.5,220,,220,125,137.5,-142.5,,137.5,237.5,260,-275,,260,617.5,2,SBD,
Scott Edmiston,55,M,Wraps,M_OCR_APF,125.8,140,250,275,287.5,,287.5,150,-165,-165,,150,257.5,272.5,-277.5,,272.5,710,1,SBD,
Dan O'Brien,19,M,Wraps,M_OCR_APF,173.1,140+,262.5,282.5,295,,295,142.5,155,165,,165,232.5,250,267.5,,267.5,727.5,1,SBD,
John Hugunin,24,M,Raw,M_OR_AAPF,98.4,100,250,260,-267.5,,260,152.5,165,175,,175,250,275,282.5,,282.5,717.5,1,SBD,Yes
Aniekan Akpaninyie,29,M,Raw,M_OR_AAPF,93.7,100,185,190,197.5,,197.5,125,132.5,137.5,,137.5,260,272.5,290,,290,625,2,SBD,Yes
Anthony Ricchio,28,M,Raw,M_OR_AAPF,97.4,100,205,212.5,-225,,212.5,-155,155,-165,,155,235,240,-250,,240,607.5,3,SBD,Yes
Collin Slagell,25,M,Raw,M_OR_AAPF,95.8,100,142.5,150,155,,155,-110,110,-117.5,,110,185,195,205,,205,470,4,SBD,Yes
David Medina,30,M,Raw,M_OR_AAPF,108.3,110,177.5,192.5,200,,200,132.5,-140,140,,140,-207.5,,,,,,DQ,SBD,Yes
Patrick Callahan,32,M,Raw,M_OR_AAPF,115.4,125,247.5,-252.5,-252.5,,247.5,135,145,-150,,145,217.5,227.5,-232.5,,227.5,620,1,SBD,Yes
Jim Galto,44,M,Raw,M_OR_APF,105.9,110,175,195,210,,210,137.5,150,-162.5,,150,215,237.5,-255,,237.5,597.5,1,SBD,
Patrick Callahan,32,M,Raw,M_OR_APF,115.4,125,247.5,-252.5,-252.5,,247.5,135,145,-150,,145,217.5,227.5,-232.5,,227.5,620,1,SBD,
Javier Garcia #1,27,M,Raw,M_OR_APF,136.5,140,295,320,,,320,195,-215,,,195,272.5,295,-320,,295,810,1,SBD,
Coty Anderson,26,M,Raw,M_OR_APF,175.8,140+,265,295,320,,320,-185,197.5,205,,205,265,295,310,,310,835,1,SBD,
