Place,WeightClassKg,Name,State,Sex,BodyweightKg,Best3SquatKg,Best3BenchKg,Best3DeadliftKg,TotalKg,Division,Event,Equipment
1,40,Carson Sturgell,MO,M,33.61,50,30,65,145,youth,SBD,Wraps
1,48,Cameron Sturgell,MO,M,46.13,57.5,37.5,77.5,172.5,youth,SBD,Wraps
1,67.5,Tyson Williams,MO,M,64.18,72.5,37.5,85,195,youth,SBD,Wraps
1,60,Esmie Tseng,KS,F,57.83,117.5,72.5,145,335,wint,SBD,Wraps
1,90,Ashley Augusta,MO,F,89.31,130,87.5,155,372.5,wsm1,SBD,Wraps
1,67.5,Shanley O'Brien,KS,F,63.05,102.5,67.5,137.5,307.5,wnov,SBD,Wraps
1,90+,Regan Lehman-Pillar,KS,F,99.34,137.5,72.5,167.5,377.5,wnov,SBD,Wraps
1,56,Abigail Chiroy,KS,F,54.43,92.5,42.5,120,255,wjr,SBD,Wraps
1,56,Traci VandeWeerd,KS,F,55.29,87.5,47.5,115,250,wsm1,SBD,Wraps
1,82.5,Jesua Rodriguez,KS,F,82.05,122.5,50,140,312.5,wopen,SBD,Wraps
1,90+,Malati Harris,KS,F,106.59,127.5,72.5,152.5,352.5,wm1,SBD,Wraps
1,67.5,Abby West,KS,F,65.14,102.5,47.5,100,250,wsm2,SBD,Wraps
1,60,Isabel Barrera,KS,F,58.29,85,35,97.5,217.5,whs,SBD,Wraps
1,90+,Rachel Angel,KS,F,99.47,102.5,57.5,130,290,wm1,SBD,Wraps
1,56,Trinitie Augusta,MO,F,55.66,60,42.5,107.5,210,whs,SBD,Wraps
1,67.5,Lauryn Schmitz,MO,F,62.64,77.5,50,97.5,225,wjr,SBD,Wraps
1,67.5,Lauryn Schmitz,MO,F,62.64,77.5,50,97.5,225,wopen,SBD,Wraps
1,75,Karmen Culver,MO,F,70.99,87.5,50,85,222.5,whs,SBD,Wraps
1,82.5,Meg Hawthorne,KS,F,75.3,90,42.5,97.5,230,wm2,SBD,Wraps
1,67.5,Katy Plate,KS,F,61.23,67.5,42.5,87.5,197.5,whs,SBD,Wraps
1,75,Karen Gehle,KS,F,72.85,77.5,42.5,90,210,wm2,SBD,Wraps
1,60,Esmie Tseng,KS,F,57.83,,72.5,145,217.5,wint,BD,Raw
1,60,Isabel Barrera,KS,F,58.29,,35,,35,whs,B,Raw
1,67.5,Katy Plate,KS,F,61.23,,42.5,,42.5,whs,B,Raw
1,125,Matthew Jones,KS,M,123.15,,200,,200,bpmp,B,Raw
1,90,Chris Beck,KS,M,83.19,,160,,160,bpmp,B,Raw
1,110,Trent Gunter,KS,M,104.01,,152.5,,152.5,bpm1,B,Raw
1,110,John Fernandez,KS,M,109.77,,150,,150,bpint,B,Raw
1,140,Jeremy Augusta,MO,M,128.23,,137.5,,137.5,bpsm1,B,Raw
1,67.5,Zach Herries,KS,M,65.36,,82.5,,82.5,bphc,B,Raw
1,100,Ashton Reichman,KS,M,97.89,,,252.5,252.5,dlopen,D,Raw
1,100,Bob Boyles,MO,M,94.66,,,232.5,232.5,dlm2,D,Raw
2,100,Wade Jones,KS,M,99.25,,,195,195,dlopen,D,Raw
1,100,Ben Friedrich,MO,M,96.43,,155,,155,hs,B,Raw
1,82.5,Michael Ramos,KS,M,80.78,,105,,105,open,B,Raw
2,100,Truman Harris,MO,M,92.44,,97.5,,97.5,hs,B,Raw
1,100,Nick Birdsong,KS,M,90.76,,170,290,460,smp,BD,Raw
1,82.5,Jake Hibler,KS,M,80.51,,157.5,265,422.5,int,BD,Raw
1,82.5,Conner Rush,KS,M,78.88,,130,227.5,357.5,nov,BD,Raw
1,125,Peter Killman,KS,M,122.56,,125,210,335,m1,BD,Raw
1,100,Randall Henderson,KS,M,96.25,,185,312.5,497.5,m2,BD,Single-ply
1,82.5,Cody VandeWeerd,KS,M,82.01,,160,220,380,smp,BD,Single-ply
1,100,Nick Birdsong,KS,M,90.76,,170,290,460,open,BD,Raw
1,110,Grant Morton,KS,M,106.05,,145,285,430,sm1,BD,Raw
1,110,Trent Gunter,KS,M,104.01,,152.5,230,382.5,m1,BD,Raw
1,110,Nolan Harris,MO,M,106.05,,115,265,380,hs,BD,Raw
1,110,Matthew Smith #6,KS,M,106.96,,150,202.5,352.5,smp,BD,Raw
1,100,Truman Harris,MO,M,92.44,,97.5,215,312.5,hs,BD,Raw
1,125,Cameron Augusta,MO,M,119.98,,132.5,215,347.5,hs,BD,Raw
1,75,Matt Brockelman,KS,M,72.12,207.5,150,227.5,585,open,SBD,Wraps
1,100,Ben Friedrich,MO,M,96.43,260,155,255,670,hs,SBD,Wraps
1,110,Jon Hallengren,IA,M,107.86,255,145,255,655,m1,SBD,Wraps
1,90,Brian Leimer,KS,M,88.31,207.5,137.5,237.5,582.5,pure,SBD,Wraps
1,110,Jeff Kornelson,KS,M,109.45,205,157.5,277.5,640,sm2,SBD,Wraps
1,110,Courtney Myers,KS,M,101.01,220,140,255,615,open,SBD,Wraps
1,110,Bryan Obermeier,IA,M,108.95,220,160,250,630,int,SBD,Wraps
1,110,Bryan Obermeier,IA,M,108.95,220,160,250,630,nov,SBD,Wraps
1,90,Jackson Murray,KS,M,88.45,202.5,130,230,562.5,hs,SBD,Wraps
1,100,Sam Tuckwin,KS,M,99.84,217.5,130,247.5,595,teen,SBD,Wraps
1,110,Nolan Harris,MO,M,106.05,230,115,265,610,hs,SBD,Wraps
1,82.5,Denzel McGee,KS,M,82.15,170,135,232.5,537.5,open,SBD,Wraps
1,75,Ralph Cole,KS,M,73.94,175,110,220,505,jr,SBD,Wraps
1,82.5,John Campbell,MO,M,80.78,172.5,127.5,212.5,512.5,int,SBD,Wraps
2,110,Trent Gunter,KS,M,104.01,197.5,152.5,230,580,m1,SBD,Wraps
1,140+,Anthony Cooper,KS,M,150.86,272.5,152.5,245,670,sm1,SBD,Wraps
2,75,Remi Sananikone,MO,M,71.67,165,107.5,192.5,465,jr,SBD,Wraps
1,140,Chris Sandlin,KS,M,138.62,207.5,175,230,612.5,m1,SBD,Wraps
1,90,Joshua Parker,MO,M,87.18,167.5,115,207.5,490,jr,SBD,Wraps
1,60,Justin Jay,KS,M,59.1,130,95,167.5,392.5,jr,SBD,Wraps
1,90,John Hoyt,KS,M,87.14,180,105,200,485,mp,SBD,Wraps
2,100,Truman Harris,MO,M,92.44,185,97.5,215,497.5,hs,SBD,Wraps
1,90,Andrew Mykel,KS,M,87.18,165,115,195,475,sm1,SBD,Wraps
1,140,Kaleb Ayers,KS,M,133.4,220,152.5,197.5,570,hs,SBD,Wraps
1,100,Joshua Reese,KS,M,98.88,182.5,117.5,192.5,492.5,mp,SBD,Wraps
1,75,Mark Ekerberg,KS,M,74.03,155,90,150,395,m1,SBD,Wraps
1,75,Mark Ekerberg,KS,M,74.03,155,90,150,395,mp,SBD,Wraps
1,90,Jeremy Sturgell,MO,M,82.92,140,107.5,152.5,400,sm2,SBD,Wraps
1,140,Jonathan Cortes,KS,M,135.85,150,155,195,500,int,SBD,Wraps
1,140,Jonathan Cortes,KS,M,135.85,150,155,195,500,p+f,SBD,Wraps
1,140,Julian Sanchez,KS,M,136.44,182.5,92.5,187.5,462.5,nov,SBD,Wraps
1,82.5,Evan Burton,MO,M,77.52,72.5,45,90,207.5,hs,SBD,Wraps
1,125,Joey Gazzo,IA,M,112.76,230,117.5,257.5,605,m2,SBD,Single-ply
1,125,Joey Gazzo,IA,M,112.76,230,117.5,257.5,605,mp,SBD,Single-ply
