Division,WeightClassKg,Place,Name,Team,BodyweightKg,Best3SquatKg,Best3BenchKg,Best3DeadliftKg,TotalKg,Equipment,Event,Sex
Boys,51.71,1,Tristan Pierce,Belton,50.98,99.79,61.23,124.74,285.76,Single-ply,SBD,M
Boys,51.71,2,Caleb Dawkins,Waco,50.62,102.06,58.97,90.72,251.74,Single-ply,SBD,M
Boys,51.71,3,Jim Langerman,Waco Midway,50.17,72.57,40.82,90.72,204.12,Single-ply,SBD,M
Boys,55.79,1,Avery Rodriguez,Temple,54.88,158.76,95.25,161.03,415.04,Single-ply,SBD,M
Boys,55.79,2,Max Castelli,Belton,55.43,142.88,70.31,151.95,365.14,Single-ply,SBD,M
Boys,55.79,3,Scott Gurnett,Belton,55.61,131.54,72.57,122.47,326.59,Single-ply,SBD,M
Boys,59.87,1,Juan Sanchez,Waco,59.6,158.76,102.06,174.63,435.45,Single-ply,SBD,M
Boys,59.87,2,Brent Wheeler,Belton,58.24,158.76,95.25,151.95,405.97,Single-ply,SBD,M
Boys,59.87,3,Jaylen Montgomery,Waco Midway,59.51,142.88,86.18,167.83,396.89,Single-ply,SBD,M
Boys,59.87,4,Josh Lopez,Cameron Yoe,56.88,129.27,88.45,156.49,374.21,Single-ply,SBD,M
Boys,59.87,5,Joe Rangel,Cameron Yoe,57.42,136.08,74.84,161.03,371.95,Single-ply,SBD,M
Boys,59.87,6,Jose Marquez,Waco,58.88,151.95,74.84,138.35,365.14,Single-ply,SBD,M
Boys,59.87,7,Andrew Medina,Belton,56.06,136.08,70.31,136.08,342.46,Single-ply,SBD,M
Boys,59.87,8,Ladavon Sprigs,Waco,59.87,129.27,72.57,138.35,340.19,Single-ply,SBD,M
Boys,59.87,9,Kyle Gascon,Belton,57.61,149.69,61.23,127.01,337.93,Single-ply,SBD,M
Boys,59.87,10,William Cetta,Moody,59.15,88.45,68.04,120.2,276.69,Single-ply,SBD,M
Boys,59.87,DQ,Traesean Marie,Copperas Cove,58.6,136.08,,,,Single-ply,SBD,M
Boys,59.87,DQ,Nathan Hunt,Belton,58.51,127.01,,,,Single-ply,SBD,M
Boys,67.13,1,Dwight Roberts,Temple,66.22,208.65,131.54,222.26,562.45,Single-ply,SBD,M
Boys,67.13,2,Christian Castillo,Belton,67.13,185.97,102.06,190.51,478.54,Single-ply,SBD,M
Boys,67.13,3,Thomas McVade,Temple,61.69,165.56,95.25,149.69,410.5,Single-ply,SBD,M
Boys,67.13,4,Michael Truelove,Moody,63.05,120.2,79.38,133.81,333.39,Single-ply,SBD,M
Boys,67.13,5,Samuel Odedeji,Waco Midway,67.04,113.4,72.57,138.35,324.32,Single-ply,SBD,M
Boys,67.13,6,Kapua Dumaran,Copperas Cove,66.86,104.33,72.57,138.35,315.25,Single-ply,SBD,M
Boys,67.13,7,Edward Villa,Copperas Cove,60.51,95.25,49.9,104.33,249.48,Single-ply,SBD,M
Boys,67.13,DQ,Patrick Frazho,Belton,64.59,,,,,Single-ply,SBD,M
Boys,74.84,1,Kyleland Sauls,Temple,72.57,217.72,140.61,204.12,562.45,Single-ply,SBD,M
Boys,74.84,2,Alex Aguillon,Cameron Yoe,74.84,213.19,104.33,217.72,535.24,Single-ply,SBD,M
Boys,74.84,3,Tyheme Isabel,Waco,74.57,204.12,115.67,210.92,530.7,Single-ply,SBD,M
Boys,74.84,4,Devyn Raper,Belton,74.57,170.1,120.2,215.46,505.76,Single-ply,SBD,M
Boys,74.84,5,Isaiah Hawkins,Copperas Cove,70.85,158.76,120.2,201.85,480.81,Single-ply,SBD,M
Boys,74.84,6,Samuel Garcia,Belton,71.76,163.29,113.4,195.04,471.74,Single-ply,SBD,M
Boys,74.84,7,Teel Mesmer,Moody,74.03,172.37,106.59,190.51,469.47,Single-ply,SBD,M
Boys,74.84,8,Henry Hubrik,Cameron Yoe,71.67,170.1,111.13,161.03,442.25,Single-ply,SBD,M
Boys,74.84,9,Seth Vala,Waco Midway,71.67,176.9,86.18,176.9,439.98,Single-ply,SBD,M
Boys,74.84,10,Dante Frederick,Copperas Cove,70.85,174.63,99.79,158.76,433.18,Single-ply,SBD,M
Boys,74.84,11,Keither Guillory,Waco,68.95,156.49,92.99,174.63,424.11,Single-ply,SBD,M
Boys,74.84,12,Kai Dueanas,Copperas Cove,73.39,136.08,88.45,163.29,387.82,Single-ply,SBD,M
Boys,74.84,13,Sam Barron,Waco,72.12,142.88,79.38,149.69,371.95,Single-ply,SBD,M
Boys,74.84,DQ,Jace McDowell,Copperas Cove,68.4,127.01,,,,Single-ply,SBD,M
Boys,82.1,1,Dj Fripp,Cameron Yoe,81.1,231.33,149.69,226.8,607.81,Single-ply,SBD,M
Boys,82.1,2,Craig Dawson,Waco Midway,75.66,229.06,129.27,199.58,557.92,Single-ply,SBD,M
Boys,82.1,3,Kevin Avdic,Cameron Yoe,80.38,217.72,113.4,204.12,535.24,Single-ply,SBD,M
Boys,82.1,4,Jacob Carney,Copperas Cove,80.92,185.97,104.33,213.19,503.49,Single-ply,SBD,M
Boys,82.1,5,Darrell Quichacho,Copperas Cove,81.56,190.51,104.33,188.24,483.08,Single-ply,SBD,M
Boys,82.1,6,Trashawn Hill,Moody,76.75,181.44,113.4,174.63,469.47,Single-ply,SBD,M
Boys,82.1,7,Matt Bodnar,Moody,79.83,179.17,113.4,161.03,453.59,Single-ply,SBD,M
Boys,82.1,8,Keaton Kaulfus,Belton,79.83,163.29,113.4,161.03,437.72,Single-ply,SBD,M
Boys,82.1,9,Reggie Johnson,Waco,80.01,149.69,102.06,185.97,437.72,Single-ply,SBD,M
Boys,82.1,10,Alex Barajas,Waco,77.66,113.4,74.84,129.27,317.51,Single-ply,SBD,M
Boys,89.81,1,James Fullbright,Waco Midway,86.45,233.6,136.08,231.33,601.01,Single-ply,SBD,M
Boys,89.81,2,Davion Minnitt,Waco,89.63,215.46,113.4,226.8,555.65,Single-ply,SBD,M
Boys,89.81,3,Dai'Shawn Fisher,Waco,86.36,192.78,108.86,217.72,519.36,Single-ply,SBD,M
Boys,89.81,4,Kobe Bankston,Temple,88.45,192.78,117.93,199.58,510.29,Single-ply,SBD,M
Boys,89.81,5,Jakob Mitchell,Waco,89.54,188.24,111.13,188.24,487.61,Single-ply,SBD,M
Boys,89.81,6,Randy Schoolcraft,Belton,85.46,167.83,106.59,158.76,433.18,Single-ply,SBD,M
Boys,89.81,7,Elijah Anderson,Waco,86.18,151.95,83.91,147.42,383.29,Single-ply,SBD,M
Boys,89.81,8,Grayson McClendon,Waco Midway,87.91,142.88,81.65,156.49,381.02,Single-ply,SBD,M
Boys,89.81,9,Malik Jackson,Belton,84.28,136.08,90.72,142.88,369.68,Single-ply,SBD,M
Boys,99.79,1,Cedric Carter,Temple,94.8,208.65,142.88,231.33,582.87,Single-ply,SBD,M
Boys,99.79,2,Devon Taplin,Belton,95.98,217.72,151.95,208.65,578.33,Single-ply,SBD,M
Boys,99.79,3,Zachary Hoyle,Copperas Cove,97.34,226.8,124.74,226.8,578.33,Single-ply,SBD,M
Boys,99.79,4,Devin Martinez,Belton,97.07,215.46,140.61,219.99,576.06,Single-ply,SBD,M
Boys,99.79,5,D'Ashton Merida,Temple,98.43,204.12,120.2,190.51,514.83,Single-ply,SBD,M
Boys,99.79,6,Andrew Bullock,Waco Midway,99.79,190.51,108.86,199.58,498.95,Single-ply,SBD,M
Boys,99.79,7,Garrett Orange,Belton,95.8,185.97,120.2,188.24,494.42,Single-ply,SBD,M
Boys,99.79,8,Chris Hooper,Temple,93.44,170.1,124.74,195.04,489.88,Single-ply,SBD,M
Boys,99.79,9,Gustavo Aguilar,Moody,94.8,188.24,122.47,174.63,485.34,Single-ply,SBD,M
Boys,99.79,10,Edwardo Gill,Cameron Yoe,94.89,181.44,124.74,170.1,476.27,Single-ply,SBD,M
Boys,99.79,11,Christian Eseroma,Copperas Cove,91.53,170.1,97.52,181.44,449.06,Single-ply,SBD,M
Boys,99.79,12,Daniel Ford,Waco Midway,93.35,176.9,95.25,170.1,442.25,Single-ply,SBD,M
Boys,99.79,13,David Orozoco,Copperas Cove,99.43,174.63,88.45,158.76,421.84,Single-ply,SBD,M
Boys,99.79,14,John Flores,Waco Midway,90.36,172.37,77.11,158.76,408.23,Single-ply,SBD,M
Boys,109.77,1,Arturo Jaimes,Belton,105.87,276.69,147.42,281.23,705.34,Single-ply,SBD,M
Boys,109.77,2,Sammy Rodriguez,Temple,107.95,231.33,142.88,249.48,623.69,Single-ply,SBD,M
Boys,109.77,3,Cory Ebron,Waco,109.04,256.28,136.08,231.33,623.69,Single-ply,SBD,M
Boys,109.77,4,Keyshawn Dudley,Waco,107.5,210.92,138.35,226.8,576.06,Single-ply,SBD,M
Boys,109.77,5,Kendrick Johnson,Temple,103.87,226.8,129.27,204.12,560.19,Single-ply,SBD,M
Boys,109.77,6,Daniel Castro,Waco Midway,109.77,213.19,113.4,208.65,535.24,Single-ply,SBD,M
Boys,109.77,7,Vernon Walker,Waco Midway,104.51,213.19,106.59,206.38,526.17,Single-ply,SBD,M
Boys,109.77,8,Joshua Langford,Copperas Cove,103.42,195.04,95.25,181.44,471.74,Single-ply,SBD,M
Boys,109.77,9,Winston Vasquez,Copperas Cove,104.87,201.85,95.25,170.1,467.2,Single-ply,SBD,M
Boys,109.77,10,Isaiah Fach,Temple,107.5,190.51,95.25,176.9,462.66,Single-ply,SBD,M
Boys,109.77,11,Xavier Machette,Cameron Yoe,101.88,161.03,97.52,174.63,433.18,Single-ply,SBD,M
Boys,109.77,12,Jayven Taylor,Temple,105.69,163.29,88.45,151.95,403.7,Single-ply,SBD,M
Boys,109.77,13,Quincy White,Waco,109.5,147.42,81.65,161.03,390.09,Single-ply,SBD,M
Boys,109.77,14,Mario DeLeon,Waco,101.7,136.08,77.11,129.27,342.46,Single-ply,SBD,M
Boys,124.74,1,Sidney Sherwood,Belton,120.56,258.55,170.1,188.24,616.89,Single-ply,SBD,M
Boys,124.74,2,Russell Hogue,Temple,121.56,215.46,147.42,235.87,598.74,Single-ply,SBD,M
Boys,124.74,3,Juan Jiminez,Copperas Cove,113.31,226.8,136.08,229.06,591.94,Single-ply,SBD,M
Boys,124.74,4,Tj Franklin,Temple,118.84,188.24,140.61,204.12,532.97,Single-ply,SBD,M
Boys,124.74,5,John Gorrell,Waco Midway,115.03,199.58,136.08,192.78,528.44,Single-ply,SBD,M
Boys,124.74,6,Bryan Luna,Belton,115.76,213.19,131.54,181.44,526.17,Single-ply,SBD,M
Boys,124.74,7,Noah Castillo,Temple,122.02,185.97,133.81,195.04,514.83,Single-ply,SBD,M
Boys,124.74,8,Zakary Richards,Waco Midway,119.11,190.51,108.86,183.7,483.08,Single-ply,SBD,M
Boys,124.74,9,John Montemayor,Waco Midway,117.48,197.31,115.67,165.56,478.54,Single-ply,SBD,M
Boys,124.74,10,Daniel Phillips,Waco Midway,118.57,163.29,113.4,158.76,435.45,Single-ply,SBD,M
Boys,124.74,11,Joe Kiraly,Waco,123.38,163.29,106.59,156.49,426.38,Single-ply,SBD,M
Boys,124.74,12,Octavion Sims,Waco,114.67,158.76,90.72,174.63,424.11,Single-ply,SBD,M
Boys,124.74,13,Chase McLaughlin,Belton,110.68,142.88,104.33,154.22,401.43,Single-ply,SBD,M
Boys,124.74,14,Oliver Varela,Waco,122.2,138.35,83.91,142.88,365.14,Single-ply,SBD,M
Boys,124.74,DQ,Brodie Niswanger,Waco Midway,118.75,113.4,74.84,,,Single-ply,SBD,M
Boys,124.74+,1,Vincent Nakeveyon,Waco,170.01,347,204.12,272.16,823.27,Single-ply,SBD,M
Boys,124.74+,2,Phillip Haskins,Temple,137.89,260.82,165.56,260.82,687.19,Single-ply,SBD,M
Boys,124.74+,3,Aaron Shanahan,Copperas Cove,141.34,251.74,131.54,240.4,623.69,Single-ply,SBD,M
Boys,124.74+,4,Jordan Sharp,Waco Midway,164.56,265.35,142.88,215.46,623.69,Single-ply,SBD,M
Boys,124.74+,5,Joshua Echeveria,Waco Midway,136.17,226.8,113.4,204.12,544.31,Single-ply,SBD,M
Boys,124.74+,6,Johnny Jackson,Belton,161.57,197.31,136.08,183.7,517.1,Single-ply,SBD,M
Boys,124.74+,7,Daniel Lopez,Temple,141.52,167.83,113.4,183.7,464.93,Single-ply,SBD,M
Boys,124.74+,8,Miguel Convento,Waco Midway,142.43,165.56,90.72,167.83,424.11,Single-ply,SBD,M
Boys,124.74+,9,Colton Sherwood,Copperas Cove,134.35,142.88,95.25,167.83,405.97,Single-ply,SBD,M
Boys,124.74+,10,Dan Llanez,Copperas Cove,155.49,156.49,81.65,163.29,401.43,Single-ply,SBD,M
Boys,124.74+,11,Juan Rivera,Waco,139.25,142.88,90.72,136.08,369.68,Single-ply,SBD,M
Boys,124.74+,12,Ryan Connor,Copperas Cove,135.44,138.35,77.11,149.69,365.14,Single-ply,SBD,M
Boys,124.74+,DQ,Tre Colbert,Temple,131.09,,,,,Single-ply,SBD,M
Boys,,NS,Daizion Carroll,Waco Midway,,,,,,Single-ply,SBD,M
Boys,,NS,Richard Kirkpatrick,Waco Midway,,,,,,Single-ply,SBD,M
Boys,,NS,Giovanni King,Copperas Cove,,,,,,Single-ply,SBD,M
Boys,,NS,Chandler Colton,Copperas Cove,,,,,,Single-ply,SBD,M
Boys,,NS,Tim Edwards,Copperas Cove,,,,,,Single-ply,SBD,M
Boys,,NS,Pat England,Cameron Yoe,,,,,,Single-ply,SBD,M
Boys,,NS,Dominic Lewis,Cameron Yoe,,,,,,Single-ply,SBD,M
Boys,,NS,Adrian Lewis,Cameron Yoe,,,,,,Single-ply,SBD,M
Boys,,NS,Xavier White,Temple,,,,,,Single-ply,SBD,M
