Division,WeightClassKg,Place,Name,Team,BodyweightKg,Best3SquatKg,Best3BenchKg,Best3DeadliftKg,TotalKg,Equipment,Event,Sex
Boys,51.71,1,Brian Villarreal,Geronimo Navarro,49.62,127.01,79.38,147.42,353.8,Single-ply,SBD,M
Boys,51.71,2,Sinuhe Villafuna,Del Valle,49.71,102.06,54.43,113.4,269.89,Single-ply,SBD,M
Boys,51.71,DQ,Oakley Bruder,Smithville,51.07,,,,,Single-ply,SBD,M
Boys,55.79,1,Alex Mata,Lockhart,55.61,136.08,70.31,165.56,371.95,Single-ply,SBD,M
Boys,59.87,2,Enrique Vences,Bastrop Cedar Creek,55.88,120.2,72.57,133.81,326.59,Single-ply,SBD,M
Boys,59.87,1,Eduardo Lizardo,Del Valle,59.33,154.22,108.86,181.44,444.52,Single-ply,SBD,M
Boys,59.87,2,Jacob Esquivel,Seguin,58.88,158.76,97.52,163.29,419.57,Single-ply,SBD,M
Boys,59.87,3,Dominique Ubias,Elgin,57.33,142.88,95.25,158.76,396.89,Single-ply,SBD,M
Boys,59.87,4,Fernando Maldonado,Smithville,58.97,136.08,88.45,149.69,374.21,Single-ply,SBD,M
Boys,59.87,DQ,Oscar Sanchez,Seguin,59.87,,,,,Single-ply,SBD,M
Boys,59.87,DQ,Alex Vargas,Del Valle,58.97,,,,,Single-ply,SBD,M
Boys,67.13,1,Justin Lara,Buda Hays,63.32,188.24,99.79,195.04,483.08,Single-ply,SBD,M
Boys,67.13,2,Hugo Perez,Lockhart,65.86,165.56,102.06,204.12,471.74,Single-ply,SBD,M
Boys,67.13,3,Luis Mena,Del Valle,65.95,158.76,117.93,181.44,458.13,Single-ply,SBD,M
Boys,67.13,4,Brandon Palomares,Seguin,61.23,176.9,83.91,174.63,435.45,Single-ply,SBD,M
Boys,67.13,5,Jacob Gonzales,Lockhart,66.32,136.08,72.57,165.56,374.21,Single-ply,SBD,M
Boys,67.13,DQ,Sam Lawson,Seguin,66.41,197.31,,,,Single-ply,SBD,M
Boys,67.13,DQ,Kaleb Jonas,Smithville,67.13,,,,,Single-ply,SBD,M
Boys,67.13,DQ,Luke Jackson,Buda Hays,67.13,,,,,Single-ply,SBD,M
Boys,74.84,1,Chris Blaschke,Smithville,72.94,188.24,122.47,201.85,512.56,Single-ply,SBD,M
Boys,74.84,2,Joel Hinojosa,Seguin,71.58,151.95,86.18,170.1,408.23,Single-ply,SBD,M
Boys,74.84,3,Nick Cruz,Lockhart,74.84,147.42,83.91,170.1,401.43,Single-ply,SBD,M
Boys,74.84,4,Ronald Johson,Del Valle,72.48,142.88,102.06,147.42,392.36,Single-ply,SBD,M
Boys,74.84,5,Ulises Hernandez Patino,Del Valle,69.49,102.06,65.77,111.13,278.96,Single-ply,SBD,M
Boys,74.84,6,Mario Sanchez,Del Valle,72.03,90.72,58.97,111.13,260.82,Single-ply,SBD,M
Boys,74.84,DQ,Karl Rudison,Del Valle,70.85,,,,,Single-ply,SBD,M
Boys,74.84,DQ,Anthony Burklund,Del Valle,72.57,,,,,Single-ply,SBD,M
Boys,74.84,DQ,Aaron Valdez,Buda Hays,74.84,,,,,Single-ply,SBD,M
Boys,74.84,DQ,Jayce Williams,Buda Hays,74.84,,,,,Single-ply,SBD,M
Boys,74.84,DQ,Yeremi Hykel,Buda Hays,74.84,,,,,Single-ply,SBD,M
Boys,74.84,DQ,Cedrick Lewis,Geronimo Navarro,72.76,161.03,,,,Single-ply,SBD,M
Boys,74.84,DQ,Devin Heitz,Smithville,71.85,,,,,Single-ply,SBD,M
Boys,82.1,1,Orlando Perez,Elgin,79.29,229.06,140.61,233.6,603.28,Single-ply,SBD,M
Boys,82.1,2,Ty Hill,Georgetown,79.2,201.85,113.4,222.26,537.51,Single-ply,SBD,M
Boys,82.1,3,Grant Schlaht,Lockhart,80.56,199.58,129.27,204.12,532.97,Single-ply,SBD,M
Boys,82.1,4,Joel Juarez,Lockhart,80.65,199.58,124.74,204.12,528.44,Single-ply,SBD,M
Boys,82.1,5,Devin Norman,Lockhart,79.83,190.51,122.47,199.58,512.56,Single-ply,SBD,M
Boys,89.81,6,Chris Lewis,Smithville,82.19,197.31,88.45,192.78,478.54,Single-ply,SBD,M
Boys,82.1,7,Alex Rivas,Seguin,81.92,161.03,127.01,176.9,464.93,Single-ply,SBD,M
Boys,82.1,8,Marcus Ortiz,Del Valle,81.92,151.95,81.65,161.03,394.63,Single-ply,SBD,M
Boys,82.1,9,Luis Rodriguez,Geronimo Navarro,78.65,138.35,92.99,149.69,381.02,Single-ply,SBD,M
Boys,82.1,10,Jeremiah Solorzano,Del Valle,78.93,97.52,74.84,113.4,285.76,Single-ply,SBD,M
Boys,82.1,DQ,Cody Patterson,Bastrop Cedar Creek,78.38,,,,,Single-ply,SBD,M
Boys,89.81,1,George Neef,Dripping Springs,88.27,235.87,127.01,235.87,598.74,Single-ply,SBD,M
Boys,89.81,2,Jared Leal,Geronimo Navarro,85.37,208.65,124.74,231.33,564.72,Single-ply,SBD,M
Boys,89.81,3,Jackson Efiom,Buda Hays,88.45,208.65,120.2,217.72,546.58,Single-ply,SBD,M
Boys,89.81,4,Daniel Anderson,Elgin,85.18,188.24,136.08,204.12,528.44,Single-ply,SBD,M
Boys,89.81,5,Matt Reyes,Buda Hays,86.73,192.78,102.06,204.12,498.95,Single-ply,SBD,M
Boys,89.81,6,Nick Vasquez,Del Valle,83.28,151.95,97.52,165.56,415.04,Single-ply,SBD,M
Boys,89.81,7,Zackary Zaleski,Geronimo Navarro,85.55,136.08,95.25,167.83,399.16,Single-ply,SBD,M
Boys,89.81,DQ,Chase Heffernan,Georgetown,82.92,,,,,Single-ply,SBD,M
Boys,89.81,DQ,Colby Ardrey,Buda Hays,89.81,,,,,Single-ply,SBD,M
Boys,89.81,DQ,Joseph Castillo,Seguin,89.81,,,,,Single-ply,SBD,M
Boys,89.81,DQ,Matthew Georg,Seguin,89.63,199.58,131.54,,,Single-ply,SBD,M
Boys,99.79,1,Curtis Hawkins,Lockhart,98.79,263.08,154.22,238.14,655.44,Single-ply,SBD,M
Boys,99.79,2,Joseph Rodriguez,Bastrop Cedar Creek,93.89,231.33,138.35,251.74,621.42,Single-ply,SBD,M
Boys,99.79,3,Khalid Taylor,Del Valle,98.79,229.06,145.15,231.33,605.55,Single-ply,SBD,M
Boys,99.79,4,D'Angelo Sutton,Seguin,97.16,181.44,104.33,195.04,480.81,Single-ply,SBD,M
Boys,99.79,5,Isaiah Martinez,Buda Hays,99.79,156.49,133.81,183.7,474,Single-ply,SBD,M
Boys,99.79,6,Gerardo Martinez,Del Valle,97.7,165.56,102.06,185.97,453.59,Single-ply,SBD,M
Boys,99.79,7,Lyric Pullman,Del Valle,92.9,167.83,115.67,165.56,449.06,Single-ply,SBD,M
Boys,99.79,8,Harley Ullrich,Seguin,94.53,129.27,111.13,158.76,399.16,Single-ply,SBD,M
Boys,99.79,DQ,Shawn Schmidt,Geronimo Navarro,99.79,,,,,Single-ply,SBD,M
Boys,109.77,1,Lane Springs,Geronimo Navarro,107.14,254.01,154.22,226.8,635.03,Single-ply,SBD,M
Boys,109.77,2,John Paul Arias,Bastrop Cedar Creek,108.14,206.38,129.27,226.8,562.45,Single-ply,SBD,M
Boys,109.77,3,Josh Sanchez,Geronimo Navarro,108.95,219.99,102.06,195.04,517.1,Single-ply,SBD,M
Boys,109.77,4,Enrique Velasquez Morquecho,Del Valle,101.7,127.01,81.65,158.76,367.41,Single-ply,SBD,M
Boys,109.77,5,Jeremy Ruiz,Del Valle,103.69,122.47,88.45,136.08,347,Single-ply,SBD,M
Boys,109.77,DQ,Brayan Diaz,Del Valle,106.59,,,,,Single-ply,SBD,M
Boys,124.74,1,Aaron Johnson,Georgetown,116.66,249.48,170.1,215.46,635.03,Single-ply,SBD,M
Boys,124.74,2,Marshall Crabb,Geronimo Navarro,113.4,201.85,124.74,213.19,539.77,Single-ply,SBD,M
Boys,124.74,3,Caleb Bishop,Lockhart,116.12,201.85,122.47,181.44,505.76,Single-ply,SBD,M
Boys,124.74,DQ,Mikey Trevino,Smithville,124.74,,,,,Single-ply,SBD,M
Boys,124.74,DQ,Josh Ficklin,Elgin,120.29,229.06,147.42,,,Single-ply,SBD,M
Boys,124.74,DQ,Seth Seale,Buda Hays,116.03,229.06,,,,Single-ply,SBD,M
Boys,124.74,DQ,Johson Elrod,Buda Hays,124.74,,,,,Single-ply,SBD,M
Boys,124.74,DQ,Cristian Hernandez,Del Valle,119.48,208.65,,,,Single-ply,SBD,M
Boys,124.74+,1,Weston Clapper,Georgetown,131.72,226.8,142.88,188.24,557.92,Single-ply,SBD,M
Boys,124.74+,2,Edward Comacho,Lockhart,132.72,226.8,122.47,195.04,544.31,Single-ply,SBD,M
Boys,124.74+,3,Anthony Herrera,Del Valle,147.42,192.78,120.2,170.1,483.08,Single-ply,SBD,M
