Name,WeightClassKg,Best3SquatKg,Best3BenchKg,Best3DeadliftKg,TotalKg,Event,Equipment,Sex,Division,Place
Richard Grey,82.5,210.0,132.5,220.0,562.5,SBD,Single-ply,M,Open,1
Dan Baker,90.0,210.0,130.0,235.0,575.0,SBD,Single-ply,M,Open,1
Kevin McCann,100.0,200.0,120.0,225.0,545.0,SBD,Single-ply,M,Open,4
Trevor Vladerman,100.0,210.0,130,240.0,580.0,SBD,Single-ply,M,Open,3
Garry Hoffman,100.0,205.0,120.0,215.0,540.0,SBD,Single-ply,M,Open,5
Sean Henderson,100.0,262.5,155,270.0,687.5,SBD,Single-ply,M,Open,1
Ralph Acheson,100.0,210.0,145.0,250.5,605.0,SBD,Single-ply,M,Open,2
Rusty Rusterholz,110.0,255.0,205.0,265.0,725.0,SBD,Single-ply,M,Open,1
Chris Graham,125.0,160,130.0,190.0,480.0,SBD,Single-ply,M,Open,1
