Division,WeightClassKg,Place,Name,Team,BodyweightKg,Best3SquatKg,Best3BenchKg,Best3DeadliftKg,TotalKg,Equipment,Event,Sex
Boys,51.71,1,Aidan Tune,Azle,49.9,88.45,43.09,86.18,217.72,Single-ply,SBD,M
Boys,55.79,1,Breadan Knoll,Azle,55.34,106.59,70.31,117.93,294.84,Single-ply,SBD,M
Boys,55.79,2,Samuel Eggeston,Saginaw,54.88,102.06,38.56,113.4,254.01,Single-ply,SBD,M
Boys,55.79,3,Chris Wimley,Granbury,52.62,68.04,47.63,74.84,190.51,Single-ply,SBD,M
Boys,59.87,1,Hunter Martin,Azle,58.97,136.08,70.31,149.69,356.07,Single-ply,SBD,M
Boys,59.87,2,Mateo Tort,Granbury,59.87,120.2,77.11,142.88,340.19,Single-ply,SBD,M
Boys,67.13,1,Michael Jones-Bradley,Saginaw,63.5,154.22,74.84,154.22,383.29,Single-ply,SBD,M
Boys,67.13,2,Anthony Valdez,Azle,63.5,113.4,61.23,140.61,315.25,Single-ply,SBD,M
Boys,67.13,3,Jessie Espinosia,Saginaw,67.13,86.18,79.38,117.93,283.5,Single-ply,SBD,M
Boys,67.13,4,Zunair Waseem,Saginaw,62.14,92.99,52.16,102.06,247.21,Single-ply,SBD,M
Boys,67.13,DQ,Gaivin Johnson,Saginaw,65.77,,83.91,124.74,,Single-ply,SBD,M
Boys,67.13,DQ,Dane Dorris,Azle,65.77,124.74,,,,Single-ply,SBD,M
Boys,74.84,1,Brendan Chism,Granbury,73.03,140.61,95.25,174.63,410.5,Single-ply,SBD,M
Boys,74.84,2,Jackson Winters,Granbury,71.21,124.74,111.13,161.03,396.89,Single-ply,SBD,M
Boys,74.84,3,Micheal Brewer,Saginaw,72.12,145.15,106.59,142.88,394.63,Single-ply,SBD,M
Boys,74.84,4,Clayton Kracy,Granbury,73.03,138.35,92.99,158.76,390.09,Single-ply,SBD,M
Boys,74.84,5,CJ van Slyke,Azle,73.94,149.69,83.91,147.42,381.02,Single-ply,SBD,M
Boys,74.84,6,Jacob Lee,Azle,73.94,147.42,74.84,156.49,378.75,Single-ply,SBD,M
Boys,74.84,7,James Fleming,Saginaw,73.94,111.13,88.45,131.54,331.12,Single-ply,SBD,M
Boys,74.84,8,Nick Mager,Granbury,69.85,97.52,70.31,120.2,288.03,Single-ply,SBD,M
Boys,82.1,1,Jorden Wilkerson,Granbury,79.38,217.72,124.74,217.72,560.19,Single-ply,SBD,M
Boys,82.1,2,Jordan McNeely,Azle,78.47,204.12,131.54,217.72,553.38,Single-ply,SBD,M
Boys,82.1,3,Jacob Greene,Granbury,81.65,136.08,65.77,172.37,374.21,Single-ply,SBD,M
Boys,82.1,DQ,Hayden Davidson,Azle,80.29,181.44,,181.44,,Single-ply,SBD,M
Boys,89.81,1,Michael Trull,Granbury,88.9,185.97,115.67,195.04,496.68,Single-ply,SBD,M
Boys,89.81,2,Jared Wheeler,Azle,88,181.44,117.93,195.04,494.42,Single-ply,SBD,M
Boys,89.81,3,Kaleb Robinson,Azle,89.81,133.81,65.77,138.35,337.93,Single-ply,SBD,M
Boys,89.81,DQ,Trysten Uzzell,Granbury,88.9,170.1,,172.37,,Single-ply,SBD,M
Boys,99.79,1,Jason Umanzor,Granbury,99.79,272.16,138.35,238.14,648.64,Single-ply,SBD,M
Boys,99.79,2,Andrew Lutz,Azle,98.43,226.8,124.74,195.04,546.58,Single-ply,SBD,M
Boys,99.79,3,Tyler Walker,Granbury,94.8,210.92,117.93,210.92,539.77,Single-ply,SBD,M
Boys,99.79,4,Carlos Hernandez,Saginaw,99.79,210.92,111.13,185.97,508.02,Single-ply,SBD,M
Boys,99.79,5,Johnathan Lester,Azle,97.52,181.44,115.67,161.03,458.13,Single-ply,SBD,M
Boys,99.79,6,Tyler Jungraj,Saginaw,91.17,158.76,92.99,170.1,421.84,Single-ply,SBD,M
Boys,99.79,7,Hunter Brookshire,Granbury,94.35,151.95,81.65,156.49,390.09,Single-ply,SBD,M
Boys,99.79,8,Gavin Miller,Saginaw,98.88,102.06,63.5,124.74,290.3,Single-ply,SBD,M
Boys,99.79,DQ,Steven Williams #3,Saginaw,99.79,185.97,,165.56,,Single-ply,SBD,M
Boys,99.79,DQ,Koby Mendez,Azle,99.34,161.03,,151.95,,Single-ply,SBD,M
Boys,99.79,DQ,Caanan Revelle,Azle,95.25,174.63,,165.56,,Single-ply,SBD,M
Boys,109.77,1,Raul Sandoval,Granbury,109.32,272.16,156.49,240.4,669.05,Single-ply,SBD,M
Boys,109.77,2,Tyler Jensen,Azle,105.69,226.8,129.27,197.31,553.38,Single-ply,SBD,M
Boys,109.77,3,Zade Smith,Azle,106.14,190.51,115.67,213.19,519.36,Single-ply,SBD,M
Boys,109.77,4,Colton Kelley,Granbury,100.24,176.9,108.86,226.8,512.56,Single-ply,SBD,M
Boys,109.77,5,Landon Rhoades,Saginaw,102.97,192.78,108.86,195.04,496.68,Single-ply,SBD,M
Boys,109.77,6,Cash Deason,Granbury,107.05,158.76,88.45,190.51,437.72,Single-ply,SBD,M
Boys,109.77,7,Case Mason,Saginaw,104.33,158.76,95.25,174.63,428.64,Single-ply,SBD,M
Boys,109.77,8,Ethan Reynolds,Saginaw,109.32,145.15,97.52,158.76,401.43,Single-ply,SBD,M
Boys,109.77,9,Zachary Eminger,Granbury,108.86,124.74,74.84,165.56,365.14,Single-ply,SBD,M
Boys,109.77,DQ,Dejon Cash,Saginaw,101.15,181.44,,181.44,,Single-ply,SBD,M
Boys,124.74,1,Jonathan Sutton,Granbury,124.74,231.33,133.81,231.33,596.47,Single-ply,SBD,M
Boys,124.74,2,Fernando Torres,Saginaw,110.22,210.92,120.2,195.04,526.17,Single-ply,SBD,M
Boys,124.74,3,Skylar Ochoa,Granbury,112.49,208.65,127.01,183.7,519.36,Single-ply,SBD,M
Boys,124.74,4,Alexis Trejo,Saginaw,111.13,181.44,124.74,195.04,501.22,Single-ply,SBD,M
Boys,124.74,5,Dorian Evans,Azle,124.28,192.78,92.99,172.37,458.13,Single-ply,SBD,M
Boys,124.74,6,Afton Haayer,Granbury,122.47,124.74,70.31,136.08,331.12,Single-ply,SBD,M
Boys,124.74+,1,Adrian Little,Saginaw,144.24,204.12,117.93,199.58,521.63,Single-ply,SBD,M
Boys,124.74+,2,Koltin Bush,Granbury,125.19,154.22,102.06,170.1,426.38,Single-ply,SBD,M
