Name,BodyweightKg,State,Best3SquatKg,Best3BenchKg,Best3DeadliftKg,TotalKg,Equipment,Event,Sex,Division,WeightClassKg,Place
Kasey Davis,70.67,NC,79.38,49.9,124.74,254.02,Wraps,SBD,F,Open,75,1
Kara Koler,65.95,AL,77.11,70.31,111.13,258.55,Wraps,SBD,F,Submasters,67.5,1
JT Russell,50.71,TN,83.91,40.82,102.06,226.8,Wraps,SBD,M,Teenage 13-15,52,1
Zachery Zimmerman,73.48,TN,158.76,83.91,165.56,408.23,Wraps,SBD,M,Teenage 13-15,75,1
Nicholas Powers,98.7,TN,151.95,129.27,170.1,451.32,Wraps,SBD,M,Teenage 13-15,100,1
Ryan Spurling,125.19,TN,206.38,142.88,183.7,532.97,Wraps,SBD,M,Teenage 16-17,140,1
Robert McCarty,64.41,TN,88.45,61.23,151.95,301.64,Wraps,SBD,M,Teenage 18-19,67.5,1
Franklin Synder,108.68,TN,215.46,174.63,226.8,616.89,Wraps,SBD,M,Teenage 18-19,110,1
Cara Hilles,67.13,TN,174.63,108.86,170.1,453.59,Wraps,SBD,M,Juniors,67.5,1
Mathew York,85.55,TN,229.06,151.95,233.6,614.62,Wraps,SBD,M,Juniors,90,1
Dusty Reed,92.17,TN,254.01,145.15,249.48,648.64,Wraps,SBD,M,Juniors,100,1
Boone Wilson,129.27,TN,258.55,192.78,274.42,725.75,Wraps,SBD,M,Juniors,140,1
Jonathan Booher,73.57,TN,142.88,99.79,199.58,442.25,Wraps,SBD,M,Open,75,1
Chris Sullivan,88.36,TN,181.44,140.61,238.14,560.19,Wraps,SBD,M,Open,90,2
Jason Winters,89.99,NC,204.12,147.42,226.8,578.33,Wraps,SBD,M,Open,90,1
Brandon Franklin,97.25,WV,303.91,183.7,317.51,805.13,Wraps,SBD,M,Open,100,1
Luke Huntzinger,98.79,TN,272.16,176.9,294.84,743.89,Wraps,SBD,M,Open,100,2
Erik Whitfield,96.98,MS,249.48,149.69,267.62,666.78,Wraps,SBD,M,Open,100,3
Conner McNiel,99.7,WA,235.87,142.88,238.14,616.89,Wraps,SBD,M,Open,100,4
George Green,96.71,OH,206.38,140.61,204.12,551.11,Wraps,SBD,M,Open,100,5
Porter Wood,97.98,TN,190.51,113.4,226.8,530.7,Wraps,SBD,M,Open,100,6
Chris Sparks,98.07,OH,201.85,113.4,195.04,510.29,Wraps,SBD,M,Open,100,7
Tee Cummins,103.51,TN,351.53,188.24,303.91,843.68,Wraps,SBD,M,Open,110,1
Kyle Lombardo,108.86,TN,249.48,208.65,247.21,705.34,Wraps,SBD,M,Open,110,2
Curtis Raven,123.56,NC,322.05,208.65,301.64,832.34,Wraps,SBD,M,Open,125,1
Phillip Waddell,124.92,TN,281.23,197.31,303.91,782.45,Wraps,SBD,M,Open,125,2
Ken McQueen,126.64,TN,294.84,233.6,306.17,834.61,Wraps,SBD,M,Open,140,1
David Williamson,134.9,TN,301.64,192.78,308.44,802.86,Wraps,SBD,M,Open,140,2
Curt Dennis,136.98,GA,288.03,183.7,317.51,789.25,Wraps,SBD,M,Open,140,3
Scotty Manning,149.5,AR,215.46,174.63,258.55,648.64,Wraps,SBD,M,Open,140+,1
Zach Hamliton,71.3,OH,147.42,79.38,181.44,408.23,Wraps,SBD,M,Police and Fire,75,1
Nick Hanzik,99.88,TN,249.48,170.1,249.48,669.05,Wraps,SBD,M,Submasters,100,1
Jeff Clabo,115.48,TN,174.63,129.27,206.38,510.29,Wraps,SBD,M,Submasters,118,1
Brian Barger,89.9,TN,244.94,151.95,285.76,682.66,Wraps,SBD,M,Masters 40-44,90,1
Don Holtzclaw,98.61,TN,192.78,145.15,226.8,564.72,Wraps,SBD,M,Masters 40-44,100,1
Patrick Baldwin,84.46,AL,183.7,124.74,229.06,537.51,Wraps,SBD,M,Masters 45-49,90,1
Ric Koler,116.94,AL,219.99,165.56,235.87,621.42,Wraps,SBD,M,Masters 45-49,118,1
John Lanpe,118.93,GA,244.94,170.1,260.82,675.85,Wraps,SBD,M,Masters 45-49,125,1
Mike Harvey,87.54,TN,165.56,102.06,181.44,449.06,Wraps,SBD,M,Masters 50-54,90,1
Curtis Raven,123.56,NC,322.05,208.65,301.64,832.34,Wraps,SBD,M,Masters 50-54,125,1
Joe McNeil,66.5,IN,272.16,122.47,233.6,628.23,Multi-ply,SBD,M,Open,67.5,1
Derek Green,105.23,TN,331.12,290.3,276.69,898.11,Multi-ply,SBD,M,Open,110,1
Brian Berryman,107.05,IN,326.59,210.92,272.16,809.66,Multi-ply,SBD,M,Open,110,2
Tom Kein,104.05,WV,226.8,158.76,229.06,614.62,Multi-ply,SBD,M,Open,110,3
Jake Norman,123.01,OH,340.19,199.58,349.27,889.04,Multi-ply,SBD,M,Open,125,1
Mike Jester,89.9,OH,272.16,181.44,249.48,703.07,Multi-ply,SBD,M,Masters 40-44,90,1
Tracy Johnson #5,99.79,TN,249.48,204.12,251.74,705.34,Multi-ply,SBD,M,Masters 40-44,100,1
Wade Johnson,138.44,TN,340.19,283.5,272.16,895.84,Multi-ply,SBD,M,Masters 40-44,140,1
Tom McNeil,74.93,IN,213.19,95.25,215.46,523.9,Multi-ply,SBD,M,Masters 55-59,75,1
Parmer Smith,74.66,NC,,147.42,,147.42,Raw,B,M,Teenage 18-19,75,1
James Faust,99.43,TN,,204.12,,204.12,Raw,B,M,Open,100,1
James Cooper,161.21,GA,,174.63,,174.63,Raw,B,M,Submasters,140+,1
Quinton Smiddy,91.44,TN,,151.95,,151.95,Raw,B,M,Masters 50-54,100,1
Justin Ridenhour,124.38,NC,,294.84,,294.84,Single-ply,B,M,Open,125,1
Tom Bohache,99.79,OH,,188.24,,188.24,Multi-ply,B,M,Open,100,1
Travis Bell,121.74,OH,,385.55,,385.55,Multi-ply,B,M,Open,125,1
Ryan Hebron,150.96,YN,,342.46,,342.46,Multi-ply,B,M,Open,140+,1
Jason Carter,152.77,TN,,281.23,,281.23,Multi-ply,B,M,Open,140+,2
Hayden Spradlin,45.99,TN,,56.7,117.93,174.63,Raw,BD,M,Teenage 13-15,48,1
Justin Urban,99.34,TN,,172.37,263.08,435.45,Raw,BD,M,Open,100,1
Josh Fillers,129.46,TN,,149.69,265.35,415.04,Raw,BD,M,Open,140,1
Paul Henson,132.36,OH,,249.48,294.84,544.31,Raw,BD,M,Masters 40-44,140,1
Tom Lombardo,89.45,TN,,179.17,201.85,381.02,Raw,BD,M,Masters 50-54,90,1
Mike Beaty,157.4,TN,,,317.51,317.51,Multi-ply,D,M,Open,140+,1
Mike Cotner,74.84,TN,290.3,210.92,267.62,768.84,Multi-ply,SBD,M,Pro Open,75,1
Eric Shelton,82.01,TN,317.51,240.4,276.69,834.61,Multi-ply,SBD,M,Pro Open,82.5,1
Jimmie Pacifico,99.43,OH,437.72,344.73,337.93,1120.37,Multi-ply,SBD,M,Pro Open,100,1
Titas Russell,107.59,WV,426.38,226.8,272.16,925.33,Multi-ply,SBD,M,Pro Open,110,1
Mark Steel,106.14,TN,376.48,229.06,272.16,877.7,Multi-ply,SBD,M,Pro Open,110,2
Tony Bolognone,134.44,OH,426.38,369.68,349.27,1145.32,Multi-ply,SBD,M,Pro Open,140,1
Christian Mello,124.74,OH,430.91,333.39,340.19,1104.5,Multi-ply,SBD,M,Pro Open,125,2
Elliot Baum,121.29,OH,349.27,322.05,276.69,948.01,Multi-ply,SBD,M,Pro Open,125,3
Shane Hammock,127.55,OH,508.02,385.55,365.14,1258.72,Multi-ply,SBD,M,Pro Open,140,1
Curt Porter,138.16,TN,464.93,317.51,356.07,1138.52,Multi-ply,SBD,M,Pro Open,140,2
Jack Henderson,143.79,OH,498.95,378.75,317.51,1195.22,Multi-ply,SBD,M,Pro Open,140+,1
Chris Spegal,183.52,OH,,,387.82,387.82,Multi-ply,D,M,Pro Open,140+,1
